dcache_test_13124.vcd
$date
        2025-Apr-22 11:00:10
$end
$version
        Vivado v2024.2 (64-bit)
$end
$timescale
        1ps
$end
$scope module dut $end
$var reg 1 " design_1_i/soc1_0_robOut_commitFired $end
$var reg 64 # design_1_i/soc7_0_robOut_pc [63:0] $end
$var reg 64 c design_1_i/soc7_0_robOut_instruction [63:0] $end
$var reg 64 E" design_1_i/soc8_0_memAccessOut_schedulerReqIn_info [63:0] $end
$var reg 64 '# design_1_i/soc8_0_memAccessOut_schedulerReqIn_data [63:0] $end
$var reg 64 g# design_1_i/soc8_0_memAccessOut_schedulerReqOut_info [63:0] $end
$var reg 64 I$ design_1_i/soc8_0_memAccessOut_schedulerReqOut_data [63:0] $end
$var reg 64 +% design_1_i/soc8_0_memAccessOut_arbiterSpecBuffer_info [63:0] $end
$var reg 64 k% design_1_i/soc8_0_memAccessOut_arbiterSpecBuffer_data [63:0] $end
$var reg 64 M& design_1_i/soc8_0_memAccessOut_arbiterOperBuffer_info [63:0] $end
$var reg 64 /' design_1_i/soc8_0_memAccessOut_arbiterOperBuffer_data [63:0] $end
$var reg 64 o' design_1_i/soc8_0_memAccessOut_lookupReadBuffer_info [63:0] $end
$var reg 64 Q( design_1_i/soc8_0_memAccessOut_lookupReadBuffer_data [63:0] $end
$var reg 64 3) design_1_i/soc8_0_memAccessOut_lookupReplayBuffer_info [63:0] $end
$var reg 64 s) design_1_i/soc8_0_memAccessOut_lookupReplayBuffer_data [63:0] $end
$var reg 32 U* design_1_i/counter_1_0_count_out [31:0] $end
$var reg 1 u* _TRIGGER $end
$var reg 1 v* _WINDOW $end
$var reg 1 w* _GAP $end
$upscope $end
$enddefinitions $end
#0
$dumpvars
1"
b10000000000000000000001111110000 #
b11111110101001100001000011100011 c
b0 E"
b0 '#
b0 g#
b0 I$
b0 +%
b0 k%
b0 M&
b0 /'
b0 o'
b0 Q(
b0 3)
b0 s)
b11001100100101 U*
0u*
1v*
0w*
$end
#1
0"
b10000000000000000000001111010000 #
b110001101000100000110011 c
b11001100100110 U*
#6
1"
#7
b10000000000000000000001111010100 #
b110001110000010110110011 c
b1000000000000000001101110011110000000000000010000010100010000011 E"
b100000000100100001011 '#
b11001100100111 U*
#8
0"
b10000000000000000000001111011000 #
b10000010100010000011 c
b1000000000000000001001111001110000000000000001011010010110000011 E"
b100000001100000001100 '#
b1000000000000000001101110011110000000000000010000010100010000011 g#
b1000100000000100100001011 I$
b11001100101000 U*
#9
b0 E"
b0 '#
b0 g#
b0 I$
b1000000000000000001101110011110000000000000010000010100010000011 +%
b100000000100100001011 k%
#10
b1000000000000000001001111001110000000000000001011010010110000011 g#
b1000100000001100000001100 I$
b0 +%
b0 k%
b1000000000000000001101110011110000000000000010000010100010000011 o'
b1000100000000100100001011 Q(
#11
1"
b0 g#
b0 I$
b1000000000000000001001111001110000000000000001011010010110000011 +%
b100000001100000001100 k%
b0 o'
b0 Q(
#12
0"
b10000000000000000000001111011100 #
b1011010010110000011 c
b1000000000000000010001101110010000000000101110000010000000100011 E"
b100000010011000000000 '#
b0 +%
b0 k%
b1000000000000000001001111001110000000000000001011010010110000011 o'
b1000100000001100000001100 Q(
b11001100101001 U*
#13
1"
b0 E"
b0 '#
b1000000000000000010001101110010000000000101110000010000000100011 g#
b100000010011000000000 I$
b0 o'
b0 Q(
#14
0"
b10000000000000000000001111100000 #
b110001111000100000110011 c
b0 g#
b0 I$
b1000000000000000010001101110010000000000101110000010000000100011 M&
b100000010011000000000 /'
b11001100101010 U*
#15
1"
b1000100000010011000000000 /'
#16
b10000000000000000000001111100100 #
b10001100000011000010011 c
b11001100101011 U*
#17
0"
b10000000000000000000001111101000 #
b1000101011000010110111011 c
b11001100101100 U*
#18
1"
#19
0"
b10000000000000000000001111101100 #
b101110000010000000100011 c
b11001100101101 U*
#20
b10000100000010011000000000 /'
#23
b100000100000010011000000000 /'
#24
b1000000000000000010001101110010000000000101110000010000000100011 o'
b1000100000010011000000000 Q(
#25
1"
b0 o'
b0 Q(
#26
b10000000000000000000001111110000 #
b11111110101001100001000011100011 c
b0 M&
b0 /'
b11001100101110 U*
#27
b10000000000000000000001111110100 #
b1000000001100111 c
b11001100101111 U*
#28
0"
b10000000000000000000001011110100 #
b1001000010100010011 c
b11001100110000 U*
#34
1"
#35
b10000000000000000000001011111000 #
b11110110010111111111000011101111 c
b11001100110001 U*
#36
0"
b10000000000000000000001011111100 #
b1000000011001100011 c
b11001100110010 U*
#59
b1000000000000000000000100100000000000000000000000000000000000000 o'
b11000000000000000000000000 Q(
#62
b0 o'
b0 Q(
#124
1"
b10000000000000000000001001011100 #
b1111111100000000000000001111 c
#125
0"
b10000000000000000000001100000000 #
b1000000000010100010011 c
b11001100110011 U*
#146
b1000000000000000000000100100000000000000000000000000000000000000 o'
b11000000000000000000000000 Q(
#149
b0 o'
b0 Q(
#212
b10000000000000000000001001100000 #
b100010011100000011 c
#216
b1000000000000100000000000000000000000000000000100010011100000011 E"
b100000000010100000110 '#
#217
b0 E"
b0 '#
b1000000000000100000000000000000000000000000000100010011100000011 g#
b1000100000000010100000110 I$
#218
b0 g#
b0 I$
b1000000000000100000000000000000000000000000000100010011100000011 +%
b100000000010100000110 k%
#219
b0 +%
b0 k%
b1000000000000100000000000000000000000000000000100010011100000011 o'
b1000100000000010100000110 Q(
#220
b1000000000000100000000000000000000000000111000100010000000100011 E"
b100000001100100001001 '#
b0 o'
b0 Q(
b1000000000000100000000000000000000000000000000100010011100000011 3)
b100000000010100000110 s)
#221
b0 E"
b0 '#
b1000000000000100000000000000000000000000111000100010000000100011 g#
b100000001100100001001 I$
b0 3)
b0 s)
#222
b0 g#
b0 I$
b1000000000000100000000000000000000000000111000100010000000100011 M&
b100000001100100001001 /'
#223
b1000000000000000010001101110110000000110110101110010011100101111 E"
b100000001111000001100 '#
b1000100000001100100001001 /'
#224
b0 E"
b0 '#
#232
b1000000000000000000000101000000000000000000000000000000000000000 o'
b11000000000000000000000000 Q(
#235
b0 o'
b0 Q(
#304
b1000000000000100000000000000000000000000000000100010011010000011 E"
b100010010011100000000 '#
#305
b0 E"
b0 '#
#307
b1000000000000000010001101110100000000000000001110010011110000011 E"
b100010010101100000011 '#
#308
b0 E"
b0 '#
#369
b1000000000000100000000000000000000000000000000100010011100000011 o'
b10000100000000010100000110 Q(
#370
1"
b0 o'
b0 Q(
#371
b10000000000000000000001001100100 #
b100000000011010010011 c
b11001100110100 U*
#372
0"
b10000000000000000000001001101000 #
b101110011011100010011 c
b11001100110101 U*
#375
1"
#376
0"
b10000000000000000000001001101100 #
b111000100010000000100011 c
b11001100110110 U*
#377
b10000100000001100100001001 /'
#380
b100000100000001100100001001 /'
#381
b1000000000000000010001101110110000000110110101110010011100101111 g#
b100000001111000001100 I$
b1000000000000100000000000000000000000000111000100010000000100011 o'
b1000100000001100100001001 Q(
#382
1"
b0 g#
b0 I$
b1000000000000000010001101110110000000110110101110010011100101111 M&
b100000100000001111000001100 /'
b0 o'
b0 Q(
#383
b10000000000000000000001001110000 #
b100011100010111 c
b100000001111000001100 /'
b11001100110111 U*
#384
b10000000000000000000001001110100 #
b1000111110001110000011100010011 c
b11000100000001111000001100 /'
b11001100111000 U*
#385
0"
b10000000000000000000001001111000 #
b110110101110010011100101111 c
b1000000000000000010001101110110000000110110101110010011100101111 o'
b1000100000001111000001100 Q(
b11001100111001 U*
#386
b1000100000001111000001100 /'
b0 o'
b0 Q(
#387
b10000100000001111000001100 /'
#390
b100000100000001111000001100 /'
#391
b1000000000000100000000000000000000000000000000100010011010000011 g#
b100000010011100000000 I$
b1000000000000000010001101110110000000110110101110010011100101111 o'
b1000100000001111000001100 Q(
#392
1"
b0 g#
b0 I$
b1000000000000100000000000000000000000000000000100010011010000011 M&
b100000100000010011100000000 /'
b0 o'
b0 Q(
#393
b10000000000000000000001001111100 #
b1110000011100011011 c
b100000010011100000000 /'
b11001100111010 U*
#394
b10000000000000000000001010000000 #
b11111111111101010000010100011011 c
b0 M&
b0 /'
b11001100111011 U*
#395
b10000000000000000000001010000100 #
b10111001010000000001100011 c
b1000000000000000010001101110100000000000000001110010011110000011 g#
b100000010101100000011 I$
b1000000000000100000000000000000000000000000000100010011010000011 o'
b1000100000010011100000000 Q(
b11001100111100 U*
#396
b10000000000000000000001010001000 #
b100010011010000011 c
b0 g#
b0 I$
b1000000000000000010001101110100000000000000001110010011110000011 M&
b100000010101100000011 /'
b0 o'
b0 Q(
b11001100111101 U*
#397
b10000000000000000000001010001100 #
b100011100010111 c
b0 M&
b0 /'
b11001100111110 U*
#398
b10000000000000000000001010010000 #
b1000101110001110000011100010011 c
b1000000000000000010001101110100000000000000001110010011110000011 o'
b1000100000010101100000011 Q(
b11001100111111 U*
#399
b10000000000000000000001010010100 #
b1110010011110000011 c
b0 o'
b0 Q(
b11001101000000 U*
#400
0"
b10000000000000000000001010011000 #
b11111110110101111001111011100011 c
b11001101000001 U*
#404
1"
#405
0"
b10000000000000000000001010011100 #
b1111111100000000000000001111 c
b11001101000010 U*
#426
b1000000000000000000000101000000000000000000000000000000000000000 o'
b11000000000000000000000000 Q(
#429
b0 o'
b0 Q(
#497
b10000000000000000000001010010100 #
b1110010011110000011 c
#501
b1000000000000000010001101110100000000000000001110010011110000011 E"
b100000000010000000101 '#
#502
b0 E"
b0 '#
b1000000000000000010001101110100000000000000001110010011110000011 g#
b100000000010000000101 I$
#503
b0 g#
b0 I$
b1000000000000000010001101110100000000000000001110010011110000011 M&
b100000000010000000101 /'
#504
b0 M&
b0 /'
#505
b1000000000000000010001101110100000000000000001110010011110000011 o'
b1000100000000010000000101 Q(
#506
1"
b0 o'
b0 Q(
#507
0"
b10000000000000000000001010011000 #
b11111110110101111001111011100011 c
b11001101000011 U*
#511
1"
#512
0"
b10000000000000000000001010011100 #
b1111111100000000000000001111 c
b11001101000100 U*
1u*
#533
b1000000000000000000000101000000000000000000000000000000000000000 o'
b11000000000000000000000000 Q(
#536
b0 o'
b0 Q(
#604
b10000000000000000000001010010100 #
b1110010011110000011 c
#608
b1000000000000000010001101110100000000000000001110010011110000011 E"
b100000000010100000111 '#
#609
b0 E"
b0 '#
b1000000000000000010001101110100000000000000001110010011110000011 g#
b100000000010100000111 I$
#610
b0 g#
b0 I$
b1000000000000000010001101110100000000000000001110010011110000011 M&
b100000000010100000111 /'
#611
b0 M&
b0 /'
#612
b1000000000000000010001101110100000000000000001110010011110000011 o'
b1000100000000010100000111 Q(
#613
1"
b0 o'
b0 Q(
#614
0"
b10000000000000000000001010011000 #
b11111110110101111001111011100011 c
b11001101000101 U*
#618
1"
#619
0"
b10000000000000000000001010011100 #
b1111111100000000000000001111 c
b11001101000110 U*
#640
b1000000000000000000000101000000000000000000000000000000000000000 o'
b11000000000000000000000000 Q(
#643
b0 o'
b0 Q(
#711
b10000000000000000000001010010100 #
b1110010011110000011 c
#715
b1000000000000000010001101110100000000000000001110010011110000011 E"
b100000000010000001001 '#
#716
b0 E"
b0 '#
b1000000000000000010001101110100000000000000001110010011110000011 g#
b100000000010000001001 I$
#717
b0 g#
b0 I$
b1000000000000000010001101110100000000000000001110010011110000011 M&
b100000000010000001001 /'
#718
b0 M&
b0 /'
#719
b1000000000000000010001101110100000000000000001110010011110000011 o'
b1000100000000010000001001 Q(
#720
1"
b0 o'
b0 Q(
#721
0"
b10000000000000000000001010011000 #
b11111110110101111001111011100011 c
b11001101000111 U*
#725
1"
#726
0"
b10000000000000000000001010011100 #
b1111111100000000000000001111 c
b11001101001000 U*
#747
b1000000000000000000000101000000000000000000000000000000000000000 o'
b11000000000000000000000000 Q(
#750
b0 o'
b0 Q(
#818
b10000000000000000000001010010100 #
b1110010011110000011 c
#822
b1000000000000000010001101110100000000000000001110010011110000011 E"
b100000000010100001011 '#
#823
b0 E"
b0 '#
b1000000000000000010001101110100000000000000001110010011110000011 g#
b100000000010100001011 I$
#824
b0 g#
b0 I$
b1000000000000000010001101110100000000000000001110010011110000011 M&
b100000000010100001011 /'
#825
b0 M&
b0 /'
#826
b1000000000000000010001101110100000000000000001110010011110000011 o'
b1000100000000010100001011 Q(
#827
1"
b0 o'
b0 Q(
#828
0"
b10000000000000000000001010011000 #
b11111110110101111001111011100011 c
b11001101001001 U*
#832
1"
#833
0"
b10000000000000000000001010011100 #
b1111111100000000000000001111 c
b11001101001010 U*
#854
b1000000000000000000000101000000000000000000000000000000000000000 o'
b11000000000000000000000000 Q(
#857
b0 o'
b0 Q(
#925
b10000000000000000000001010010100 #
b1110010011110000011 c
#929
b1000000000000000010001101110100000000000000001110010011110000011 E"
b100000000010000001101 '#
#930
b0 E"
b0 '#
b1000000000000000010001101110100000000000000001110010011110000011 g#
b100000000010000001101 I$
#931
b0 g#
b0 I$
b1000000000000000010001101110100000000000000001110010011110000011 M&
b100000000010000001101 /'
#932
b0 M&
b0 /'
#933
b1000000000000000010001101110100000000000000001110010011110000011 o'
b1000100000000010000001101 Q(
#934
1"
b0 o'
b0 Q(
#935
0"
b10000000000000000000001010011000 #
b11111110110101111001111011100011 c
b11001101001011 U*
#939
1"
#940
0"
b10000000000000000000001010011100 #
b1111111100000000000000001111 c
b11001101001100 U*
#961
b1000000000000000000000101000000000000000000000000000000000000000 o'
b11000000000000000000000000 Q(
#964
b0 o'
b0 Q(
