reg_without_b_13100.vcd
$date
        2025-Apr-22 11:19:19
$end
$version
        Vivado v2024.2 (64-bit)
$end
$timescale
        1ps
$end
$scope module dut $end
$var reg 64 " design_1_i/soc8_0_registersOut_0 [63:0] $end
$var reg 64 b design_1_i/soc8_0_registersOut_1 [63:0] $end
$var reg 64 D" design_1_i/soc8_0_registersOut_2 [63:0] $end
$var reg 64 &# design_1_i/soc8_0_registersOut_3 [63:0] $end
$var reg 64 f# design_1_i/soc8_0_registersOut_4 [63:0] $end
$var reg 64 H$ design_1_i/soc8_0_registersOut_5 [63:0] $end
$var reg 64 *% design_1_i/soc8_0_registersOut_6 [63:0] $end
$var reg 64 j% design_1_i/soc8_0_registersOut_7 [63:0] $end
$var reg 64 L& design_1_i/soc8_0_registersOut_8 [63:0] $end
$var reg 64 .' design_1_i/soc8_0_registersOut_9 [63:0] $end
$var reg 64 n' design_1_i/soc8_0_registersOut_10 [63:0] $end
$var reg 64 P( design_1_i/soc8_0_registersOut_11 [63:0] $end
$var reg 64 2) design_1_i/soc8_0_registersOut_12 [63:0] $end
$var reg 64 r) design_1_i/soc8_0_registersOut_13 [63:0] $end
$var reg 64 T* design_1_i/soc8_0_registersOut_14 [63:0] $end
$var reg 64 6+ design_1_i/soc8_0_registersOut_15 [63:0] $end
$var reg 64 v+ design_1_i/soc8_0_registersOut_16 [63:0] $end
$var reg 64 X, design_1_i/soc8_0_registersOut_17 [63:0] $end
$var reg 64 :- design_1_i/soc8_0_registersOut_18 [63:0] $end
$var reg 64 z- design_1_i/soc8_0_registersOut_19 [63:0] $end
$var reg 64 \. design_1_i/soc8_0_registersOut_20 [63:0] $end
$var reg 64 >/ design_1_i/soc8_0_registersOut_21 [63:0] $end
$var reg 64 ~/ design_1_i/soc8_0_registersOut_22 [63:0] $end
$var reg 64 `0 design_1_i/soc8_0_registersOut_23 [63:0] $end
$var reg 64 B1 design_1_i/soc8_0_registersOut_24 [63:0] $end
$var reg 64 $2 design_1_i/soc8_0_registersOut_25 [63:0] $end
$var reg 64 d2 design_1_i/soc8_0_registersOut_26 [63:0] $end
$var reg 64 F3 design_1_i/soc8_0_registersOut_27 [63:0] $end
$var reg 64 (4 design_1_i/soc8_0_registersOut_28 [63:0] $end
$var reg 64 h4 design_1_i/soc8_0_registersOut_29 [63:0] $end
$var reg 64 J5 design_1_i/soc8_0_registersOut_30 [63:0] $end
$var reg 64 ,6 design_1_i/soc8_0_registersOut_31 [63:0] $end
$var reg 64 l6 design_1_i/soc8_0_registersOut_32 [63:0] $end
$var reg 1 N7 design_1_i/soc1_0_robOut_commitFired_1 $end
$var reg 64 O7 design_1_i/soc7_0_robOut_pc_1 [63:0] $end
$var reg 64 18 design_1_i/soc7_0_robOut_instruction_1 [63:0] $end
$var reg 32 q8 design_1_i/counter_1_0_count_out_1 [31:0] $end
$var reg 1 39 _TRIGGER $end
$var reg 1 49 _WINDOW $end
$var reg 1 59 _GAP $end
$upscope $end
$enddefinitions $end
#0
$dumpvars
b0 "
b10000000000000000000001010001100 b
b10000000000001111111111111110000 D"
b0 &#
b10000000000001000000000000000000 f#
b0 H$
b1111101000 *%
b1000000000000000000 j%
b0 L&
b0 .'
b111110100000 n'
b10000000000000000010011011100000 P(
b111101011000 2)
b10000000000000000010011100101000 r)
b10000000000000000001011110001000 T*
b10000000000000000011011011010000 6+
b10000000000000000011011010000000 v+
b111101100 X,
b0 :-
b0 z-
b0 \.
b0 >/
b0 ~/
b0 `0
b0 B1
b0 $2
b0 d2
b0 F3
b1 (4
b0 h4
b10000000000000000100011001110000 J5
b10000000000000000100011001110000 ,6
b101000000000000000000000000000000000 l6
0N7
b10000000000000000000001101100100 O7
b10000010100010000011 18
b11001010001101 q8
039
149
059
$end
#20
1N7
#21
b1111001000 X,
b10000000000000000000001101101000 O7
b1011010010110000011 18
b11001010001110 q8
#22
b110110100 P(
b10000000000000000000001101101100 O7
b110001111000100000110011 18
b11001010001111 q8
#23
b10000000000000000100011000101000 v+
b10000000000000000000001101110000 O7
b10001100000011000010011 18
b11001010010000 q8
#24
0N7
b10000000000000000000001101110100 O7
b1000101011000010110111011 18
b11001010010001 q8
#25
b111101011100 2)
1N7
#26
0N7
b10000000000000000000001101111000 O7
b101110000010000000100011 18
b11001010010010 q8
#27
b10101111100 P(
#94
1N7
#95
b10000000000000000000001101111100 O7
b11111110101001100001000011100011 18
b11001010010011 q8
#96
b10000000000000000000001101011100 O7
b110001101000100000110011 18
b11001010010100 q8
#97
b10000000000000000011011010000100 v+
b10000000000000000000001101100000 O7
b110001110000010110110011 18
b11001010010101 q8
#98
b10000000000000000010011011100100 P(
b10000000000000000000001101100100 O7
b10000010100010000011 18
b11001010010110 q8
#99
b111101111 X,
b10000000000000000000001101101000 O7
b1011010010110000011 18
b11001010010111 q8
#100
b10111011 P(
b10000000000000000000001101101100 O7
b110001111000100000110011 18
b11001010011000 q8
#101
b10000000000000000100011000101100 v+
b10000000000000000000001101110000 O7
b10001100000011000010011 18
b11001010011001 q8
#102
0N7
b10000000000000000000001101110100 O7
b1000101011000010110111011 18
b11001010011010 q8
#103
b111101100000 2)
1N7
#104
0N7
b10000000000000000000001101111000 O7
b101110000010000000100011 18
b11001010011011 q8
#105
b1010101010 P(
#110
1N7
#111
b10000000000000000000001101111100 O7
b11111110101001100001000011100011 18
b11001010011100 q8
#112
b10000000000000000000001101011100 O7
b110001101000100000110011 18
b11001010011101 q8
#113
b10000000000000000011011010001000 v+
b10000000000000000000001101100000 O7
b110001110000010110110011 18
b11001010011110 q8
#114
b10000000000000000010011011101000 P(
b10000000000000000000001101100100 O7
b10000010100010000011 18
b11001010011111 q8
#115
b1001100000 X,
b10000000000000000000001101101000 O7
b1011010010110000011 18
b11001010100000 q8
#116
b10010011 P(
b10000000000000000000001101101100 O7
b110001111000100000110011 18
b11001010100001 q8
#117
b10000000000000000100011000110000 v+
b10000000000000000000001101110000 O7
b10001100000011000010011 18
b11001010100010 q8
#118
b111101100100 2)
b10000000000000000000001101110100 O7
b1000101011000010110111011 18
b11001010100011 q8
#119
0N7
b10000000000000000000001101111000 O7
b101110000010000000100011 18
b11001010100100 q8
#120
b1011110011 P(
#125
1N7
#126
b10000000000000000000001101111100 O7
b11111110101001100001000011100011 18
b11001010100101 q8
#127
b10000000000000000000001101011100 O7
b110001101000100000110011 18
b11001010100110 q8
#128
b10000000000000000011011010001100 v+
b10000000000000000000001101100000 O7
b110001110000010110110011 18
b11001010100111 q8
#129
b10000000000000000010011011101100 P(
b10000000000000000000001101100100 O7
b10000010100010000011 18
b11001010101000 q8
#130
b1110100110 X,
b10000000000000000000001101101000 O7
b1011010010110000011 18
b11001010101001 q8
#131
b100000111 P(
b10000000000000000000001101101100 O7
b110001111000100000110011 18
b11001010101010 q8
#132
b10000000000000000100011000110100 v+
b10000000000000000000001101110000 O7
b10001100000011000010011 18
b11001010101011 q8
#133
b111101101000 2)
b10000000000000000000001101110100 O7
b1000101011000010110111011 18
b11001010101100 q8
#134
0N7
b10000000000000000000001101111000 O7
b101110000010000000100011 18
b11001010101101 q8
#135
b10010101101 P(
#142
1N7
#143
b10000000000000000000001101111100 O7
b11111110101001100001000011100011 18
b11001010101110 q8
#144
0N7
b10000000000000000000001110000000 O7
b1000000001100111 18
b11001010101111 q8
#149
b10000000000000000000001101011100 O7
b110001101000100000110011 18
#154
1N7
#155
b10000000000000000011011010010000 v+
b10000000000000000000001101100000 O7
b110001110000010110110011 18
b11001010110000 q8
#156
0N7
b10000000000000000000001101100100 O7
b10000010100010000011 18
b11001010110001 q8
#157
b10000000000000000010011011110000 P(
#159
1N7
#160
0N7
b10000000000000000000001101101000 O7
b1011010010110000011 18
b11001010110010 q8
#161
b111101111 X,
#162
1N7
#163
b1100101 P(
b10000000000000000000001101101100 O7
b110001111000100000110011 18
b11001010110011 q8
#164
b10000000000000000100011000111000 v+
b10000000000000000000001101110000 O7
b10001100000011000010011 18
b11001010110100 q8
#165
0N7
b10000000000000000000001101110100 O7
b1000101011000010110111011 18
b11001010110101 q8
#166
b111101101100 2)
1N7
#167
0N7
b10000000000000000000001101111000 O7
b101110000010000000100011 18
b11001010110110 q8
#168
b1001010100 P(
#173
1N7
#174
b10000000000000000000001101111100 O7
b11111110101001100001000011100011 18
b11001010110111 q8
#175
0N7
b10000000000000000000001101011100 O7
b110001101000100000110011 18
b11001010111000 q8
#180
1N7
#181
b10000000000000000011011010010100 v+
b10000000000000000000001101100000 O7
b110001110000010110110011 18
b11001010111001 q8
#182
0N7
b10000000000000000000001101100100 O7
b10000010100010000011 18
b11001010111010 q8
#183
b10000000000000000010011011110100 P(
#185
1N7
#186
0N7
b10000000000000000000001101101000 O7
b1011010010110000011 18
b11001010111011 q8
#187
b11110111 X,
#188
1N7
#189
b1110011101 P(
b10000000000000000000001101101100 O7
b110001111000100000110011 18
b11001010111100 q8
#190
b10000000000000000100011000111100 v+
b10000000000000000000001101110000 O7
b10001100000011000010011 18
b11001010111101 q8
#191
0N7
b10000000000000000000001101110100 O7
b1000101011000010110111011 18
b11001010111110 q8
#192
b111101110000 2)
1N7
#193
0N7
b10000000000000000000001101111000 O7
b101110000010000000100011 18
b11001010111111 q8
#194
b10010010100 P(
#199
1N7
#200
b10000000000000000000001101111100 O7
b11111110101001100001000011100011 18
b11001011000000 q8
#201
0N7
b10000000000000000000001101011100 O7
b110001101000100000110011 18
b11001011000001 q8
#206
1N7
#207
b10000000000000000011011010011000 v+
b10000000000000000000001101100000 O7
b110001110000010110110011 18
b11001011000010 q8
#208
0N7
b10000000000000000000001101100100 O7
b10000010100010000011 18
b11001011000011 q8
#209
b10000000000000000010011011111000 P(
#211
1N7
#212
0N7
b10000000000000000000001101101000 O7
b1011010010110000011 18
b11001011000100 q8
#213
b1000100100 X,
#214
1N7
#215
b111000 P(
b10000000000000000000001101101100 O7
b110001111000100000110011 18
b11001011000101 q8
#216
b10000000000000000100011001000000 v+
b10000000000000000000001101110000 O7
b10001100000011000010011 18
b11001011000110 q8
#217
0N7
b10000000000000000000001101110100 O7
b1000101011000010110111011 18
b11001011000111 q8
#218
b111101110100 2)
1N7
#219
0N7
b10000000000000000000001101111000 O7
b101110000010000000100011 18
b11001011001000 q8
#220
b1001011100 P(
#225
1N7
#226
b10000000000000000000001101111100 O7
b11111110101001100001000011100011 18
b11001011001001 q8
#227
0N7
b10000000000000000000001101011100 O7
b110001101000100000110011 18
b11001011001010 q8
#232
1N7
#233
b10000000000000000011011010011100 v+
b10000000000000000000001101100000 O7
b110001110000010110110011 18
b11001011001011 q8
#234
0N7
b10000000000000000000001101100100 O7
b10000010100010000011 18
b11001011001100 q8
#235
b10000000000000000010011011111100 P(
#237
1N7
#238
0N7
b10000000000000000000001101101000 O7
b1011010010110000011 18
b11001011001101 q8
#239
b1111111 X,
#240
1N7
#241
b1010100100 P(
b10000000000000000000001101101100 O7
b110001111000100000110011 18
b11001011001110 q8
#242
b10000000000000000100011001000100 v+
b10000000000000000000001101110000 O7
b10001100000011000010011 18
b11001011001111 q8
#243
0N7
b10000000000000000000001101110100 O7
b1000101011000010110111011 18
b11001011010000 q8
#244
b111101111000 2)
1N7
#245
0N7
b10000000000000000000001101111000 O7
b101110000010000000100011 18
b11001011010001 q8
#246
b1100100011 P(
#251
1N7
#252
b10000000000000000000001101111100 O7
b11111110101001100001000011100011 18
b11001011010010 q8
#253
0N7
b10000000000000000000001101011100 O7
b110001101000100000110011 18
b11001011010011 q8
#258
1N7
#259
b10000000000000000011011010100000 v+
b10000000000000000000001101100000 O7
b110001110000010110110011 18
b11001011010100 q8
#260
0N7
b10000000000000000000001101100100 O7
b10000010100010000011 18
b11001011010101 q8
#261
b10000000000000000010011100000000 P(
#263
1N7
#264
0N7
b10000000000000000000001101101000 O7
b1011010010110000011 18
b11001011010110 q8
#265
b101110 X,
#266
1N7
#267
b110100001 P(
b10000000000000000000001101101100 O7
b110001111000100000110011 18
b11001011010111 q8
#268
b10000000000000000100011001001000 v+
b10000000000000000000001101110000 O7
b10001100000011000010011 18
b11001011011000 q8
#269
0N7
b10000000000000000000001101110100 O7
b1000101011000010110111011 18
b11001011011001 q8
#270
b111101111100 2)
1N7
#271
0N7
b10000000000000000000001101111000 O7
b101110000010000000100011 18
b11001011011010 q8
#272
b111001111 P(
#277
1N7
#278
b10000000000000000000001101111100 O7
b11111110101001100001000011100011 18
b11001011011011 q8
#279
0N7
b10000000000000000000001101011100 O7
b110001101000100000110011 18
b11001011011100 q8
#284
1N7
#285
b10000000000000000011011010100100 v+
b10000000000000000000001101100000 O7
b110001110000010110110011 18
b11001011011101 q8
#286
0N7
b10000000000000000000001101100100 O7
b10000010100010000011 18
b11001011011110 q8
#287
b10000000000000000010011100000100 P(
#289
1N7
#290
0N7
b10000000000000000000001101101000 O7
b1011010010110000011 18
b11001011011111 q8
#291
b1100101101 X,
#292
1N7
#293
b1001100011 P(
b10000000000000000000001101101100 O7
b110001111000100000110011 18
b11001011100000 q8
#294
b10000000000000000100011001001100 v+
b10000000000000000000001101110000 O7
b10001100000011000010011 18
b11001011100001 q8
#295
0N7
b10000000000000000000001101110100 O7
b1000101011000010110111011 18
b11001011100010 q8
#296
b111110000000 2)
1N7
#297
0N7
b10000000000000000000001101111000 O7
b101110000010000000100011 18
b11001011100011 q8
#298
b10110010000 P(
#303
1N7
#304
b10000000000000000000001101111100 O7
b11111110101001100001000011100011 18
b11001011100100 q8
#305
0N7
b10000000000000000000001101011100 O7
b110001101000100000110011 18
b11001011100101 q8
#310
1N7
#311
b10000000000000000011011010101000 v+
b10000000000000000000001101100000 O7
b110001110000010110110011 18
b11001011100110 q8
#312
0N7
b10000000000000000000001101100100 O7
b10000010100010000011 18
b11001011100111 q8
#313
b10000000000000000010011100001000 P(
#315
1N7
#316
0N7
b10000000000000000000001101101000 O7
b1011010010110000011 18
b11001011101000 q8
#317
b110011100 X,
#318
1N7
#319
b10100010 P(
b10000000000000000000001101101100 O7
b110001111000100000110011 18
b11001011101001 q8
#320
b10000000000000000100011001010000 v+
b10000000000000000000001101110000 O7
b10001100000011000010011 18
b11001011101010 q8
#321
0N7
b10000000000000000000001101110100 O7
b1000101011000010110111011 18
b11001011101011 q8
#322
b111110000100 2)
1N7
#323
0N7
b10000000000000000000001101111000 O7
b101110000010000000100011 18
b11001011101100 q8
#324
b1000111110 P(
#329
1N7
#330
b10000000000000000000001101111100 O7
b11111110101001100001000011100011 18
b11001011101101 q8
#331
0N7
b10000000000000000000001101011100 O7
b110001101000100000110011 18
b11001011101110 q8
#336
1N7
#337
b10000000000000000011011010101100 v+
b10000000000000000000001101100000 O7
b110001110000010110110011 18
b11001011101111 q8
#338
0N7
b10000000000000000000001101100100 O7
b10000010100010000011 18
b11001011110000 q8
#339
b10000000000000000010011100001100 P(
#341
1N7
#342
0N7
b10000000000000000000001101101000 O7
b1011010010110000011 18
b11001011110001 q8
#343
b1111000 X,
#344
1N7
#345
b0 P(
b10000000000000000000001101101100 O7
b110001111000100000110011 18
b11001011110010 q8
#346
b10000000000000000100011001010100 v+
b10000000000000000000001101110000 O7
b10001100000011000010011 18
b11001011110011 q8
#347
0N7
b10000000000000000000001101110100 O7
b1000101011000010110111011 18
b11001011110100 q8
#348
b111110001000 2)
1N7
#349
0N7
b10000000000000000000001101111000 O7
b101110000010000000100011 18
b11001011110101 q8
#350
b1111000 P(
#355
1N7
#356
b10000000000000000000001101111100 O7
b11111110101001100001000011100011 18
b11001011110110 q8
#357
0N7
b10000000000000000000001101011100 O7
b110001101000100000110011 18
b11001011110111 q8
#362
1N7
#363
b10000000000000000011011010110000 v+
b10000000000000000000001101100000 O7
b110001110000010110110011 18
b11001011111000 q8
#364
0N7
b10000000000000000000001101100100 O7
b10000010100010000011 18
b11001011111001 q8
#365
b10000000000000000010011100010000 P(
#367
1N7
#368
0N7
b10000000000000000000001101101000 O7
b1011010010110000011 18
b11001011111010 q8
#369
b110011 X,
#370
1N7
#371
b1001100110 P(
b10000000000000000000001101101100 O7
b110001111000100000110011 18
b11001011111011 q8
#372
b10000000000000000100011001011000 v+
b10000000000000000000001101110000 O7
b10001100000011000010011 18
b11001011111100 q8
#373
0N7
b10000000000000000000001101110100 O7
b1000101011000010110111011 18
b11001011111101 q8
#374
b111110001100 2)
1N7
#375
0N7
b10000000000000000000001101111000 O7
b101110000010000000100011 18
b11001011111110 q8
#376
b1010011001 P(
#381
1N7
#382
b10000000000000000000001101111100 O7
b11111110101001100001000011100011 18
b11001011111111 q8
#383
0N7
b10000000000000000000001101011100 O7
b110001101000100000110011 18
b11001100000000 q8
#388
1N7
#389
b10000000000000000011011010110100 v+
b10000000000000000000001101100000 O7
b110001110000010110110011 18
b11001100000001 q8
#390
0N7
b10000000000000000000001101100100 O7
b10000010100010000011 18
b11001100000010 q8
#391
b10000000000000000010011100010100 P(
#393
1N7
#394
0N7
b10000000000000000000001101101000 O7
b1011010010110000011 18
b11001100000011 q8
#395
b1010110000 X,
#396
1N7
#397
b101101110 P(
b10000000000000000000001101101100 O7
b110001111000100000110011 18
b11001100000100 q8
#398
b10000000000000000100011001011100 v+
b10000000000000000000001101110000 O7
b10001100000011000010011 18
b11001100000101 q8
#399
0N7
b10000000000000000000001101110100 O7
b1000101011000010110111011 18
b11001100000110 q8
#400
b111110010000 2)
1N7
#401
0N7
b10000000000000000000001101111000 O7
b101110000010000000100011 18
b11001100000111 q8
#402
b10000011110 P(
#407
1N7
#408
b10000000000000000000001101111100 O7
b11111110101001100001000011100011 18
b11001100001000 q8
#409
0N7
b10000000000000000000001101011100 O7
b110001101000100000110011 18
b11001100001001 q8
#414
1N7
#415
b10000000000000000011011010111000 v+
b10000000000000000000001101100000 O7
b110001110000010110110011 18
b11001100001010 q8
#416
0N7
b10000000000000000000001101100100 O7
b10000010100010000011 18
b11001100001011 q8
#417
b10000000000000000010011100011000 P(
#419
1N7
#420
0N7
b10000000000000000000001101101000 O7
b1011010010110000011 18
b11001100001100 q8
#421
b110101000 X,
#422
1N7
#423
b1010011001 P(
b10000000000000000000001101101100 O7
b110001111000100000110011 18
b11001100001101 q8
#424
b10000000000000000100011001100000 v+
b10000000000000000000001101110000 O7
b10001100000011000010011 18
b11001100001110 q8
#425
0N7
b10000000000000000000001101110100 O7
b1000101011000010110111011 18
b11001100001111 q8
#426
b111110010100 2)
1N7
#427
0N7
b10000000000000000000001101111000 O7
b101110000010000000100011 18
b11001100010000 q8
#428
b10001000001 P(
#433
1N7
#434
b10000000000000000000001101111100 O7
b11111110101001100001000011100011 18
b11001100010001 q8
#435
0N7
b10000000000000000000001101011100 O7
b110001101000100000110011 18
b11001100010010 q8
#440
1N7
#441
b10000000000000000011011010111100 v+
b10000000000000000000001101100000 O7
b110001110000010110110011 18
b11001100010011 q8
#442
0N7
b10000000000000000000001101100100 O7
b10000010100010000011 18
b11001100010100 q8
#443
b10000000000000000010011100011100 P(
#445
1N7
#446
0N7
b10000000000000000000001101101000 O7
b1011010010110000011 18
b11001100010101 q8
#447
b1010100101 X,
#448
1N7
#449
b100101100 P(
b10000000000000000000001101101100 O7
b110001111000100000110011 18
b11001100010110 q8
#450
b10000000000000000100011001100100 v+
b10000000000000000000001101110000 O7
b10001100000011000010011 18
b11001100010111 q8
#451
0N7
b10000000000000000000001101110100 O7
b1000101011000010110111011 18
b11001100011000 q8
#452
b111110011000 2)
1N7
#453
0N7
b10000000000000000000001101111000 O7
b101110000010000000100011 18
b11001100011001 q8
#454
b1111010001 P(
#459
1N7
#460
b10000000000000000000001101111100 O7
b11111110101001100001000011100011 18
b11001100011010 q8
#461
0N7
b10000000000000000000001101011100 O7
b110001101000100000110011 18
b11001100011011 q8
#466
1N7
#467
b10000000000000000011011011000000 v+
b10000000000000000000001101100000 O7
b110001110000010110110011 18
b11001100011100 q8
#468
0N7
b10000000000000000000001101100100 O7
b10000010100010000011 18
b11001100011101 q8
#469
b10000000000000000010011100100000 P(
#471
1N7
#472
0N7
b10000000000000000000001101101000 O7
b1011010010110000011 18
b11001100011110 q8
#473
b1110010010 X,
#474
1N7
#475
b11001111 P(
b10000000000000000000001101101100 O7
b110001111000100000110011 18
b11001100011111 q8
#476
b10000000000000000100011001101000 v+
b10000000000000000000001101110000 O7
b10001100000011000010011 18
b11001100100000 q8
#477
0N7
b10000000000000000000001101110100 O7
b1000101011000010110111011 18
b11001100100001 q8
#478
b111110011100 2)
1N7
#479
0N7
b10000000000000000000001101111000 O7
b101110000010000000100011 18
b11001100100010 q8
#480
b10001100001 P(
#485
1N7
#486
b10000000000000000000001101111100 O7
b11111110101001100001000011100011 18
b11001100100011 q8
#487
0N7
b10000000000000000000001101011100 O7
b110001101000100000110011 18
b11001100100100 q8
#492
1N7
#493
b10000000000000000011011011000100 v+
b10000000000000000000001101100000 O7
b110001110000010110110011 18
b11001100100101 q8
#494
0N7
b10000000000000000000001101100100 O7
b10000010100010000011 18
b11001100100110 q8
#495
b10000000000000000010011100100100 P(
#497
1N7
#498
0N7
b10000000000000000000001101101000 O7
b1011010010110000011 18
b11001100100111 q8
#499
b1010110011 X,
1N7
#500
0N7
b10000000000000000000001101101100 O7
b110001111000100000110011 18
b11001100101000 q8
#501
b1011111000 P(
1N7
#502
b10000000000000000100011001101100 v+
b10000000000000000000001101110000 O7
b10001100000011000010011 18
b11001100101001 q8
#503
0N7
b10000000000000000000001101110100 O7
b1000101011000010110111011 18
b11001100101010 q8
#504
b111110100000 2)
1N7
#505
0N7
b10000000000000000000001101111000 O7
b101110000010000000100011 18
b11001100101011 q8
#506
b10110101011 P(
#511
1N7
#512
b10000000000000000000001101111100 O7
b11111110101001100001000011100011 18
b11001100101100 q8
139
#513
b10000000000000000000001110000000 O7
b1000000001100111 18
b11001100101101 q8
#514
0N7
b10000000000000000000001010001100 O7
b1000000011001100011 18
b11001100101110 q8
#519
1N7
#520
0N7
b10000000000000000000001010010000 O7
b1000000000010100010011 18
b11001100101111 q8
#532
1N7
b10000000000000000000001010011000 O7
b10100010111 18
#533
0N7
b10000000000000000000001010011100 O7
b1001110100001010000010100010011 18
b11001100110000 q8
#534
b10000000000000000000001010011000 n'
#539
1N7
#540
b10000000000000000000011110000000 n'
b10000000000000000000001010100000 O7
b10111010000000000000011101111 18
b11001100110001 q8
#541
0N7
b10000000000000000000001010100100 O7
b11011100010111 18
b11001100110010 q8
#542
b10000000000000000000001010100100 b
#707
b10000000000000000000010000010100 O7
b1010100011110000011 18
#869
1N7
#870
0N7
b10000000000000000000010000011000 O7
b10000001111000000001100011 18
b11001100110011 q8
#871
b1010100 6+
#874
1N7
#875
b10000000000000000000010000011100 O7
b1000000011000000000011100110111 18
b11001100110100 q8
#876
b1000000011000000000000000000000 T*
b10000000000000000000010000100000 O7
b10001110000011100010011 18
b11001100110101 q8
#877
b1000000011000000000000000000100 T*
b10000000000000000000010000100100 O7
b1111000011110011011 18
b11001100110110 q8
#878
b10000000000000000000010000101000 O7
b101010000010100010011 18
b11001100110111 q8
#879
0N7
b10000000000000000000010000101100 O7
b111101110010000000100011 18
b11001100111000 q8
#880
b10000000000000000000011110000001 n'
#888
1N7
#889
0N7
b10000000000000000000010000110000 O7
b1010100011110000011 18
b11001100111001 q8
#941
1N7
#942
0N7
b10000000000000000000010000110100 O7
b11111110000001111001100011100011 18
b11001100111010 q8
#943
b1101000 6+
#946
1N7
#947
0N7
b10000000000000000000010000111000 O7
b1000000001100111 18
b11001100111011 q8
#959
b10000000000000000000010000100100 O7
b1111000011110011011 18
#964
1N7
#965
b10000000000000000000010000101000 O7
b101010000010100010011 18
b11001100111100 q8
#966
b10000000000000000000011110000010 n'
b10000000000000000000010000101100 O7
b111101110010000000100011 18
b11001100111101 q8
#967
0N7
b10000000000000000000010000110000 O7
b1010100011110000011 18
b11001100111110 q8
#970
1N7
#971
0N7
b10000000000000000000010000110100 O7
b11111110000001111001100011100011 18
b11001100111111 q8
#972
b1100101 6+
#975
1N7
#976
0N7
b10000000000000000000010000111000 O7
b1000000001100111 18
b11001101000000 q8
#988
b10000000000000000000010000100100 O7
b1111000011110011011 18
#993
1N7
#994
b10000000000000000000010000101000 O7
b101010000010100010011 18
b11001101000001 q8
#995
0N7
b10000000000000000000010000101100 O7
b111101110010000000100011 18
b11001101000010 q8
#996
b10000000000000000000011110000011 n'
#1004
1N7
#1005
b10000000000000000000010000110000 O7
b1010100011110000011 18
b11001101000011 q8
#1006
b100000 6+
b10000000000000000000010000110100 O7
b11111110000001111001100011100011 18
b11001101000100 q8
#1007
0N7
b10000000000000000000010000111000 O7
b1000000001100111 18
b11001101000101 q8
#1017
b10000000000000000000010000100100 O7
b1111000011110011011 18
#1022
1N7
#1023
b10000000000000000000010000101000 O7
b101010000010100010011 18
b11001101000110 q8
