test_uart8.vcd
$date
        2025-Apr-25 06:18:23
$end
$version
        Vivado v2024.2 (64-bit)
$end
$timescale
        1ps
$end
$scope module dut $end
$var reg 1 " design_1_i/soc10_0_robOut_commitFired $end
$var reg 64 # design_1_i/soc10_0_robOut_pc [63:0] $end
$var reg 64 c design_1_i/soc10_0_robOut_instruction [63:0] $end
$var reg 64 E" design_1_i/soc12_0_memAccessOut_schedulerReqIn_info [63:0] $end
$var reg 64 '# design_1_i/soc12_0_memAccessOut_schedulerReqIn_data [63:0] $end
$var reg 64 g# design_1_i/soc12_0_memAccessOut_schedulerReqOut_info [63:0] $end
$var reg 64 I$ design_1_i/soc12_0_memAccessOut_schedulerReqOut_data [63:0] $end
$var reg 64 +% design_1_i/soc12_0_memAccessOut_arbiterSpecBuffer_info [63:0] $end
$var reg 64 k% design_1_i/soc12_0_memAccessOut_arbiterSpecBuffer_data [63:0] $end
$var reg 64 M& design_1_i/soc12_0_memAccessOut_arbiterOperBuffer_info [63:0] $end
$var reg 64 /' design_1_i/soc12_0_memAccessOut_arbiterOperBuffer_data [63:0] $end
$var reg 64 o' design_1_i/soc12_0_memAccessOut_peripheralUnitReqBuff_info [63:0] $end
$var reg 64 Q( design_1_i/soc12_0_memAccessOut_peripheralUnitReqBuff_data [63:0] $end
$var reg 64 3) design_1_i/soc12_0_memAccessOut_peripheralUnitRespBuff_info [63:0] $end
$var reg 64 s) design_1_i/soc12_0_memAccessOut_peripheralUnitRespBuff_data [63:0] $end
$var reg 32 U* design_1_i/counter_1_0_count_out [31:0] $end
$var reg 64 u* design_1_i/soc12_0_memAccessOut_peripheralUnitReadData [63:0] $end
$var reg 64 W+ design_1_i/soc12_0_memAccessOut_responseOut_info [63:0] $end
$var reg 64 9, design_1_i/soc12_0_memAccessOut_responseOut_data [63:0] $end
$var reg 1 y, _TRIGGER $end
$var reg 1 z, _WINDOW $end
$var reg 1 {, _GAP $end
$upscope $end
$enddefinitions $end
#0
$dumpvars
0"
b10000000000000000000001001100000 #
b100010011100000011 c
b0 E"
b0 '#
b0 g#
b0 I$
b0 +%
b0 k%
b1000000000000100000000000000000000000000111000100010000000100011 M&
b1000100000001111000001101 /'
b0 o'
b0 Q(
b0 3)
b0 s)
b11001100110111 U*
b0 u*
b0 W+
b0 9,
0y,
1z,
0{,
$end
#66
b1000000000000100000000000000000000000000000000100010011010000011 E"
b100010010011100000100 '#
#67
b0 E"
b0 '#
#69
b1000000000000000010010000101110000000000000001110010011110000011 E"
b100010010101100000111 '#
#70
b0 E"
b0 '#
#131
b10010000101000000000000000100010011100000011 W+
b10100111001001100100 9,
#132
1"
b0 W+
b0 9,
#133
b10000000000000000000001001100100 #
b100000000011010010011 c
b11001100111000 U*
#134
0"
b10000000000000000000001001101000 #
b101110011011100010011 c
b11001100111001 U*
#137
1"
#138
0"
b10000000000000000000001001101100 #
b111000100010000000100011 c
b11001100111010 U*
#139
b10000100000001111000001101 /'
#142
b100000100000001111000001101 /'
#143
b1000000000000000010010000101100000000110110101110010011100101111 g#
b100000010001000000000 I$
#144
1"
b0 g#
b0 I$
b1000000000000000010010000101100000000110110101110010011100101111 M&
b100000100000010001000000000 /'
#145
b10000000000000000000001001110000 #
b100011100010111 c
b100000010001000000000 /'
b11001100111011 U*
#146
b10000000000000000000001001110100 #
b1011110100001110000011100010011 c
b11000100000010001000000000 /'
b11001100111100 U*
#147
0"
b10000000000000000000001001111000 #
b110110101110010011100101111 c
b11001100111101 U*
b1000100000000000000110110101110010011100101111 W+
#148
b1000100000010001000000000 /'
b0 W+
#149
b10000100000010001000000000 /'
#152
b100000100000010001000000000 /'
#154
1"
#155
b10000000000000000000001001111100 #
b1110000011100011011 c
b0 M&
b0 /'
b11001100111110 U*
#156
b10000000000000000000001010000000 #
b11111111111101010000010100011011 c
b11001100111111 U*
#157
b10000000000000000000001010000100 #
b10111001010000000001100011 c
b11001101000000 U*
#158
0"
b10000000000000000000001010001000 #
b100010011010000011 c
b11001101000001 U*
#247
b10000000000000000000001010100100 #
b100010011110000011 c
#251
b1000000000000100000000000000000000000000000000100010011110000011 E"
b100000000010100000100 '#
#252
b0 E"
b0 '#
b1000000000000100000000000000000000000000000000100010011110000011 g#
b100000000010100000100 I$
#253
b1000000000000000010010000101100001011010000001110010100000100011 E"
b100000001010000000110 '#
b0 g#
b0 I$
b1000000000000100000000000000000000000000000000100010011110000011 M&
b100000000010100000100 /'
#254
b0 E"
b0 '#
b0 M&
b0 /'
#255
b1000000000000000010010000101110001011010111101110010011000100011 E"
b100000001101000001000 '#
b1000000000000000010010000101100001011010000001110010100000100011 g#
b100000001010000000110 I$
b1010000010000000000000000100010011110000011 W+
#256
b0 E"
b0 '#
b0 g#
b0 I$
b1000000000000000010010000101100001011010000001110010100000100011 M&
b100000001010000000110 /'
b0 W+
#257
1"
b1000100000001010000000110 /'
#258
b10000000000000000000001010101000 #
b100011100010111 c
b11001101000010 U*
#259
0"
b10000000000000000000001010101100 #
b1011010000001110010100000100011 c
b11001101000011 U*
#260
b10000100000001010000000110 /'
#263
b100000100000001010000000110 /'
#264
b1000000000000000010010000101110001011010111101110010011000100011 g#
b100000001101000001000 I$
#265
1"
b0 g#
b0 I$
b1000000000000000010010000101110001011010111101110010011000100011 M&
b100000100000001101000001000 /'
#266
b10000000000000000000001010110000 #
b100011100010111 c
b100000001101000001000 /'
b11001101000100 U*
#267
0"
b10000000000000000000001010110100 #
b1011010111101110010011000100011 c
b1000100000001101000001000 /'
b11001101000101 U*
#268
b10000100000001101000001000 /'
#271
b100000100000001101000001000 /'
#273
1"
#274
b10000000000000000000001010111000 #
b11111110010111111111000001101111 c
b0 M&
b0 /'
b11001101000110 U*
#275
0"
b10000000000000000000001010111100 #
b100011110010111 c
b11001101000111 U*
#340
1"
b10000000000000000000001010011100 #
b1111111100000000000000001111 c
#341
0"
b10000000000000000000001001100100 #
b100000000011010010011 c
b11001101001000 U*
#428
b10000000000000000000001010100000 #
b1000000001100111 c
#433
1"
#434
0"
b10000000000000000000001010100100 #
b100010011110000011 c
b11001101001001 U*
#600
b10000000000000000000001100101100 #
b1000000011001100011 c
#605
1"
#606
0"
b10000000000000000000001100110000 #
b1000000000010100010011 c
b11001101001010 U*
#692
1"
b10000000000000000000001100111000 #
b10100010111 c
#693
0"
b10000000000000000000001100111100 #
b1100011000001010000010100010011 c
b11001101001011 U*
#699
1"
#700
b10000000000000000000001101000000 #
b11010010000000000000011101111 c
b11001101001100 U*
#701
0"
b10000000000000000000001101000100 #
b11011100010111 c
b11001101001101 U*
#788
b10000000000000000000010011100100 #
b1010100011010000011 c
#792
b1000000000000000000010010110100000000000000001010100011010000011 E"
b100000000011000000000 '#
#793
b0 E"
b0 '#
b1000000000000000000010010110100000000000000001010100011010000011 g#
b1000100000000011000000000 I$
#794
b0 g#
b0 I$
b1000000000000000000010010110100000000000000001010100011010000011 +%
b100000000011000000000 k%
#795
b0 +%
b0 k%
#877
b100000001100000000000000000100000000000000001110010011110000011 E"
b100010010010000000111 '#
#878
b0 E"
b0 '#
#882
b100000001100000000000000000010000000000110101100010000000100011 E"
b100110010100100001011 '#
#883
b1000000000000000000010010110100100000000000001010100011010000011 E"
b100110010100100001100 '#
#884
b0 E"
b0 '#
b1000000000000000000010010110100100000000000001010100011010000011 g#
b1000100110010100100001100 I$
#885
b0 g#
b0 I$
b1000000000000000000010010110100100000000000001010100011010000011 +%
b100110010100100001100 k%
#886
b0 +%
b0 k%
#945
b1100000000000000000000001010100011010000011 W+
b1010100 9,
#946
1"
b0 W+
b0 9,
#947
0"
b10000000000000000000010011101000 #
b10000001101000101001100011 c
b11001101001110 U*
#950
b100000001100000000000000000100000000000000001110010011110000011 g#
b100000010010000000111 I$
#951
1"
b0 g#
b0 I$
b100000001100000000000000000100000000000000001110010011110000011 M&
b100000010010000000111 /'
#952
b10000000000000000000010011101100 #
b1000000011000000000011100110111 c
b0 M&
b0 /'
b11001101001111 U*
#953
b10000000000000000000010011110000 #
b1000000011000000000011000110111 c
b100000001100000000000000000100000000000000001110010011110000011 o'
b10010000000111 Q(
b11001101010000 U*
#954
b10000000000000000000010011110100 #
b100001110000011100010011 c
b0 o'
b0 Q(
b11001101010001 U*
#955
b10000000000000000000010011111000 #
b10001100000011000010011 c
b11001101010010 U*
#956
b10000000000000000000010011111100 #
b101010000010100010011 c
b11001101010011 U*
#957
0"
b10000000000000000000010100000000 #
b1110010011110000011 c
b100000001100000000000000000100000000000000001110010011110000011 3)
b10010010000000111 s)
b11001101010100 U*
#990
b100010010000000111 s)
#991
b100 u*
b1001000000011100000000000001110010011110000011 W+
b100 9,
#992
1"
b0 3)
b0 s)
b0 u*
b0 W+
b0 9,
#993
0"
b10000000000000000000010100000100 #
b100001111111011110010011 c
b11001101010101 U*
#997
1"
b100000001100000000000000000010000000000110101100010000000100011 g#
b100000010100100001011 I$
#998
b10000000000000000000010100001000 #
b11111110000001111001110011100011 c
b0 g#
b0 I$
b100000001100000000000000000010000000000110101100010000000100011 M&
b100000010100100001011 /'
b11001101010110 U*
#999
b10000000000000000000010100001100 #
b1101000011010011011 c
b1000100000010100100001011 /'
b11001101010111 U*
#1000
0"
b10000000000000000000010100010000 #
b110101100010000000100011 c
b11001101011000 U*
#1001
b10000100000010100100001011 /'
#1004
b100000100000010100100001011 /'
#1005
b100000001100000000000000000010000000000110101100010000000100011 o'
b10100100001011 Q(
#1006
b0 o'
b0 Q(
#1009
1"
#1010
0"
b10000000000000000000010100010100 #
b1010100011010000011 c
b0 M&
b0 /'
b11001101011001 U*
#1016
b100000001100000000000000000100000000000000001110010011110000011 E"
b111110000011100000011 '#
#1017
b0 E"
b0 '#
b1010010000110000000000000001010100011010000011 W+
b1101000 9,
#1018
1"
b0 W+
b0 9,
#1019
0"
b10000000000000000000010100011000 #
b11111110000001101001001011100011 c
b11001101011010 U*
#1023
1"
#1024
0"
b10000000000000000000010100011100 #
b1000000001100111 c
b11001101011011 U*
1y,
#1113
b10000000000000000000010011111100 #
b101010000010100010011 c
#1118
1"
b100000001100000000000000000100000000000000001110010011110000011 E"
b100000000011000001111 '#
#1119
0"
b10000000000000000000010100000000 #
b1110010011110000011 c
b0 E"
b0 '#
b100000001100000000000000000100000000000000001110010011110000011 g#
b100000000011000001111 I$
b11001101011100 U*
#1120
b0 g#
b0 I$
b100000001100000000000000000100000000000000001110010011110000011 M&
b100000000011000001111 /'
#1121
b0 M&
b0 /'
#1122
b100000001100000000000000000010000000000110101100010000000100011 E"
b100010001010000000011 '#
#1123
b1000000000000000000010010110101000000000000001010100011010000011 E"
b100010001010000000100 '#
#1124
b0 E"
b0 '#
b1000000000000000000010010110101000000000000001010100011010000011 g#
b1000100010001010000000100 I$
#1125
b0 g#
b0 I$
b1000000000000000000010010110101000000000000001010100011010000011 +%
b100010001010000000100 k%
#1126
b0 +%
b0 k%
b101000000010000000000000001010100011010000011 W+
b1100101 9,
#1127
b0 W+
b0 9,
