test_peri1.vcd
$date
        2025-Apr-25 09:12:19
$end
$version
        Vivado v2024.2 (64-bit)
$end
$timescale
        1ps
$end
$scope module dut $end
$var reg 1 " design_1_i/soc_0_peripheral_WREADY $end
$var reg 32 # design_1_i/soc_0_peripheral_AWADDR [31:0] $end
$var reg 2 C design_1_i/soc_0_peripheral_BRESP [1:0] $end
$var reg 1 E design_1_i/soc_0_peripheral_BVALID $end
$var reg 1 F design_1_i/soc_0_peripheral_BREADY $end
$var reg 32 G design_1_i/soc_0_peripheral_ARADDR [31:0] $end
$var reg 1 g design_1_i/soc_0_peripheral_RREADY $end
$var reg 1 h design_1_i/soc_0_peripheral_WVALID $end
$var reg 1 i design_1_i/soc_0_peripheral_ARVALID $end
$var reg 1 j design_1_i/soc_0_peripheral_ARREADY $end
$var reg 32 k design_1_i/soc_0_peripheral_RDATA [31:0] $end
$var reg 1 -" design_1_i/soc_0_peripheral_AWVALID $end
$var reg 1 ." design_1_i/soc_0_peripheral_AWREADY $end
$var reg 2 /" design_1_i/soc_0_peripheral_RRESP [1:0] $end
$var reg 32 1" design_1_i/soc_0_peripheral_WDATA [31:0] $end
$var reg 4 Q" design_1_i/soc_0_peripheral_WSTRB [3:0] $end
$var reg 1 U" design_1_i/soc_0_peripheral_RVALID $end
$var reg 3 V" design_1_i/soc_0_peripheral_ARPROT [2:0] $end
$var reg 3 Y" design_1_i/soc_0_peripheral_AWPROT [2:0] $end
$var reg 1 \" design_1_i/soc_0_peripheral_AWID $end
$var reg 1 ]" design_1_i/soc_0_peripheral_BID $end
$var reg 8 ^" design_1_i/soc_0_peripheral_AWLEN [7:0] $end
$var reg 1 f" design_1_i/<const0>_14 $end
$var reg 3 g" design_1_i/soc_0_peripheral_AWSIZE [2:0] $end
$var reg 2 j" design_1_i/soc_0_peripheral_AWBURST [1:0] $end
$var reg 1 l" design_1_i/soc_0_peripheral_ARID $end
$var reg 1 m" design_1_i/soc_0_peripheral_AWLOCK $end
$var reg 8 n" design_1_i/soc_0_peripheral_ARLEN [7:0] $end
$var reg 3 v" design_1_i/soc_0_peripheral_ARSIZE [2:0] $end
$var reg 2 y" design_1_i/soc_0_peripheral_ARBURST [1:0] $end
$var reg 1 {" design_1_i/soc_0_peripheral_ARLOCK $end
$var reg 4 |" design_1_i/soc_0_peripheral_ARCACHE [3:0] $end
$var reg 4 "# design_1_i/soc_0_peripheral_AWCACHE [3:0] $end
$var reg 1 &# design_1_i/<const0>_15 $end
$var reg 1 '# design_1_i/<const0>_16 $end
$var reg 1 (# design_1_i/<const0>_17 $end
$var reg 1 )# design_1_i/<const0>_18 $end
$var reg 4 *# design_1_i/soc_0_peripheral_ARQOS [3:0] $end
$var reg 1 .# design_1_i/<const0>_19 $end
$var reg 1 /# design_1_i/<const0>_20 $end
$var reg 1 0# design_1_i/<const0>_21 $end
$var reg 1 1# design_1_i/<const0>_22 $end
$var reg 1 2# design_1_i/<const0>_23 $end
$var reg 4 3# design_1_i/soc_0_peripheral_AWQOS [3:0] $end
$var reg 1 7# design_1_i/soc_0_peripheral_RID $end
$var reg 1 8# design_1_i/<const0>_24 $end
$var reg 1 9# design_1_i/soc_0_peripheral_RLAST $end
$var reg 1 :# design_1_i/<const0>_25 $end
$var reg 1 ;# design_1_i/soc_0_peripheral_WLAST $end
$var reg 1 <# design_1_i/<const0> $end
$var reg 1 =# _TRIGGER $end
$var reg 1 ># _WINDOW $end
$var reg 1 ?# _GAP $end
$upscope $end
$enddefinitions $end
#0
$dumpvars
1"
b0 #
b0 C
0E
0F
b0 G
0g
0h
0i
1j
b0 k
0-"
1."
b0 /"
b0 1"
b0 Q"
0U"
b0 V"
b0 Y"
0\"
0]"
b0 ^"
0f"
b0 g"
b0 j"
0l"
0m"
b0 n"
b0 v"
b0 y"
0{"
b0 |"
b0 "#
0&#
0'#
0(#
0)#
b0 *#
0.#
0/#
00#
01#
02#
b0 3#
07#
08#
09#
0:#
0;#
0<#
0=#
1>#
0?#
$end
#459
b1000000011000000000000000001000 G
1i
b10 V"
b10 v"
b1 y"
#460
b0 G
0i
b0 V"
b0 v"
b0 y"
#461
1g
#494
b100 k
1U"
19#
#495
0g
b0 k
0U"
09#
#512
b1000000011000000000000000000100 #
1h
1-"
b1010100 1"
b1111 Q"
b10 Y"
b10 g"
b1 j"
1;#
1=#
#513
b0 #
1F
0h
0-"
b0 1"
b0 Q"
b0 Y"
b0 g"
b0 j"
0;#
#549
1E
#550
0E
0F
