testf0.vcd
$date
        2025-Apr-23 15:11:07
$end
$version
        Vivado v2024.2 (64-bit)
$end
$timescale
        1ps
$end
$scope module dut $end
$var reg 64 " design_1_i/soc11_0_registersOut_0 [63:0] $end
$var reg 64 b design_1_i/soc11_0_registersOut_1 [63:0] $end
$var reg 64 D" design_1_i/soc11_0_registersOut_2 [63:0] $end
$var reg 64 &# design_1_i/soc11_0_registersOut_3 [63:0] $end
$var reg 64 f# design_1_i/soc11_0_registersOut_4 [63:0] $end
$var reg 64 H$ design_1_i/soc11_0_registersOut_5 [63:0] $end
$var reg 64 *% design_1_i/soc11_0_registersOut_6 [63:0] $end
$var reg 64 j% design_1_i/soc11_0_registersOut_7 [63:0] $end
$var reg 64 L& design_1_i/soc11_0_registersOut_8 [63:0] $end
$var reg 64 .' design_1_i/soc11_0_registersOut_9 [63:0] $end
$var reg 64 n' design_1_i/soc11_0_registersOut_10 [63:0] $end
$var reg 64 P( design_1_i/soc11_0_registersOut_11 [63:0] $end
$var reg 64 2) design_1_i/soc11_0_registersOut_12 [63:0] $end
$var reg 64 r) design_1_i/soc11_0_registersOut_13 [63:0] $end
$var reg 64 T* design_1_i/soc11_0_registersOut_14 [63:0] $end
$var reg 64 6+ design_1_i/soc11_0_registersOut_15 [63:0] $end
$var reg 64 v+ design_1_i/soc11_0_registersOut_16 [63:0] $end
$var reg 64 X, design_1_i/soc11_0_registersOut_17 [63:0] $end
$var reg 64 :- design_1_i/soc11_0_registersOut_18 [63:0] $end
$var reg 64 z- design_1_i/soc11_0_registersOut_19 [63:0] $end
$var reg 64 \. design_1_i/soc11_0_registersOut_20 [63:0] $end
$var reg 64 >/ design_1_i/soc11_0_registersOut_21 [63:0] $end
$var reg 64 ~/ design_1_i/soc11_0_registersOut_22 [63:0] $end
$var reg 64 `0 design_1_i/soc11_0_registersOut_23 [63:0] $end
$var reg 64 B1 design_1_i/soc11_0_registersOut_24 [63:0] $end
$var reg 64 $2 design_1_i/soc11_0_registersOut_25 [63:0] $end
$var reg 64 d2 design_1_i/soc11_0_registersOut_26 [63:0] $end
$var reg 64 F3 design_1_i/soc11_0_registersOut_27 [63:0] $end
$var reg 64 (4 design_1_i/soc11_0_registersOut_28 [63:0] $end
$var reg 64 h4 design_1_i/soc11_0_registersOut_29 [63:0] $end
$var reg 64 J5 design_1_i/soc11_0_registersOut_30 [63:0] $end
$var reg 64 ,6 design_1_i/soc11_0_registersOut_31 [63:0] $end
$var reg 64 l6 design_1_i/soc11_0_registersOut_32 [63:0] $end
$var reg 1 N7 design_1_i/soc1_0_robOut_commitFired_1 $end
$var reg 64 O7 design_1_i/soc7_0_robOut_pc_1 [63:0] $end
$var reg 64 18 design_1_i/soc7_0_robOut_instruction_1 [63:0] $end
$var reg 32 q8 design_1_i/counter_1_0_count_out_1 [31:0] $end
$var reg 1 39 _TRIGGER $end
$var reg 1 49 _WINDOW $end
$var reg 1 59 _GAP $end
$upscope $end
$enddefinitions $end
#0
$dumpvars
b0 "
b0 b
b0 D"
b0 &#
b0 f#
b10000000000000000000000100111000 H$
b1 *%
b0 j%
b0 L&
b0 .'
b0 n'
b0 P(
b10000000000000000011011010000000 2)
b0 r)
b0 T*
b0 6+
b0 v+
b0 X,
b0 :-
b0 z-
b0 \.
b0 >/
b0 ~/
b0 `0
b0 B1
b0 $2
b0 d2
b0 F3
b0 (4
b0 h4
b0 J5
b0 ,6
b101000000000000000000000000000000000 l6
0N7
b10000000000000000000000001110100 O7
b111000010011 18
b110000 q8
039
149
059
$end
#86
b10000000000000000000000011001000 O7
b10000001010001100001100011 18
#91
1N7
#92
b10000000000000000000000011001100 O7
b11111100010111 18
b110001 q8
#93
0N7
b10000000000000000000000011010000 O7
b1011011110011110000111100010011 18
b110010 q8
#94
b10000000000000000011000011001100 J5
1N7
#95
b10000000000000000011011010001000 J5
b10000000000000000000000011010100 O7
b100111110010111 18
b110011 q8
#96
b10000000000000000100000011010100 ,6
b10000000000000000000000011011000 O7
b1010101010011111000111110010011 18
b110100 q8
#97
0N7
b10000000000000000000000011011100 O7
b1111111110101100001100011 18
b110101 q8
#98
b10000000000000000100011000101000 ,6
1N7
#99
b10000000000000000000000011100000 O7
b11110010000000100011 18
b110110 q8
#100
b10000000000000000000000011100100 O7
b10011110000111100010011 18
b110111 q8
#101
0N7
b10000000000000000000000011101000 O7
b11111111010111111111000001101111 18
b111000 q8
#102
b10000000000000000011011010001100 J5
1N7
#103
0N7
b10000000000000000000000011101100 O7
b11010110010111 18
b111001 q8
#188
b10000000000000000000000011011100 O7
b1111111110101100001100011 18
#193
1N7
#194
b10000000000000000000000011100000 O7
b11110010000000100011 18
b111010 q8
#195
0N7
b10000000000000000000000011100100 O7
b10011110000111100010011 18
b111011 q8
#196
1N7
#197
b10000000000000000011011010010000 J5
b10000000000000000000000011101000 O7
b11111111010111111111000001101111 18
b111100 q8
#198
0N7
b10000000000000000000000011101100 O7
b11010110010111 18
b111101 q8
#209
b10000000000000000000000011011100 O7
b1111111110101100001100011 18
#214
1N7
#215
b10000000000000000000000011100000 O7
b11110010000000100011 18
b111110 q8
#216
0N7
b10000000000000000000000011100100 O7
b10011110000111100010011 18
b111111 q8
#217
1N7
#218
b10000000000000000011011010010100 J5
b10000000000000000000000011101000 O7
b11111111010111111111000001101111 18
b1000000 q8
#219
0N7
b10000000000000000000000011101100 O7
b11010110010111 18
b1000001 q8
#230
b10000000000000000000000011011100 O7
b1111111110101100001100011 18
#235
1N7
#236
b10000000000000000000000011100000 O7
b11110010000000100011 18
b1000010 q8
#237
0N7
b10000000000000000000000011100100 O7
b10011110000111100010011 18
b1000011 q8
#238
1N7
#239
b10000000000000000011011010011000 J5
b10000000000000000000000011101000 O7
b11111111010111111111000001101111 18
b1000100 q8
#240
0N7
b10000000000000000000000011101100 O7
b11010110010111 18
b1000101 q8
#251
b10000000000000000000000011011100 O7
b1111111110101100001100011 18
#256
1N7
#257
b10000000000000000000000011100000 O7
b11110010000000100011 18
b1000110 q8
#258
0N7
b10000000000000000000000011100100 O7
b10011110000111100010011 18
b1000111 q8
#259
1N7
#260
b10000000000000000011011010011100 J5
b10000000000000000000000011101000 O7
b11111111010111111111000001101111 18
b1001000 q8
#261
0N7
b10000000000000000000000011101100 O7
b11010110010111 18
b1001001 q8
#272
b10000000000000000000000011011100 O7
b1111111110101100001100011 18
#277
1N7
#278
b10000000000000000000000011100000 O7
b11110010000000100011 18
b1001010 q8
#279
0N7
b10000000000000000000000011100100 O7
b10011110000111100010011 18
b1001011 q8
#280
1N7
#281
b10000000000000000011011010100000 J5
b10000000000000000000000011101000 O7
b11111111010111111111000001101111 18
b1001100 q8
#282
0N7
b10000000000000000000000011101100 O7
b11010110010111 18
b1001101 q8
#293
b10000000000000000000000011011100 O7
b1111111110101100001100011 18
#298
1N7
#299
b10000000000000000000000011100000 O7
b11110010000000100011 18
b1001110 q8
#300
0N7
b10000000000000000000000011100100 O7
b10011110000111100010011 18
b1001111 q8
#301
1N7
#302
b10000000000000000011011010100100 J5
b10000000000000000000000011101000 O7
b11111111010111111111000001101111 18
b1010000 q8
#303
0N7
b10000000000000000000000011101100 O7
b11010110010111 18
b1010001 q8
#314
b10000000000000000000000011011100 O7
b1111111110101100001100011 18
#319
1N7
#320
b10000000000000000000000011100000 O7
b11110010000000100011 18
b1010010 q8
#321
0N7
b10000000000000000000000011100100 O7
b10011110000111100010011 18
b1010011 q8
#322
1N7
#323
b10000000000000000011011010101000 J5
b10000000000000000000000011101000 O7
b11111111010111111111000001101111 18
b1010100 q8
#324
0N7
b10000000000000000000000011101100 O7
b11010110010111 18
b1010101 q8
#335
b10000000000000000000000011011100 O7
b1111111110101100001100011 18
#340
1N7
#341
b10000000000000000000000011100000 O7
b11110010000000100011 18
b1010110 q8
#342
0N7
b10000000000000000000000011100100 O7
b10011110000111100010011 18
b1010111 q8
#343
1N7
#344
b10000000000000000011011010101100 J5
b10000000000000000000000011101000 O7
b11111111010111111111000001101111 18
b1011000 q8
#345
0N7
b10000000000000000000000011101100 O7
b11010110010111 18
b1011001 q8
#356
b10000000000000000000000011011100 O7
b1111111110101100001100011 18
#361
1N7
#362
b10000000000000000000000011100000 O7
b11110010000000100011 18
b1011010 q8
#363
0N7
b10000000000000000000000011100100 O7
b10011110000111100010011 18
b1011011 q8
#364
1N7
#365
b10000000000000000011011010110000 J5
b10000000000000000000000011101000 O7
b11111111010111111111000001101111 18
b1011100 q8
#366
0N7
b10000000000000000000000011101100 O7
b11010110010111 18
b1011101 q8
#377
b10000000000000000000000011011100 O7
b1111111110101100001100011 18
#382
1N7
#383
b10000000000000000000000011100000 O7
b11110010000000100011 18
b1011110 q8
#384
0N7
b10000000000000000000000011100100 O7
b10011110000111100010011 18
b1011111 q8
#385
1N7
#386
b10000000000000000011011010110100 J5
b10000000000000000000000011101000 O7
b11111111010111111111000001101111 18
b1100000 q8
#387
0N7
b10000000000000000000000011101100 O7
b11010110010111 18
b1100001 q8
#398
b10000000000000000000000011011100 O7
b1111111110101100001100011 18
#403
1N7
#404
b10000000000000000000000011100000 O7
b11110010000000100011 18
b1100010 q8
#405
0N7
b10000000000000000000000011100100 O7
b10011110000111100010011 18
b1100011 q8
#406
1N7
#407
b10000000000000000011011010111000 J5
b10000000000000000000000011101000 O7
b11111111010111111111000001101111 18
b1100100 q8
#408
0N7
b10000000000000000000000011101100 O7
b11010110010111 18
b1100101 q8
#419
b10000000000000000000000011011100 O7
b1111111110101100001100011 18
#424
1N7
#425
b10000000000000000000000011100000 O7
b11110010000000100011 18
b1100110 q8
#426
0N7
b10000000000000000000000011100100 O7
b10011110000111100010011 18
b1100111 q8
#427
1N7
#428
b10000000000000000011011010111100 J5
b10000000000000000000000011101000 O7
b11111111010111111111000001101111 18
b1101000 q8
#429
0N7
b10000000000000000000000011101100 O7
b11010110010111 18
b1101001 q8
#440
b10000000000000000000000011011100 O7
b1111111110101100001100011 18
#445
1N7
#446
b10000000000000000000000011100000 O7
b11110010000000100011 18
b1101010 q8
#447
0N7
b10000000000000000000000011100100 O7
b10011110000111100010011 18
b1101011 q8
#448
1N7
#449
b10000000000000000011011011000000 J5
b10000000000000000000000011101000 O7
b11111111010111111111000001101111 18
b1101100 q8
#450
0N7
b10000000000000000000000011101100 O7
b11010110010111 18
b1101101 q8
#461
b10000000000000000000000011011100 O7
b1111111110101100001100011 18
#466
1N7
#467
b10000000000000000000000011100000 O7
b11110010000000100011 18
b1101110 q8
#468
0N7
b10000000000000000000000011100100 O7
b10011110000111100010011 18
b1101111 q8
#469
1N7
#470
b10000000000000000011011011000100 J5
b10000000000000000000000011101000 O7
b11111111010111111111000001101111 18
b1110000 q8
#471
0N7
b10000000000000000000000011101100 O7
b11010110010111 18
b1110001 q8
#482
b10000000000000000000000011011100 O7
b1111111110101100001100011 18
#487
1N7
#488
b10000000000000000000000011100000 O7
b11110010000000100011 18
b1110010 q8
#489
0N7
b10000000000000000000000011100100 O7
b10011110000111100010011 18
b1110011 q8
#490
1N7
#491
b10000000000000000011011011001000 J5
b10000000000000000000000011101000 O7
b11111111010111111111000001101111 18
b1110100 q8
#492
0N7
b10000000000000000000000011101100 O7
b11010110010111 18
b1110101 q8
#503
b10000000000000000000000011011100 O7
b1111111110101100001100011 18
#508
1N7
#509
b10000000000000000000000011100000 O7
b11110010000000100011 18
b1110110 q8
#510
0N7
b10000000000000000000000011100100 O7
b10011110000111100010011 18
b1110111 q8
#511
1N7
#512
b10000000000000000011011011001100 J5
b10000000000000000000000011101000 O7
b11111111010111111111000001101111 18
b1111000 q8
139
#513
0N7
b10000000000000000000000011101100 O7
b11010110010111 18
b1111001 q8
#524
b10000000000000000000000011011100 O7
b1111111110101100001100011 18
#529
1N7
#530
0N7
b10000000000000000000000011110000 O7
b1011001010001011000010110010011 18
b1111010 q8
