test_uart7.vcd
$date
        2025-Apr-24 20:42:38
$end
$version
        Vivado v2024.2 (64-bit)
$end
$timescale
        1ps
$end
$scope module dut $end
$var reg 1 " design_1_i/soc1_0_robOut_commitFired $end
$var reg 64 # design_1_i/soc7_0_robOut_pc [63:0] $end
$var reg 64 c design_1_i/soc7_0_robOut_instruction [63:0] $end
$var reg 64 E" design_1_i/soc12_0_memAccessOut_schedulerReqIn_info [63:0] $end
$var reg 64 '# design_1_i/soc12_0_memAccessOut_schedulerReqIn_data [63:0] $end
$var reg 64 g# design_1_i/soc12_0_memAccessOut_schedulerReqOut_info [63:0] $end
$var reg 64 I$ design_1_i/soc12_0_memAccessOut_schedulerReqOut_data [63:0] $end
$var reg 64 +% design_1_i/soc12_0_memAccessOut_arbiterSpecBuffer_info [63:0] $end
$var reg 64 k% design_1_i/soc12_0_memAccessOut_arbiterSpecBuffer_data [63:0] $end
$var reg 64 M& design_1_i/soc12_0_memAccessOut_arbiterOperBuffer_info [63:0] $end
$var reg 64 /' design_1_i/soc12_0_memAccessOut_arbiterOperBuffer_data [63:0] $end
$var reg 64 o' design_1_i/soc12_0_memAccessOut_lookupReadBuffer_info [63:0] $end
$var reg 64 Q( design_1_i/soc12_0_memAccessOut_lookupReadBuffer_data [63:0] $end
$var reg 64 3) design_1_i/soc12_0_memAccessOut_lookupReplayBuffer_info [63:0] $end
$var reg 64 s) design_1_i/soc12_0_memAccessOut_lookupReplayBuffer_data [63:0] $end
$var reg 32 U* design_1_i/counter_1_0_count_out [31:0] $end
$var reg 1 u* _TRIGGER $end
$var reg 1 v* _WINDOW $end
$var reg 1 w* _GAP $end
$upscope $end
$enddefinitions $end
#0
$dumpvars
0"
b10000000000000000000001100110000 #
b1000000000010100010011 c
b0 E"
b0 '#
b0 g#
b0 I$
b0 +%
b0 k%
b0 M&
b0 /'
b0 o'
b0 Q(
b0 3)
b0 s)
b11001101001010 U*
0u*
1v*
0w*
$end
#11
b1000000000000000000000110100000000000000000000000000000000000000 o'
b11000000000000000000000000 Q(
#14
b0 o'
b0 Q(
#85
1"
b10000000000000000000001100111000 #
b10100010111 c
#86
0"
b10000000000000000000001100111100 #
b1100011000001010000010100010011 c
b11001101001011 U*
#92
1"
#93
b10000000000000000000001101000000 #
b11010010000000000000011101111 c
b11001101001100 U*
#94
0"
b10000000000000000000001101000100 #
b11011100010111 c
b11001101001101 U*
#116
b1000000000000000000001001100000000000000000000000000000000000000 o'
b11000000000000000000000000 Q(
#119
b0 o'
b0 Q(
#181
b10000000000000000000010011100100 #
b1010100011010000011 c
#185
b1000000000000000000010010110100000000000000001010100011010000011 E"
b100000000011000000010 '#
#186
b0 E"
b0 '#
b1000000000000000000010010110100000000000000001010100011010000011 g#
b1000100000000011000000010 I$
#187
b0 g#
b0 I$
b1000000000000000000010010110100000000000000001010100011010000011 +%
b100000000011000000010 k%
#188
b0 +%
b0 k%
b1000000000000000000010010110100000000000000001010100011010000011 o'
b1000100000000011000000010 Q(
#189
b0 o'
b0 Q(
b1000000000000000000010010110100000000000000001010100011010000011 3)
b100000000011000000010 s)
#190
b0 3)
b0 s)
#201
b1000000000000000000001010000000000000000000000000000000000000000 o'
b11000000000000000000000000 Q(
#204
b0 o'
b0 Q(
#270
b100000001100000000000000000100000000000000001110010011110000011 E"
b100010010010000001001 '#
#271
b0 E"
b0 '#
#275
b100000001100000000000000000010000000000110101100010000000100011 E"
b100110010100100001101 '#
#276
b1000000000000000000010010110100100000000000001010100011010000011 E"
b100110010100100001110 '#
#277
b0 E"
b0 '#
b1000000000000000000010010110100100000000000001010100011010000011 g#
b1000100110010100100001110 I$
#278
b0 g#
b0 I$
b1000000000000000000010010110100100000000000001010100011010000011 +%
b100110010100100001110 k%
#279
b0 +%
b0 k%
b1000000000000000000010010110100100000000000001010100011010000011 o'
b1000100110010100100001110 Q(
#280
b0 o'
b0 Q(
b1000000000000000000010010110100100000000000001010100011010000011 3)
b100110010100100001110 s)
#281
b0 3)
b0 s)
#338
b1000000000000000000010010110100000000000000001010100011010000011 o'
b10000100000000011000000010 Q(
#339
1"
b0 o'
b0 Q(
#340
0"
b10000000000000000000010011101000 #
b10000001101000101001100011 c
b11001101001110 U*
#343
b100000001100000000000000000100000000000000001110010011110000011 g#
b100000010010000001001 I$
#344
1"
b0 g#
b0 I$
b100000001100000000000000000100000000000000001110010011110000011 M&
b100000010010000001001 /'
#345
b10000000000000000000010011101100 #
b1000000011000000000011100110111 c
b0 M&
b0 /'
b11001101001111 U*
#346
b10000000000000000000010011110000 #
b1000000011000000000011000110111 c
b11001101010000 U*
#347
b10000000000000000000010011110100 #
b100001110000011100010011 c
b11001101010001 U*
#348
b10000000000000000000010011111000 #
b10001100000011000010011 c
b11001101010010 U*
#349
b10000000000000000000010011111100 #
b101010000010100010011 c
b11001101010011 U*
#350
0"
b10000000000000000000010100000000 #
b1110010011110000011 c
b11001101010100 U*
#385
1"
#386
0"
b10000000000000000000010100000100 #
b100001111111011110010011 c
b11001101010101 U*
#390
1"
b100000001100000000000000000010000000000110101100010000000100011 g#
b100000010100100001101 I$
#391
b10000000000000000000010100001000 #
b11111110000001111001110011100011 c
b0 g#
b0 I$
b100000001100000000000000000010000000000110101100010000000100011 M&
b100000010100100001101 /'
b11001101010110 U*
#392
b10000000000000000000010100001100 #
b1101000011010011011 c
b1000100000010100100001101 /'
b11001101010111 U*
#393
0"
b10000000000000000000010100010000 #
b110101100010000000100011 c
b11001101011000 U*
#394
b10000100000010100100001101 /'
#397
b100000100000010100100001101 /'
#402
1"
#403
0"
b10000000000000000000010100010100 #
b1010100011010000011 c
b0 M&
b0 /'
b11001101011001 U*
#409
b100000001100000000000000000100000000000000001110010011110000011 E"
b111110000011100000101 '#
#410
b0 E"
b0 '#
b1000000000000000000010010110100100000000000001010100011010000011 o'
b10000100000010100100001110 Q(
#411
1"
b0 o'
b0 Q(
#412
0"
b10000000000000000000010100011000 #
b11111110000001101001001011100011 c
b11001101011010 U*
#416
1"
#417
0"
b10000000000000000000010100011100 #
b1000000001100111 c
b11001101011011 U*
#433
b1000000000000000000001010100000000000000000000000000000000000000 o'
b11000000000000000000000000 Q(
#436
b0 o'
b0 Q(
#506
b10000000000000000000010011111100 #
b101010000010100010011 c
#511
1"
b100000001100000000000000000100000000000000001110010011110000011 E"
b100000000011000000001 '#
#512
0"
b10000000000000000000010100000000 #
b1110010011110000011 c
b0 E"
b0 '#
b100000001100000000000000000100000000000000001110010011110000011 g#
b100000000011000000001 I$
b11001101011100 U*
1u*
#513
b0 g#
b0 I$
b100000001100000000000000000100000000000000001110010011110000011 M&
b100000000011000000001 /'
#514
b0 M&
b0 /'
#515
b100000001100000000000000000010000000000110101100010000000100011 E"
b100010001010000000101 '#
#516
b1000000000000000000010010110101000000000000001010100011010000011 E"
b100010001010000000110 '#
#517
b0 E"
b0 '#
b1000000000000000000010010110101000000000000001010100011010000011 g#
b1000100010001010000000110 I$
#518
b0 g#
b0 I$
b1000000000000000000010010110101000000000000001010100011010000011 +%
b100010001010000000110 k%
#519
b0 +%
b0 k%
b1000000000000000000010010110101000000000000001010100011010000011 o'
b1000100010001010000000110 Q(
#520
b0 o'
b0 Q(
