test2_dubg.vcd
$date
        2025-Apr-21 18:49:18
$end
$version
        Vivado v2024.2 (64-bit)
$end
$timescale
        1ps
$end
$scope module dut $end
$var reg 1 " design_1_i/soc1_0_robOut_commitFired $end
$var reg 64 # design_1_i/soc1_0_robOut_pc [63:0] $end
$var reg 64 c design_1_i/soc1_0_robOut_instruction [63:0] $end
$var reg 64 E" design_1_i/soc1_0_memAccessOut_schedulerReqIn_info [63:0] $end
$var reg 64 '# design_1_i/soc1_0_memAccessOut_schedulerReqIn_data [63:0] $end
$var reg 64 g# design_1_i/soc1_0_memAccessOut_schedulerReqOut_info [63:0] $end
$var reg 64 I$ design_1_i/soc1_0_memAccessOut_schedulerReqOut_data [63:0] $end
$var reg 64 +% design_1_i/soc1_0_memAccessOut_arbiterSpecBuffer_info [63:0] $end
$var reg 64 k% design_1_i/soc1_0_memAccessOut_arbiterSpecBuffer_data [63:0] $end
$var reg 64 M& design_1_i/soc1_0_memAccessOut_arbiterOperBuffer_info [63:0] $end
$var reg 64 /' design_1_i/soc1_0_memAccessOut_arbiterOperBuffer_data [63:0] $end
$var reg 64 o' design_1_i/soc1_0_memAccessOut_lookupReadBuffer_info [63:0] $end
$var reg 64 Q( design_1_i/soc1_0_memAccessOut_lookupReadBuffer_data [63:0] $end
$var reg 64 3) design_1_i/soc1_0_memAccessOut_lookupReplayBuffer_info [63:0] $end
$var reg 64 s) design_1_i/soc1_0_memAccessOut_lookupReplayBuffer_data [63:0] $end
$var reg 1 U* _TRIGGER $end
$var reg 1 V* _WINDOW $end
$var reg 1 W* _GAP $end
$upscope $end
$enddefinitions $end
#0
$dumpvars
0"
b10000000000000000000001010011000 #
b11111110110101111001111011100011 c
b0 E"
b0 '#
b0 g#
b0 I$
b0 +%
b0 k%
b0 M&
b0 /'
b0 o'
b0 Q(
b0 3)
b0 s)
0U*
1V*
0W*
$end
#1
b1000000000000000010010000010100000000000000001110010011110000011 g#
b100000000101100000111 I$
#2
1"
b1000000000000000010010000010100000000000000001110010011110000011 E"
b101110000010100001101 '#
b0 g#
b0 I$
b1000000000000000010010000010100000000000000001110010011110000011 M&
b100000000101100000111 /'
#3
0"
b10000000000000000000001010010100 #
b1110010011110000011 c
b0 E"
b0 '#
b0 M&
b0 /'
#4
b1000000000000000010010000010100000000000000001110010011110000011 o'
b1000100000000101100000111 Q(
#5
1"
b0 o'
b0 Q(
#6
0"
b10000000000000000000001010011000 #
b11111110110101111001111011100011 c
#9
b1000000000000000010010000010100000000000000001110010011110000011 g#
b100000001010000001001 I$
#10
1"
b1000000000000000010010000010100000000000000001110010011110000011 E"
b111100000010000001111 '#
b0 g#
b0 I$
b1000000000000000010010000010100000000000000001110010011110000011 M&
b100000001010000001001 /'
#11
0"
b10000000000000000000001010010100 #
b1110010011110000011 c
b0 E"
b0 '#
b0 M&
b0 /'
#12
b1000000000000000010010000010100000000000000001110010011110000011 o'
b1000100000001010000001001 Q(
#13
1"
b0 o'
b0 Q(
#14
0"
b10000000000000000000001010011000 #
b11111110110101111001111011100011 c
#17
b1000000000000000010010000010100000000000000001110010011110000011 g#
b100000001011100001011 I$
#18
1"
b1000000000000000010010000010100000000000000001110010011110000011 E"
b111010000011100000001 '#
b0 g#
b0 I$
b1000000000000000010010000010100000000000000001110010011110000011 M&
b100000001011100001011 /'
#19
0"
b10000000000000000000001010010100 #
b1110010011110000011 c
b0 E"
b0 '#
b0 M&
b0 /'
#20
b1000000000000000010010000010100000000000000001110010011110000011 o'
b1000100000001011100001011 Q(
#21
1"
b0 o'
b0 Q(
#22
0"
b10000000000000000000001010011000 #
b11111110110101111001111011100011 c
#25
b1000000000000000010010000010100000000000000001110010011110000011 g#
b100000000010100001101 I$
#26
1"
b1000000000000000010010000010100000000000000001110010011110000011 E"
b110110000101100000011 '#
b0 g#
b0 I$
b1000000000000000010010000010100000000000000001110010011110000011 M&
b100000000010100001101 /'
#27
0"
b10000000000000000000001010010100 #
b1110010011110000011 c
b0 E"
b0 '#
b0 M&
b0 /'
#28
b1000000000000000010010000010100000000000000001110010011110000011 o'
b1000100000000010100001101 Q(
#29
1"
b0 o'
b0 Q(
#30
0"
b10000000000000000000001010011000 #
b11111110110101111001111011100011 c
#33
b1000000000000000010010000010100000000000000001110010011110000011 g#
b100000000010000001111 I$
#34
1"
b1000000000000000010010000010100000000000000001110010011110000011 E"
b101110001010000000101 '#
b0 g#
b0 I$
b1000000000000000010010000010100000000000000001110010011110000011 M&
b100000000010000001111 /'
#35
0"
b10000000000000000000001010010100 #
b1110010011110000011 c
b0 E"
b0 '#
b0 M&
b0 /'
#36
b1000000000000000010010000010100000000000000001110010011110000011 o'
b1000100000000010000001111 Q(
#37
1"
b0 o'
b0 Q(
#38
0"
b10000000000000000000001010011000 #
b11111110110101111001111011100011 c
#41
b1000000000000000010010000010100000000000000001110010011110000011 g#
b100000000011100000001 I$
#42
1"
b1000000000000000010010000010100000000000000001110010011110000011 E"
b111100001011100000111 '#
b0 g#
b0 I$
b1000000000000000010010000010100000000000000001110010011110000011 M&
b100000000011100000001 /'
#43
0"
b10000000000000000000001010010100 #
b1110010011110000011 c
b0 E"
b0 '#
b0 M&
b0 /'
#44
b1000000000000000010010000010100000000000000001110010011110000011 o'
b1000100000000011100000001 Q(
#45
1"
b0 o'
b0 Q(
#46
0"
b10000000000000000000001010011000 #
b11111110110101111001111011100011 c
#49
b1000000000000000010010000010100000000000000001110010011110000011 g#
b100000000101100000011 I$
#50
1"
b1000000000000000010010000010100000000000000001110010011110000011 E"
b111010000010100001001 '#
b0 g#
b0 I$
b1000000000000000010010000010100000000000000001110010011110000011 M&
b100000000101100000011 /'
#51
0"
b10000000000000000000001010010100 #
b1110010011110000011 c
b0 E"
b0 '#
b0 M&
b0 /'
#52
b1000000000000000010010000010100000000000000001110010011110000011 o'
b1000100000000101100000011 Q(
#53
1"
b0 o'
b0 Q(
#54
0"
b10000000000000000000001010011000 #
b11111110110101111001111011100011 c
#57
b1000000000000000010010000010100000000000000001110010011110000011 g#
b100000001010000000101 I$
#58
1"
b1000000000000000010010000010100000000000000001110010011110000011 E"
b110110000010000001011 '#
b0 g#
b0 I$
b1000000000000000010010000010100000000000000001110010011110000011 M&
b100000001010000000101 /'
#59
0"
b10000000000000000000001010010100 #
b1110010011110000011 c
b0 E"
b0 '#
b0 M&
b0 /'
#60
b1000000000000000010010000010100000000000000001110010011110000011 o'
b1000100000001010000000101 Q(
#61
1"
b0 o'
b0 Q(
#62
0"
b10000000000000000000001010011000 #
b11111110110101111001111011100011 c
#65
b1000000000000000010010000010100000000000000001110010011110000011 g#
b100000001011100000111 I$
#66
1"
b1000000000000000010010000010100000000000000001110010011110000011 E"
b101110000011100001101 '#
b0 g#
b0 I$
b1000000000000000010010000010100000000000000001110010011110000011 M&
b100000001011100000111 /'
#67
0"
b10000000000000000000001010010100 #
b1110010011110000011 c
b0 E"
b0 '#
b0 M&
b0 /'
#68
b1000000000000000010010000010100000000000000001110010011110000011 o'
b1000100000001011100000111 Q(
#69
1"
b0 o'
b0 Q(
#70
0"
b10000000000000000000001010011000 #
b11111110110101111001111011100011 c
#73
b1000000000000000010010000010100000000000000001110010011110000011 g#
b100000000010100001001 I$
#74
1"
b1000000000000000010010000010100000000000000001110010011110000011 E"
b111100000101100001111 '#
b0 g#
b0 I$
b1000000000000000010010000010100000000000000001110010011110000011 M&
b100000000010100001001 /'
#75
0"
b10000000000000000000001010010100 #
b1110010011110000011 c
b0 E"
b0 '#
b0 M&
b0 /'
#76
b1000000000000000010010000010100000000000000001110010011110000011 o'
b1000100000000010100001001 Q(
#77
1"
b0 o'
b0 Q(
#78
0"
b10000000000000000000001010011000 #
b11111110110101111001111011100011 c
#81
b1000000000000000010010000010100000000000000001110010011110000011 g#
b100000000010000001011 I$
#82
1"
b1000000000000000010010000010100000000000000001110010011110000011 E"
b111010001010000000001 '#
b0 g#
b0 I$
b1000000000000000010010000010100000000000000001110010011110000011 M&
b100000000010000001011 /'
#83
0"
b10000000000000000000001010010100 #
b1110010011110000011 c
b0 E"
b0 '#
b0 M&
b0 /'
#84
b1000000000000000010010000010100000000000000001110010011110000011 o'
b1000100000000010000001011 Q(
#85
1"
b0 o'
b0 Q(
#86
0"
b10000000000000000000001010011000 #
b11111110110101111001111011100011 c
#89
b1000000000000000010010000010100000000000000001110010011110000011 g#
b100000000011100001101 I$
#90
1"
b1000000000000000010010000010100000000000000001110010011110000011 E"
b110110001011100000011 '#
b0 g#
b0 I$
b1000000000000000010010000010100000000000000001110010011110000011 M&
b100000000011100001101 /'
#91
0"
b10000000000000000000001010010100 #
b1110010011110000011 c
b0 E"
b0 '#
b0 M&
b0 /'
#92
b1000000000000000010010000010100000000000000001110010011110000011 o'
b1000100000000011100001101 Q(
#93
1"
b0 o'
b0 Q(
#94
0"
b10000000000000000000001010011000 #
b11111110110101111001111011100011 c
#97
b1000000000000000010010000010100000000000000001110010011110000011 g#
b100000000101100001111 I$
#98
1"
b1000000000000000010010000010100000000000000001110010011110000011 E"
b101110000010100000101 '#
b0 g#
b0 I$
b1000000000000000010010000010100000000000000001110010011110000011 M&
b100000000101100001111 /'
#99
0"
b10000000000000000000001010010100 #
b1110010011110000011 c
b0 E"
b0 '#
b0 M&
b0 /'
#100
b1000000000000000010010000010100000000000000001110010011110000011 o'
b1000100000000101100001111 Q(
#101
1"
b0 o'
b0 Q(
#102
0"
b10000000000000000000001010011000 #
b11111110110101111001111011100011 c
#105
b1000000000000000010010000010100000000000000001110010011110000011 g#
b100000001010000000001 I$
#106
1"
b1000000000000000010010000010100000000000000001110010011110000011 E"
b111100000010000000111 '#
b0 g#
b0 I$
b1000000000000000010010000010100000000000000001110010011110000011 M&
b100000001010000000001 /'
#107
0"
b10000000000000000000001010010100 #
b1110010011110000011 c
b0 E"
b0 '#
b0 M&
b0 /'
#108
b1000000000000000010010000010100000000000000001110010011110000011 o'
b1000100000001010000000001 Q(
#109
1"
b0 o'
b0 Q(
#110
0"
b10000000000000000000001010011000 #
b11111110110101111001111011100011 c
#113
b1000000000000000010010000010100000000000000001110010011110000011 g#
b100000001011100000011 I$
#114
1"
b1000000000000000010010000010100000000000000001110010011110000011 E"
b111010000011100001001 '#
b0 g#
b0 I$
b1000000000000000010010000010100000000000000001110010011110000011 M&
b100000001011100000011 /'
#115
0"
b10000000000000000000001010010100 #
b1110010011110000011 c
b0 E"
b0 '#
b0 M&
b0 /'
#116
b1000000000000000010010000010100000000000000001110010011110000011 o'
b1000100000001011100000011 Q(
#117
1"
b0 o'
b0 Q(
#118
0"
b10000000000000000000001010011000 #
b11111110110101111001111011100011 c
#121
b1000000000000000010010000010100000000000000001110010011110000011 g#
b100000000010100000101 I$
#122
1"
b1000000000000000010010000010100000000000000001110010011110000011 E"
b110110000101100001011 '#
b0 g#
b0 I$
b1000000000000000010010000010100000000000000001110010011110000011 M&
b100000000010100000101 /'
#123
0"
b10000000000000000000001010010100 #
b1110010011110000011 c
b0 E"
b0 '#
b0 M&
b0 /'
#124
b1000000000000000010010000010100000000000000001110010011110000011 o'
b1000100000000010100000101 Q(
#125
1"
b0 o'
b0 Q(
#126
0"
b10000000000000000000001010011000 #
b11111110110101111001111011100011 c
#129
b1000000000000000010010000010100000000000000001110010011110000011 g#
b100000000010000000111 I$
#130
1"
b1000000000000000010010000010100000000000000001110010011110000011 E"
b101110001010000001101 '#
b0 g#
b0 I$
b1000000000000000010010000010100000000000000001110010011110000011 M&
b100000000010000000111 /'
#131
0"
b10000000000000000000001010010100 #
b1110010011110000011 c
b0 E"
b0 '#
b0 M&
b0 /'
#132
b1000000000000000010010000010100000000000000001110010011110000011 o'
b1000100000000010000000111 Q(
#133
1"
b0 o'
b0 Q(
#134
0"
b10000000000000000000001010011000 #
b11111110110101111001111011100011 c
#137
b1000000000000000010010000010100000000000000001110010011110000011 g#
b100000000011100001001 I$
#138
1"
b1000000000000000010010000010100000000000000001110010011110000011 E"
b111100001011100001111 '#
b0 g#
b0 I$
b1000000000000000010010000010100000000000000001110010011110000011 M&
b100000000011100001001 /'
#139
0"
b10000000000000000000001010010100 #
b1110010011110000011 c
b0 E"
b0 '#
b0 M&
b0 /'
#140
b1000000000000000010010000010100000000000000001110010011110000011 o'
b1000100000000011100001001 Q(
#141
1"
b0 o'
b0 Q(
#142
0"
b10000000000000000000001010011000 #
b11111110110101111001111011100011 c
#145
b1000000000000000010010000010100000000000000001110010011110000011 g#
b100000000101100001011 I$
#146
1"
b1000000000000000010010000010100000000000000001110010011110000011 E"
b111010000010100000001 '#
b0 g#
b0 I$
b1000000000000000010010000010100000000000000001110010011110000011 M&
b100000000101100001011 /'
#147
0"
b10000000000000000000001010010100 #
b1110010011110000011 c
b0 E"
b0 '#
b0 M&
b0 /'
#148
b1000000000000000010010000010100000000000000001110010011110000011 o'
b1000100000000101100001011 Q(
#149
1"
b0 o'
b0 Q(
#150
0"
b10000000000000000000001010011000 #
b11111110110101111001111011100011 c
#153
b1000000000000000010010000010100000000000000001110010011110000011 g#
b100000001010000001101 I$
#154
1"
b1000000000000000010010000010100000000000000001110010011110000011 E"
b110110000010000000011 '#
b0 g#
b0 I$
b1000000000000000010010000010100000000000000001110010011110000011 M&
b100000001010000001101 /'
#155
0"
b10000000000000000000001010010100 #
b1110010011110000011 c
b0 E"
b0 '#
b0 M&
b0 /'
#156
b1000000000000000010010000010100000000000000001110010011110000011 o'
b1000100000001010000001101 Q(
#157
1"
b0 o'
b0 Q(
#158
0"
b10000000000000000000001010011000 #
b11111110110101111001111011100011 c
#161
b1000000000000000010010000010100000000000000001110010011110000011 g#
b100000001011100001111 I$
#162
1"
b1000000000000000010010000010100000000000000001110010011110000011 E"
b101110000011100000101 '#
b0 g#
b0 I$
b1000000000000000010010000010100000000000000001110010011110000011 M&
b100000001011100001111 /'
#163
0"
b10000000000000000000001010010100 #
b1110010011110000011 c
b0 E"
b0 '#
b0 M&
b0 /'
#164
b1000000000000000010010000010100000000000000001110010011110000011 o'
b1000100000001011100001111 Q(
#165
1"
b0 o'
b0 Q(
#166
0"
b10000000000000000000001010011000 #
b11111110110101111001111011100011 c
#169
b1000000000000000010010000010100000000000000001110010011110000011 g#
b100000000010100000001 I$
#170
1"
b1000000000000000010010000010100000000000000001110010011110000011 E"
b111100000101100000111 '#
b0 g#
b0 I$
b1000000000000000010010000010100000000000000001110010011110000011 M&
b100000000010100000001 /'
#171
0"
b10000000000000000000001010010100 #
b1110010011110000011 c
b0 E"
b0 '#
b0 M&
b0 /'
#172
b1000000000000000010010000010100000000000000001110010011110000011 o'
b1000100000000010100000001 Q(
#173
1"
b0 o'
b0 Q(
#174
0"
b10000000000000000000001010011000 #
b11111110110101111001111011100011 c
#177
b1000000000000000010010000010100000000000000001110010011110000011 g#
b100000000010000000011 I$
#178
1"
b1000000000000000010010000010100000000000000001110010011110000011 E"
b111010001010000001001 '#
b0 g#
b0 I$
b1000000000000000010010000010100000000000000001110010011110000011 M&
b100000000010000000011 /'
#179
0"
b10000000000000000000001010010100 #
b1110010011110000011 c
b0 E"
b0 '#
b0 M&
b0 /'
#180
b1000000000000000010010000010100000000000000001110010011110000011 o'
b1000100000000010000000011 Q(
#181
1"
b0 o'
b0 Q(
#182
0"
b10000000000000000000001010011000 #
b11111110110101111001111011100011 c
#185
b1000000000000000010010000010100000000000000001110010011110000011 g#
b100000000011100000101 I$
#186
1"
b1000000000000000010010000010100000000000000001110010011110000011 E"
b110110001011100001011 '#
b0 g#
b0 I$
b1000000000000000010010000010100000000000000001110010011110000011 M&
b100000000011100000101 /'
#187
0"
b10000000000000000000001010010100 #
b1110010011110000011 c
b0 E"
b0 '#
b0 M&
b0 /'
#188
b1000000000000000010010000010100000000000000001110010011110000011 o'
b1000100000000011100000101 Q(
#189
1"
b0 o'
b0 Q(
#190
0"
b10000000000000000000001010011000 #
b11111110110101111001111011100011 c
#193
b1000000000000000010010000010100000000000000001110010011110000011 g#
b100000000101100000111 I$
#194
1"
b1000000000000000010010000010100000000000000001110010011110000011 E"
b101110000010100001101 '#
b0 g#
b0 I$
b1000000000000000010010000010100000000000000001110010011110000011 M&
b100000000101100000111 /'
#195
0"
b10000000000000000000001010010100 #
b1110010011110000011 c
b0 E"
b0 '#
b0 M&
b0 /'
#196
b1000000000000000010010000010100000000000000001110010011110000011 o'
b1000100000000101100000111 Q(
#197
1"
b0 o'
b0 Q(
#198
0"
b10000000000000000000001010011000 #
b11111110110101111001111011100011 c
#201
b1000000000000000010010000010100000000000000001110010011110000011 g#
b100000001010000001001 I$
#202
1"
b1000000000000000010010000010100000000000000001110010011110000011 E"
b111100000010000001111 '#
b0 g#
b0 I$
b1000000000000000010010000010100000000000000001110010011110000011 M&
b100000001010000001001 /'
#203
0"
b10000000000000000000001010010100 #
b1110010011110000011 c
b0 E"
b0 '#
b0 M&
b0 /'
#204
b1000000000000000010010000010100000000000000001110010011110000011 o'
b1000100000001010000001001 Q(
#205
1"
b0 o'
b0 Q(
#206
0"
b10000000000000000000001010011000 #
b11111110110101111001111011100011 c
#209
b1000000000000000010010000010100000000000000001110010011110000011 g#
b100000001011100001011 I$
#210
1"
b1000000000000000010010000010100000000000000001110010011110000011 E"
b111010000011100000001 '#
b0 g#
b0 I$
b1000000000000000010010000010100000000000000001110010011110000011 M&
b100000001011100001011 /'
#211
0"
b10000000000000000000001010010100 #
b1110010011110000011 c
b0 E"
b0 '#
b0 M&
b0 /'
#212
b1000000000000000010010000010100000000000000001110010011110000011 o'
b1000100000001011100001011 Q(
#213
1"
b0 o'
b0 Q(
#214
0"
b10000000000000000000001010011000 #
b11111110110101111001111011100011 c
#217
b1000000000000000010010000010100000000000000001110010011110000011 g#
b100000000010100001101 I$
#218
1"
b1000000000000000010010000010100000000000000001110010011110000011 E"
b110110000101100000011 '#
b0 g#
b0 I$
b1000000000000000010010000010100000000000000001110010011110000011 M&
b100000000010100001101 /'
#219
0"
b10000000000000000000001010010100 #
b1110010011110000011 c
b0 E"
b0 '#
b0 M&
b0 /'
#220
b1000000000000000010010000010100000000000000001110010011110000011 o'
b1000100000000010100001101 Q(
#221
1"
b0 o'
b0 Q(
#222
0"
b10000000000000000000001010011000 #
b11111110110101111001111011100011 c
#225
b1000000000000000010010000010100000000000000001110010011110000011 g#
b100000000010000001111 I$
#226
1"
b1000000000000000010010000010100000000000000001110010011110000011 E"
b101110001010000000101 '#
b0 g#
b0 I$
b1000000000000000010010000010100000000000000001110010011110000011 M&
b100000000010000001111 /'
#227
0"
b10000000000000000000001010010100 #
b1110010011110000011 c
b0 E"
b0 '#
b0 M&
b0 /'
#228
b1000000000000000010010000010100000000000000001110010011110000011 o'
b1000100000000010000001111 Q(
#229
1"
b0 o'
b0 Q(
#230
0"
b10000000000000000000001010011000 #
b11111110110101111001111011100011 c
#233
b1000000000000000010010000010100000000000000001110010011110000011 g#
b100000000011100000001 I$
#234
1"
b1000000000000000010010000010100000000000000001110010011110000011 E"
b111100001011100000111 '#
b0 g#
b0 I$
b1000000000000000010010000010100000000000000001110010011110000011 M&
b100000000011100000001 /'
#235
0"
b10000000000000000000001010010100 #
b1110010011110000011 c
b0 E"
b0 '#
b0 M&
b0 /'
#236
b1000000000000000010010000010100000000000000001110010011110000011 o'
b1000100000000011100000001 Q(
#237
1"
b0 o'
b0 Q(
#238
0"
b10000000000000000000001010011000 #
b11111110110101111001111011100011 c
#241
b1000000000000000010010000010100000000000000001110010011110000011 g#
b100000000101100000011 I$
#242
1"
b1000000000000000010010000010100000000000000001110010011110000011 E"
b111010000010100001001 '#
b0 g#
b0 I$
b1000000000000000010010000010100000000000000001110010011110000011 M&
b100000000101100000011 /'
#243
0"
b10000000000000000000001010010100 #
b1110010011110000011 c
b0 E"
b0 '#
b0 M&
b0 /'
#244
b1000000000000000010010000010100000000000000001110010011110000011 o'
b1000100000000101100000011 Q(
#245
1"
b0 o'
b0 Q(
#246
0"
b10000000000000000000001010011000 #
b11111110110101111001111011100011 c
#249
b1000000000000000010010000010100000000000000001110010011110000011 g#
b100000001010000000101 I$
#250
1"
b1000000000000000010010000010100000000000000001110010011110000011 E"
b110110000010000001011 '#
b0 g#
b0 I$
b1000000000000000010010000010100000000000000001110010011110000011 M&
b100000001010000000101 /'
#251
0"
b10000000000000000000001010010100 #
b1110010011110000011 c
b0 E"
b0 '#
b0 M&
b0 /'
#252
b1000000000000000010010000010100000000000000001110010011110000011 o'
b1000100000001010000000101 Q(
#253
1"
b0 o'
b0 Q(
#254
0"
b10000000000000000000001010011000 #
b11111110110101111001111011100011 c
#257
b1000000000000000010010000010100000000000000001110010011110000011 g#
b100000001011100000111 I$
#258
1"
b1000000000000000010010000010100000000000000001110010011110000011 E"
b101110000011100001101 '#
b0 g#
b0 I$
b1000000000000000010010000010100000000000000001110010011110000011 M&
b100000001011100000111 /'
#259
0"
b10000000000000000000001010010100 #
b1110010011110000011 c
b0 E"
b0 '#
b0 M&
b0 /'
#260
b1000000000000000010010000010100000000000000001110010011110000011 o'
b1000100000001011100000111 Q(
#261
1"
b0 o'
b0 Q(
#262
0"
b10000000000000000000001010011000 #
b11111110110101111001111011100011 c
#265
b1000000000000000010010000010100000000000000001110010011110000011 g#
b100000000010100001001 I$
#266
1"
b1000000000000000010010000010100000000000000001110010011110000011 E"
b111100000101100001111 '#
b0 g#
b0 I$
b1000000000000000010010000010100000000000000001110010011110000011 M&
b100000000010100001001 /'
#267
0"
b10000000000000000000001010010100 #
b1110010011110000011 c
b0 E"
b0 '#
b0 M&
b0 /'
#268
b1000000000000000010010000010100000000000000001110010011110000011 o'
b1000100000000010100001001 Q(
#269
1"
b0 o'
b0 Q(
#270
0"
b10000000000000000000001010011000 #
b11111110110101111001111011100011 c
#273
b1000000000000000010010000010100000000000000001110010011110000011 g#
b100000000010000001011 I$
#274
1"
b1000000000000000010010000010100000000000000001110010011110000011 E"
b111010001010000000001 '#
b0 g#
b0 I$
b1000000000000000010010000010100000000000000001110010011110000011 M&
b100000000010000001011 /'
#275
0"
b10000000000000000000001010010100 #
b1110010011110000011 c
b0 E"
b0 '#
b0 M&
b0 /'
#276
b1000000000000000010010000010100000000000000001110010011110000011 o'
b1000100000000010000001011 Q(
#277
1"
b0 o'
b0 Q(
#278
0"
b10000000000000000000001010011000 #
b11111110110101111001111011100011 c
#281
b1000000000000000010010000010100000000000000001110010011110000011 g#
b100000000011100001101 I$
#282
1"
b1000000000000000010010000010100000000000000001110010011110000011 E"
b110110001011100000011 '#
b0 g#
b0 I$
b1000000000000000010010000010100000000000000001110010011110000011 M&
b100000000011100001101 /'
#283
0"
b10000000000000000000001010010100 #
b1110010011110000011 c
b0 E"
b0 '#
b0 M&
b0 /'
#284
b1000000000000000010010000010100000000000000001110010011110000011 o'
b1000100000000011100001101 Q(
#285
1"
b0 o'
b0 Q(
#286
0"
b10000000000000000000001010011000 #
b11111110110101111001111011100011 c
#289
b1000000000000000010010000010100000000000000001110010011110000011 g#
b100000000101100001111 I$
#290
1"
b1000000000000000010010000010100000000000000001110010011110000011 E"
b101110000010100000101 '#
b0 g#
b0 I$
b1000000000000000010010000010100000000000000001110010011110000011 M&
b100000000101100001111 /'
#291
0"
b10000000000000000000001010010100 #
b1110010011110000011 c
b0 E"
b0 '#
b0 M&
b0 /'
#292
b1000000000000000010010000010100000000000000001110010011110000011 o'
b1000100000000101100001111 Q(
#293
1"
b0 o'
b0 Q(
#294
0"
b10000000000000000000001010011000 #
b11111110110101111001111011100011 c
#297
b1000000000000000010010000010100000000000000001110010011110000011 g#
b100000001010000000001 I$
#298
1"
b1000000000000000010010000010100000000000000001110010011110000011 E"
b111100000010000000111 '#
b0 g#
b0 I$
b1000000000000000010010000010100000000000000001110010011110000011 M&
b100000001010000000001 /'
#299
0"
b10000000000000000000001010010100 #
b1110010011110000011 c
b0 E"
b0 '#
b0 M&
b0 /'
#300
b1000000000000000010010000010100000000000000001110010011110000011 o'
b1000100000001010000000001 Q(
#301
1"
b0 o'
b0 Q(
#302
0"
b10000000000000000000001010011000 #
b11111110110101111001111011100011 c
#305
b1000000000000000010010000010100000000000000001110010011110000011 g#
b100000001011100000011 I$
#306
1"
b1000000000000000010010000010100000000000000001110010011110000011 E"
b111010000011100001001 '#
b0 g#
b0 I$
b1000000000000000010010000010100000000000000001110010011110000011 M&
b100000001011100000011 /'
#307
0"
b10000000000000000000001010010100 #
b1110010011110000011 c
b0 E"
b0 '#
b0 M&
b0 /'
#308
b1000000000000000010010000010100000000000000001110010011110000011 o'
b1000100000001011100000011 Q(
#309
1"
b0 o'
b0 Q(
#310
0"
b10000000000000000000001010011000 #
b11111110110101111001111011100011 c
#313
b1000000000000000010010000010100000000000000001110010011110000011 g#
b100000000010100000101 I$
#314
1"
b1000000000000000010010000010100000000000000001110010011110000011 E"
b110110000101100001011 '#
b0 g#
b0 I$
b1000000000000000010010000010100000000000000001110010011110000011 M&
b100000000010100000101 /'
#315
0"
b10000000000000000000001010010100 #
b1110010011110000011 c
b0 E"
b0 '#
b0 M&
b0 /'
#316
b1000000000000000010010000010100000000000000001110010011110000011 o'
b1000100000000010100000101 Q(
#317
1"
b0 o'
b0 Q(
#318
0"
b10000000000000000000001010011000 #
b11111110110101111001111011100011 c
#321
b1000000000000000010010000010100000000000000001110010011110000011 g#
b100000000010000000111 I$
#322
1"
b1000000000000000010010000010100000000000000001110010011110000011 E"
b101110001010000001101 '#
b0 g#
b0 I$
b1000000000000000010010000010100000000000000001110010011110000011 M&
b100000000010000000111 /'
#323
0"
b10000000000000000000001010010100 #
b1110010011110000011 c
b0 E"
b0 '#
b0 M&
b0 /'
#324
b1000000000000000010010000010100000000000000001110010011110000011 o'
b1000100000000010000000111 Q(
#325
1"
b0 o'
b0 Q(
#326
0"
b10000000000000000000001010011000 #
b11111110110101111001111011100011 c
#329
b1000000000000000010010000010100000000000000001110010011110000011 g#
b100000000011100001001 I$
#330
1"
b1000000000000000010010000010100000000000000001110010011110000011 E"
b111100001011100001111 '#
b0 g#
b0 I$
b1000000000000000010010000010100000000000000001110010011110000011 M&
b100000000011100001001 /'
#331
0"
b10000000000000000000001010010100 #
b1110010011110000011 c
b0 E"
b0 '#
b0 M&
b0 /'
#332
b1000000000000000010010000010100000000000000001110010011110000011 o'
b1000100000000011100001001 Q(
#333
1"
b0 o'
b0 Q(
#334
0"
b10000000000000000000001010011000 #
b11111110110101111001111011100011 c
#337
b1000000000000000010010000010100000000000000001110010011110000011 g#
b100000000101100001011 I$
#338
1"
b1000000000000000010010000010100000000000000001110010011110000011 E"
b111010000010100000001 '#
b0 g#
b0 I$
b1000000000000000010010000010100000000000000001110010011110000011 M&
b100000000101100001011 /'
#339
0"
b10000000000000000000001010010100 #
b1110010011110000011 c
b0 E"
b0 '#
b0 M&
b0 /'
#340
b1000000000000000010010000010100000000000000001110010011110000011 o'
b1000100000000101100001011 Q(
#341
1"
b0 o'
b0 Q(
#342
0"
b10000000000000000000001010011000 #
b11111110110101111001111011100011 c
#345
b1000000000000000010010000010100000000000000001110010011110000011 g#
b100000001010000001101 I$
#346
1"
b1000000000000000010010000010100000000000000001110010011110000011 E"
b110110000010000000011 '#
b0 g#
b0 I$
b1000000000000000010010000010100000000000000001110010011110000011 M&
b100000001010000001101 /'
#347
0"
b10000000000000000000001010010100 #
b1110010011110000011 c
b0 E"
b0 '#
b0 M&
b0 /'
#348
b1000000000000000010010000010100000000000000001110010011110000011 o'
b1000100000001010000001101 Q(
#349
1"
b0 o'
b0 Q(
#350
0"
b10000000000000000000001010011000 #
b11111110110101111001111011100011 c
#353
b1000000000000000010010000010100000000000000001110010011110000011 g#
b100000001011100001111 I$
#354
1"
b1000000000000000010010000010100000000000000001110010011110000011 E"
b101110000011100000101 '#
b0 g#
b0 I$
b1000000000000000010010000010100000000000000001110010011110000011 M&
b100000001011100001111 /'
#355
0"
b10000000000000000000001010010100 #
b1110010011110000011 c
b0 E"
b0 '#
b0 M&
b0 /'
#356
b1000000000000000010010000010100000000000000001110010011110000011 o'
b1000100000001011100001111 Q(
#357
1"
b0 o'
b0 Q(
#358
0"
b10000000000000000000001010011000 #
b11111110110101111001111011100011 c
#361
b1000000000000000010010000010100000000000000001110010011110000011 g#
b100000000010100000001 I$
#362
1"
b1000000000000000010010000010100000000000000001110010011110000011 E"
b111100000101100000111 '#
b0 g#
b0 I$
b1000000000000000010010000010100000000000000001110010011110000011 M&
b100000000010100000001 /'
#363
0"
b10000000000000000000001010010100 #
b1110010011110000011 c
b0 E"
b0 '#
b0 M&
b0 /'
#364
b1000000000000000010010000010100000000000000001110010011110000011 o'
b1000100000000010100000001 Q(
#365
1"
b0 o'
b0 Q(
#366
0"
b10000000000000000000001010011000 #
b11111110110101111001111011100011 c
#369
b1000000000000000010010000010100000000000000001110010011110000011 g#
b100000000010000000011 I$
#370
1"
b1000000000000000010010000010100000000000000001110010011110000011 E"
b111010001010000001001 '#
b0 g#
b0 I$
b1000000000000000010010000010100000000000000001110010011110000011 M&
b100000000010000000011 /'
#371
0"
b10000000000000000000001010010100 #
b1110010011110000011 c
b0 E"
b0 '#
b0 M&
b0 /'
#372
b1000000000000000010010000010100000000000000001110010011110000011 o'
b1000100000000010000000011 Q(
#373
1"
b0 o'
b0 Q(
#374
0"
b10000000000000000000001010011000 #
b11111110110101111001111011100011 c
#377
b1000000000000000010010000010100000000000000001110010011110000011 g#
b100000000011100000101 I$
#378
1"
b1000000000000000010010000010100000000000000001110010011110000011 E"
b110110001011100001011 '#
b0 g#
b0 I$
b1000000000000000010010000010100000000000000001110010011110000011 M&
b100000000011100000101 /'
#379
0"
b10000000000000000000001010010100 #
b1110010011110000011 c
b0 E"
b0 '#
b0 M&
b0 /'
