testf0_2.vcd
$date
        2025-Apr-23 15:16:50
$end
$version
        Vivado v2024.2 (64-bit)
$end
$timescale
        1ps
$end
$scope module dut $end
$var reg 64 " design_1_i/soc11_0_registersOut_0 [63:0] $end
$var reg 64 b design_1_i/soc11_0_registersOut_1 [63:0] $end
$var reg 64 D" design_1_i/soc11_0_registersOut_2 [63:0] $end
$var reg 64 &# design_1_i/soc11_0_registersOut_3 [63:0] $end
$var reg 64 f# design_1_i/soc11_0_registersOut_4 [63:0] $end
$var reg 64 H$ design_1_i/soc11_0_registersOut_5 [63:0] $end
$var reg 64 *% design_1_i/soc11_0_registersOut_6 [63:0] $end
$var reg 64 j% design_1_i/soc11_0_registersOut_7 [63:0] $end
$var reg 64 L& design_1_i/soc11_0_registersOut_8 [63:0] $end
$var reg 64 .' design_1_i/soc11_0_registersOut_9 [63:0] $end
$var reg 64 n' design_1_i/soc11_0_registersOut_10 [63:0] $end
$var reg 64 P( design_1_i/soc11_0_registersOut_11 [63:0] $end
$var reg 64 2) design_1_i/soc11_0_registersOut_12 [63:0] $end
$var reg 64 r) design_1_i/soc11_0_registersOut_13 [63:0] $end
$var reg 64 T* design_1_i/soc11_0_registersOut_14 [63:0] $end
$var reg 64 6+ design_1_i/soc11_0_registersOut_15 [63:0] $end
$var reg 64 v+ design_1_i/soc11_0_registersOut_16 [63:0] $end
$var reg 64 X, design_1_i/soc11_0_registersOut_17 [63:0] $end
$var reg 64 :- design_1_i/soc11_0_registersOut_18 [63:0] $end
$var reg 64 z- design_1_i/soc11_0_registersOut_19 [63:0] $end
$var reg 64 \. design_1_i/soc11_0_registersOut_20 [63:0] $end
$var reg 64 >/ design_1_i/soc11_0_registersOut_21 [63:0] $end
$var reg 64 ~/ design_1_i/soc11_0_registersOut_22 [63:0] $end
$var reg 64 `0 design_1_i/soc11_0_registersOut_23 [63:0] $end
$var reg 64 B1 design_1_i/soc11_0_registersOut_24 [63:0] $end
$var reg 64 $2 design_1_i/soc11_0_registersOut_25 [63:0] $end
$var reg 64 d2 design_1_i/soc11_0_registersOut_26 [63:0] $end
$var reg 64 F3 design_1_i/soc11_0_registersOut_27 [63:0] $end
$var reg 64 (4 design_1_i/soc11_0_registersOut_28 [63:0] $end
$var reg 64 h4 design_1_i/soc11_0_registersOut_29 [63:0] $end
$var reg 64 J5 design_1_i/soc11_0_registersOut_30 [63:0] $end
$var reg 64 ,6 design_1_i/soc11_0_registersOut_31 [63:0] $end
$var reg 64 l6 design_1_i/soc11_0_registersOut_32 [63:0] $end
$var reg 1 N7 design_1_i/soc1_0_robOut_commitFired_1 $end
$var reg 64 O7 design_1_i/soc7_0_robOut_pc_1 [63:0] $end
$var reg 64 18 design_1_i/soc7_0_robOut_instruction_1 [63:0] $end
$var reg 32 q8 design_1_i/counter_1_0_count_out_1 [31:0] $end
$var reg 1 39 _TRIGGER $end
$var reg 1 49 _WINDOW $end
$var reg 1 59 _GAP $end
$upscope $end
$enddefinitions $end
#0
$dumpvars
b0 "
b0 b
b0 D"
b0 &#
b0 f#
b10000000000000000000000100111000 H$
b1 *%
b0 j%
b0 L&
b0 .'
b0 n'
b0 P(
b10000000000000000011011010000000 2)
b0 r)
b0 T*
b0 6+
b0 v+
b0 X,
b0 :-
b0 z-
b0 \.
b0 >/
b0 ~/
b0 `0
b0 B1
b0 $2
b0 d2
b0 F3
b0 (4
b0 h4
b0 J5
b0 ,6
b101000000000000000000000000000000000 l6
0N7
b10000000000000000000000001110100 O7
b111000010011 18
b110000 q8
039
149
059
$end
#68
b10000000000000000000000011001000 O7
b10000001010001100001100011 18
#73
1N7
#74
b10000000000000000000000011001100 O7
b11111100010111 18
b110001 q8
#75
0N7
b10000000000000000000000011010000 O7
b1011011110011110000111100010011 18
b110010 q8
#76
b10000000000000000011000011001100 J5
1N7
#77
b10000000000000000011011010001000 J5
b10000000000000000000000011010100 O7
b100111110010111 18
b110011 q8
#78
b10000000000000000100000011010100 ,6
b10000000000000000000000011011000 O7
b1010101010011111000111110010011 18
b110100 q8
#79
0N7
b10000000000000000000000011011100 O7
b1111111110101100001100011 18
b110101 q8
#80
b10000000000000000100011000101000 ,6
1N7
#81
b10000000000000000000000011100000 O7
b11110010000000100011 18
b110110 q8
#82
b10000000000000000000000011100100 O7
b10011110000111100010011 18
b110111 q8
#83
0N7
b10000000000000000000000011101000 O7
b11111111010111111111000001101111 18
b111000 q8
#84
b10000000000000000011011010001100 J5
1N7
#85
0N7
b10000000000000000000000011101100 O7
b11010110010111 18
b111001 q8
#170
b10000000000000000000000011011100 O7
b1111111110101100001100011 18
#175
1N7
#176
b10000000000000000000000011100000 O7
b11110010000000100011 18
b111010 q8
#177
0N7
b10000000000000000000000011100100 O7
b10011110000111100010011 18
b111011 q8
#178
1N7
#179
b10000000000000000011011010010000 J5
b10000000000000000000000011101000 O7
b11111111010111111111000001101111 18
b111100 q8
#180
0N7
b10000000000000000000000011101100 O7
b11010110010111 18
b111101 q8
#191
b10000000000000000000000011011100 O7
b1111111110101100001100011 18
#196
1N7
#197
b10000000000000000000000011100000 O7
b11110010000000100011 18
b111110 q8
#198
0N7
b10000000000000000000000011100100 O7
b10011110000111100010011 18
b111111 q8
#199
1N7
#200
b10000000000000000011011010010100 J5
b10000000000000000000000011101000 O7
b11111111010111111111000001101111 18
b1000000 q8
#201
0N7
b10000000000000000000000011101100 O7
b11010110010111 18
b1000001 q8
#212
b10000000000000000000000011011100 O7
b1111111110101100001100011 18
#217
1N7
#218
b10000000000000000000000011100000 O7
b11110010000000100011 18
b1000010 q8
#219
0N7
b10000000000000000000000011100100 O7
b10011110000111100010011 18
b1000011 q8
#220
1N7
#221
b10000000000000000011011010011000 J5
b10000000000000000000000011101000 O7
b11111111010111111111000001101111 18
b1000100 q8
#222
0N7
b10000000000000000000000011101100 O7
b11010110010111 18
b1000101 q8
#233
b10000000000000000000000011011100 O7
b1111111110101100001100011 18
#238
1N7
#239
b10000000000000000000000011100000 O7
b11110010000000100011 18
b1000110 q8
#240
0N7
b10000000000000000000000011100100 O7
b10011110000111100010011 18
b1000111 q8
#241
1N7
#242
b10000000000000000011011010011100 J5
b10000000000000000000000011101000 O7
b11111111010111111111000001101111 18
b1001000 q8
#243
0N7
b10000000000000000000000011101100 O7
b11010110010111 18
b1001001 q8
#254
b10000000000000000000000011011100 O7
b1111111110101100001100011 18
#259
1N7
#260
b10000000000000000000000011100000 O7
b11110010000000100011 18
b1001010 q8
#261
0N7
b10000000000000000000000011100100 O7
b10011110000111100010011 18
b1001011 q8
#262
1N7
#263
b10000000000000000011011010100000 J5
b10000000000000000000000011101000 O7
b11111111010111111111000001101111 18
b1001100 q8
#264
0N7
b10000000000000000000000011101100 O7
b11010110010111 18
b1001101 q8
#275
b10000000000000000000000011011100 O7
b1111111110101100001100011 18
#280
1N7
#281
b10000000000000000000000011100000 O7
b11110010000000100011 18
b1001110 q8
#282
0N7
b10000000000000000000000011100100 O7
b10011110000111100010011 18
b1001111 q8
#283
1N7
#284
b10000000000000000011011010100100 J5
b10000000000000000000000011101000 O7
b11111111010111111111000001101111 18
b1010000 q8
#285
0N7
b10000000000000000000000011101100 O7
b11010110010111 18
b1010001 q8
#296
b10000000000000000000000011011100 O7
b1111111110101100001100011 18
#301
1N7
#302
b10000000000000000000000011100000 O7
b11110010000000100011 18
b1010010 q8
#303
0N7
b10000000000000000000000011100100 O7
b10011110000111100010011 18
b1010011 q8
#304
1N7
#305
b10000000000000000011011010101000 J5
b10000000000000000000000011101000 O7
b11111111010111111111000001101111 18
b1010100 q8
#306
0N7
b10000000000000000000000011101100 O7
b11010110010111 18
b1010101 q8
#317
b10000000000000000000000011011100 O7
b1111111110101100001100011 18
#322
1N7
#323
b10000000000000000000000011100000 O7
b11110010000000100011 18
b1010110 q8
#324
0N7
b10000000000000000000000011100100 O7
b10011110000111100010011 18
b1010111 q8
#325
1N7
#326
b10000000000000000011011010101100 J5
b10000000000000000000000011101000 O7
b11111111010111111111000001101111 18
b1011000 q8
#327
0N7
b10000000000000000000000011101100 O7
b11010110010111 18
b1011001 q8
#338
b10000000000000000000000011011100 O7
b1111111110101100001100011 18
#343
1N7
#344
b10000000000000000000000011100000 O7
b11110010000000100011 18
b1011010 q8
#345
0N7
b10000000000000000000000011100100 O7
b10011110000111100010011 18
b1011011 q8
#346
1N7
#347
b10000000000000000011011010110000 J5
b10000000000000000000000011101000 O7
b11111111010111111111000001101111 18
b1011100 q8
#348
0N7
b10000000000000000000000011101100 O7
b11010110010111 18
b1011101 q8
#359
b10000000000000000000000011011100 O7
b1111111110101100001100011 18
#364
1N7
#365
b10000000000000000000000011100000 O7
b11110010000000100011 18
b1011110 q8
#366
0N7
b10000000000000000000000011100100 O7
b10011110000111100010011 18
b1011111 q8
#367
1N7
#368
b10000000000000000011011010110100 J5
b10000000000000000000000011101000 O7
b11111111010111111111000001101111 18
b1100000 q8
#369
0N7
b10000000000000000000000011101100 O7
b11010110010111 18
b1100001 q8
#380
b10000000000000000000000011011100 O7
b1111111110101100001100011 18
#385
1N7
#386
b10000000000000000000000011100000 O7
b11110010000000100011 18
b1100010 q8
#387
0N7
b10000000000000000000000011100100 O7
b10011110000111100010011 18
b1100011 q8
#388
1N7
#389
b10000000000000000011011010111000 J5
b10000000000000000000000011101000 O7
b11111111010111111111000001101111 18
b1100100 q8
#390
0N7
b10000000000000000000000011101100 O7
b11010110010111 18
b1100101 q8
#401
b10000000000000000000000011011100 O7
b1111111110101100001100011 18
#406
1N7
#407
b10000000000000000000000011100000 O7
b11110010000000100011 18
b1100110 q8
#408
0N7
b10000000000000000000000011100100 O7
b10011110000111100010011 18
b1100111 q8
#409
1N7
#410
b10000000000000000011011010111100 J5
b10000000000000000000000011101000 O7
b11111111010111111111000001101111 18
b1101000 q8
#411
0N7
b10000000000000000000000011101100 O7
b11010110010111 18
b1101001 q8
#422
b10000000000000000000000011011100 O7
b1111111110101100001100011 18
#427
1N7
#428
b10000000000000000000000011100000 O7
b11110010000000100011 18
b1101010 q8
#429
0N7
b10000000000000000000000011100100 O7
b10011110000111100010011 18
b1101011 q8
#430
1N7
#431
b10000000000000000011011011000000 J5
b10000000000000000000000011101000 O7
b11111111010111111111000001101111 18
b1101100 q8
#432
0N7
b10000000000000000000000011101100 O7
b11010110010111 18
b1101101 q8
#443
b10000000000000000000000011011100 O7
b1111111110101100001100011 18
#448
1N7
#449
b10000000000000000000000011100000 O7
b11110010000000100011 18
b1101110 q8
#450
0N7
b10000000000000000000000011100100 O7
b10011110000111100010011 18
b1101111 q8
#451
1N7
#452
b10000000000000000011011011000100 J5
b10000000000000000000000011101000 O7
b11111111010111111111000001101111 18
b1110000 q8
#453
0N7
b10000000000000000000000011101100 O7
b11010110010111 18
b1110001 q8
#464
b10000000000000000000000011011100 O7
b1111111110101100001100011 18
#469
1N7
#470
b10000000000000000000000011100000 O7
b11110010000000100011 18
b1110010 q8
#471
0N7
b10000000000000000000000011100100 O7
b10011110000111100010011 18
b1110011 q8
#472
1N7
#473
b10000000000000000011011011001000 J5
b10000000000000000000000011101000 O7
b11111111010111111111000001101111 18
b1110100 q8
#474
0N7
b10000000000000000000000011101100 O7
b11010110010111 18
b1110101 q8
#485
b10000000000000000000000011011100 O7
b1111111110101100001100011 18
#490
1N7
#491
b10000000000000000000000011100000 O7
b11110010000000100011 18
b1110110 q8
#492
0N7
b10000000000000000000000011100100 O7
b10011110000111100010011 18
b1110111 q8
#493
1N7
#494
b10000000000000000011011011001100 J5
b10000000000000000000000011101000 O7
b11111111010111111111000001101111 18
b1111000 q8
#495
0N7
b10000000000000000000000011101100 O7
b11010110010111 18
b1111001 q8
#506
b10000000000000000000000011011100 O7
b1111111110101100001100011 18
#511
1N7
#512
0N7
b10000000000000000000000011110000 O7
b1011001010001011000010110010011 18
b1111010 q8
139
