test3.vcd
$date
        2025-Apr-21 21:59:14
$end
$version
        Vivado v2024.2 (64-bit)
$end
$timescale
        1ps
$end
$scope module dut $end
$var reg 1 " design_1_i/soc1_0_robOut_commitFired $end
$var reg 64 # design_1_i/soc7_0_robOut_pc [63:0] $end
$var reg 64 c design_1_i/soc7_0_robOut_instruction [63:0] $end
$var reg 64 E" design_1_i/soc7_0_memAccessOut_schedulerReqIn_info [63:0] $end
$var reg 64 '# design_1_i/soc7_0_memAccessOut_schedulerReqIn_data [63:0] $end
$var reg 64 g# design_1_i/soc7_0_memAccessOut_schedulerReqOut_info [63:0] $end
$var reg 64 I$ design_1_i/soc7_0_memAccessOut_schedulerReqOut_data [63:0] $end
$var reg 64 +% design_1_i/soc7_0_memAccessOut_arbiterSpecBuffer_info [63:0] $end
$var reg 64 k% design_1_i/soc7_0_memAccessOut_arbiterSpecBuffer_data [63:0] $end
$var reg 64 M& design_1_i/soc7_0_memAccessOut_arbiterOperBuffer_info [63:0] $end
$var reg 64 /' design_1_i/soc7_0_memAccessOut_arbiterOperBuffer_data [63:0] $end
$var reg 64 o' design_1_i/soc7_0_memAccessOut_lookupReadBuffer_info [63:0] $end
$var reg 64 Q( design_1_i/soc7_0_memAccessOut_lookupReadBuffer_data [63:0] $end
$var reg 64 3) design_1_i/soc7_0_memAccessOut_lookupReplayBuffer_info [63:0] $end
$var reg 64 s) design_1_i/soc7_0_memAccessOut_lookupReplayBuffer_data [63:0] $end
$var reg 32 U* design_1_i/counter_1_0_count_out [31:0] $end
$var reg 1 u* _TRIGGER $end
$var reg 1 v* _WINDOW $end
$var reg 1 w* _GAP $end
$upscope $end
$enddefinitions $end
#0
$dumpvars
1"
b10000000000000000000001111010000 #
b110001101000100000110011 c
b0 E"
b0 '#
b0 g#
b0 I$
b0 +%
b0 k%
b0 M&
b0 /'
b0 o'
b0 Q(
b0 3)
b0 s)
b11001010100001 U*
0u*
1v*
0w*
$end
#1
b10000000000000000000001111010100 #
b110001110000010110110011 c
b1000000000000000001101110000000000000000000010000010100010000011 E"
b100000001010000000010 '#
b11001010100010 U*
#2
0"
b10000000000000000000001111011000 #
b10000010100010000011 c
b1000000000000000001001110110000000000000000001011010010110000011 E"
b100000001100000000011 '#
b1000000000000000001101110000000000000000000010000010100010000011 g#
b1000100000001010000000010 I$
b11001010100011 U*
#3
b0 E"
b0 '#
b0 g#
b0 I$
b1000000000000000001101110000000000000000000010000010100010000011 +%
b100000001010000000010 k%
#4
b1000000000000000001001110110000000000000000001011010010110000011 g#
b1000100000001100000000011 I$
b0 +%
b0 k%
b1000000000000000001101110000000000000000000010000010100010000011 o'
b1000100000001010000000010 Q(
#5
b0 g#
b0 I$
b1000000000000000001001110110000000000000000001011010010110000011 +%
b100000001100000000011 k%
b0 o'
b0 Q(
b1000000000000000001101110000000000000000000010000010100010000011 3)
b100000001010000000010 s)
#6
b1000000000000000010001101010100000000000101110000010000000100011 E"
b100000010011000000111 '#
b0 +%
b0 k%
b1000000000000000001001110110000000000000000001011010010110000011 o'
b1000100000001100000000011 Q(
b0 3)
b0 s)
#7
b0 E"
b0 '#
b1000000000000000010001101010100000000000101110000010000000100011 g#
b100000010011000000111 I$
b0 o'
b0 Q(
#8
b0 g#
b0 I$
b1000000000000000010001101010100000000000101110000010000000100011 M&
b100000010011000000111 /'
#9
b1000100000010011000000111 /'
#27
b1000000000000000001101110000010000000000000010000010100010000011 E"
b100000010011000001011 '#
#28
b1000000000000000001001110110010000000000000001011010010110000011 E"
b100000010011100001100 '#
b1000000000000000001101110000010000000000000010000010100010000011 g#
b1000100000010011000001011 I$
#29
b0 E"
b0 '#
b0 g#
b0 I$
b1000000000000000001101110000010000000000000010000010100010000011 +%
b100000010011000001011 k%
#30
b1000000000000000001001110110010000000000000001011010010110000011 g#
b1000100000010011100001100 I$
b0 +%
b0 k%
b1000000000000000001101110000010000000000000010000010100010000011 o'
b1000100000010011000001011 Q(
#31
b0 g#
b0 I$
b1000000000000000001001110110010000000000000001011010010110000011 +%
b100000010011100001100 k%
b0 o'
b0 Q(
b1000000000000000001101110000010000000000000010000010100010000011 3)
b100000010011000001011 s)
#32
b1000000000000000010001101010110000000000101110000010000000100011 E"
b100000010110000000000 '#
b0 +%
b0 k%
b1000000000000000001001110110010000000000000001011010010110000011 o'
b1000100000010011100001100 Q(
b0 3)
b0 s)
#33
b0 E"
b0 '#
b0 o'
b0 Q(
#84
b1000000000000000001101110000000000000000000010000010100010000011 o'
b10000100000001010000000010 Q(
#85
1"
b0 o'
b0 Q(
#86
b10000000000000000000001111011100 #
b1011010010110000011 c
b11001010100100 U*
#87
b10000000000000000000001111100000 #
b110001111000100000110011 c
b11001010100101 U*
#88
b10000000000000000000001111100100 #
b10001100000011000010011 c
b11001010100110 U*
#89
0"
b10000000000000000000001111101000 #
b1000101011000010110111011 c
b11001010100111 U*
#90
1"
#91
0"
b10000000000000000000001111101100 #
b101110000010000000100011 c
b11001010101000 U*
#92
b1000000000000000001101110000100000000000000010000010100010000011 E"
b100000000100100000100 '#
b10000100000010011000000111 /'
#93
b1000000000000000001001110110100000000000000001011010010110000011 E"
b100000000100000000101 '#
b1000000000000000001101110000100000000000000010000010100010000011 g#
b1000100000000100100000100 I$
#94
b0 E"
b0 '#
b0 g#
b0 I$
b1000000000000000001101110000100000000000000010000010100010000011 +%
b100000000100100000100 k%
#95
b1000000000000000001001110110100000000000000001011010010110000011 g#
b1000100000000100000000101 I$
b0 +%
b0 k%
b100000100000010011000000111 /'
b1000000000000000001101110000100000000000000010000010100010000011 o'
b1000100000000100100000100 Q(
#96
b0 g#
b0 I$
b1000000000000000001001110110100000000000000001011010010110000011 +%
b100000000100000000101 k%
b0 o'
b0 Q(
#97
b0 +%
b0 k%
b1000000000000000001001110110100000000000000001011010010110000011 o'
b1000100000000100000000101 Q(
#98
b0 o'
b0 Q(
#156
b1000000000000000001101110000010000000000000010000010100010000011 o'
b10000100000010011000001011 Q(
#157
b1000000000000000010001101010110000000000101110000010000000100011 g#
b100000010110000000000 I$
b1000000000000000010001101010100000000000101110000010000000100011 o'
b1000100000010011000000111 Q(
#158
1"
b0 g#
b0 I$
b1000000000000000010001101010110000000000101110000010000000100011 M&
b100000100000010110000000000 /'
b0 o'
b0 Q(
#159
b10000000000000000000001111110000 #
b11111110101001100001000011100011 c
b100000010110000000000 /'
b11001010101001 U*
#160
b10000000000000000000001111010000 #
b110001101000100000110011 c
b1000100000010110000000000 /'
b11001010101010 U*
#161
b10000000000000000000001111010100 #
b110001110000010110110011 c
b11001010101011 U*
#162
b10000000000000000000001111011000 #
b10000010100010000011 c
b11001010101100 U*
#163
b10000000000000000000001111011100 #
b1011010010110000011 c
b11001010101101 U*
#164
b10000000000000000000001111100000 #
b110001111000100000110011 c
b11001010101110 U*
#165
b10000000000000000000001111100100 #
b10001100000011000010011 c
b1000000000000000010001101011000000000000101110000010000000100011 E"
b100000010111000001001 '#
b11001010101111 U*
#166
0"
b10000000000000000000001111101000 #
b1000101011000010110111011 c
b0 E"
b0 '#
b11001010110000 U*
#167
1"
#168
0"
b10000000000000000000001111101100 #
b101110000010000000100011 c
b11001010110001 U*
#169
b10000100000010110000000000 /'
#172
b100000100000010110000000000 /'
#173
b1000000000000000010001101011000000000000101110000010000000100011 g#
b100000010111000001001 I$
b1000000000000000010001101010110000000000101110000010000000100011 o'
b1000100000010110000000000 Q(
#174
1"
b0 g#
b0 I$
b1000000000000000010001101011000000000000101110000010000000100011 M&
b100000100000010111000001001 /'
b0 o'
b0 Q(
#175
b10000000000000000000001111110000 #
b11111110101001100001000011100011 c
b100000010111000001001 /'
b11001010110010 U*
#176
b10000000000000000000001111010000 #
b110001101000100000110011 c
b1000100000010111000001001 /'
b11001010110011 U*
#177
b10000000000000000000001111010100 #
b110001110000010110110011 c
b11001010110100 U*
#178
b10000000000000000000001111011000 #
b10000010100010000011 c
b11001010110101 U*
#179
b10000000000000000000001111011100 #
b1011010010110000011 c
b11001010110110 U*
#180
b10000000000000000000001111100000 #
b110001111000100000110011 c
b11001010110111 U*
#181
b10000000000000000000001111100100 #
b10001100000011000010011 c
b11001010111000 U*
#182
b10000000000000000000001111101000 #
b1000101011000010110111011 c
b11001010111001 U*
#183
0"
b10000000000000000000001111101100 #
b101110000010000000100011 c
b11001010111010 U*
#184
b10000100000010111000001001 /'
#186
b1000000000000000001101110000110000000000000010000010100010000011 E"
b100000001110000001101 '#
#187
b1000000000000000001001110110110000000000000001011010010110000011 E"
b100000001111000001110 '#
b1000000000000000001101110000110000000000000010000010100010000011 g#
b1000100000001110000001101 I$
b100000100000010111000001001 /'
#188
b0 E"
b0 '#
b0 g#
b0 I$
b1000000000000000001101110000110000000000000010000010100010000011 +%
b100000001110000001101 k%
b1000000000000000010001101011000000000000101110000010000000100011 o'
b1000100000010111000001001 Q(
#189
1"
b1000000000000000001001110110110000000000000001011010010110000011 g#
b1000100000001111000001110 I$
b0 +%
b0 k%
b1000000000000000001101110000110000000000000010000010100010000011 o'
b1000100000001110000001101 Q(
#190
b10000000000000000000001111110000 #
b11111110101001100001000011100011 c
b0 g#
b0 I$
b1000000000000000001001110110110000000000000001011010010110000011 +%
b100000001111000001110 k%
b0 M&
b0 /'
b0 o'
b0 Q(
b11001010111011 U*
#191
b10000000000000000000001111010000 #
b110001101000100000110011 c
b0 +%
b0 k%
b1000000000000000001001110110110000000000000001011010010110000011 o'
b1000100000001111000001110 Q(
b11001010111100 U*
#192
b10000000000000000000001111010100 #
b110001110000010110110011 c
b0 o'
b0 Q(
b11001010111101 U*
#193
b10000000000000000000001111011000 #
b10000010100010000011 c
b11001010111110 U*
#194
b10000000000000000000001111011100 #
b1011010010110000011 c
b11001010111111 U*
#195
b10000000000000000000001111100000 #
b110001111000100000110011 c
b11001011000000 U*
#196
b10000000000000000000001111100100 #
b10001100000011000010011 c
b11001011000001 U*
#197
b10000000000000000000001111101000 #
b1000101011000010110111011 c
b1000000000000000010001101011010000000000101110000010000000100011 E"
b100000010011000000010 '#
b11001011000010 U*
#198
0"
b10000000000000000000001111101100 #
b101110000010000000100011 c
b0 E"
b0 '#
b1000000000000000010001101011010000000000101110000010000000100011 g#
b100000010011000000010 I$
b11001011000011 U*
#199
b0 g#
b0 I$
b1000000000000000010001101011010000000000101110000010000000100011 M&
b100000010011000000010 /'
#200
b1000100000010011000000010 /'
#201
b10000100000010011000000010 /'
#204
b100000100000010011000000010 /'
#205
b1000000000000000010001101011010000000000101110000010000000100011 o'
b1000100000010011000000010 Q(
#206
1"
b0 o'
b0 Q(
#207
b10000000000000000000001111110000 #
b11111110101001100001000011100011 c
b0 M&
b0 /'
b11001011000100 U*
#208
0"
b10000000000000000000001111110100 #
b1000000001100111 c
b11001011000101 U*
#213
b10000000000000000000001111010000 #
b110001101000100000110011 c
#218
1"
#219
b10000000000000000000001111010100 #
b110001110000010110110011 c
b1000000000000000001101110001000000000000000010000010100010000011 E"
b100000001010000000110 '#
b11001011000110 U*
#220
0"
b10000000000000000000001111011000 #
b10000010100010000011 c
b1000000000000000001001110111000000000000000001011010010110000011 E"
b100000001100000000111 '#
b1000000000000000001101110001000000000000000010000010100010000011 g#
b1000100000001010000000110 I$
b11001011000111 U*
#221
b0 E"
b0 '#
b0 g#
b0 I$
b1000000000000000001101110001000000000000000010000010100010000011 +%
b100000001010000000110 k%
#222
b1000000000000000001001110111000000000000000001011010010110000011 g#
b1000100000001100000000111 I$
b0 +%
b0 k%
b1000000000000000001101110001000000000000000010000010100010000011 o'
b1000100000001010000000110 Q(
#223
1"
b0 g#
b0 I$
b1000000000000000001001110111000000000000000001011010010110000011 +%
b100000001100000000111 k%
b0 o'
b0 Q(
#224
0"
b10000000000000000000001111011100 #
b1011010010110000011 c
b1000000000000000010001101011100000000000101110000010000000100011 E"
b100000010011000001011 '#
b0 +%
b0 k%
b1000000000000000001001110111000000000000000001011010010110000011 o'
b1000100000001100000000111 Q(
b11001011001000 U*
#225
b0 E"
b0 '#
b1000000000000000010001101011100000000000101110000010000000100011 g#
b100000010011000001011 I$
b0 o'
b0 Q(
#226
1"
b0 g#
b0 I$
b1000000000000000010001101011100000000000101110000010000000100011 M&
b100000010011000001011 /'
#227
b10000000000000000000001111100000 #
b110001111000100000110011 c
b1000100000010011000001011 /'
b11001011001001 U*
#228
b10000000000000000000001111100100 #
b10001100000011000010011 c
b11001011001010 U*
#229
0"
b10000000000000000000001111101000 #
b1000101011000010110111011 c
b11001011001011 U*
#230
1"
#231
0"
b10000000000000000000001111101100 #
b101110000010000000100011 c
b11001011001100 U*
#232
b10000100000010011000001011 /'
#235
b100000100000010011000001011 /'
#236
b1000000000000000010001101011100000000000101110000010000000100011 o'
b1000100000010011000001011 Q(
#237
1"
b0 o'
b0 Q(
#238
b10000000000000000000001111110000 #
b11111110101001100001000011100011 c
b0 M&
b0 /'
b11001011001101 U*
#239
0"
b10000000000000000000001111010000 #
b110001101000100000110011 c
b11001011001110 U*
#244
1"
#245
b10000000000000000000001111010100 #
b110001110000010110110011 c
b1000000000000000001101110001010000000000000010000010100010000011 E"
b100000000100100001111 '#
b11001011001111 U*
#246
0"
b10000000000000000000001111011000 #
b10000010100010000011 c
b1000000000000000001001110111010000000000000001011010010110000011 E"
b100000001100000000000 '#
b1000000000000000001101110001010000000000000010000010100010000011 g#
b1000100000000100100001111 I$
b11001011010000 U*
#247
b0 E"
b0 '#
b0 g#
b0 I$
b1000000000000000001101110001010000000000000010000010100010000011 +%
b100000000100100001111 k%
#248
b1000000000000000001001110111010000000000000001011010010110000011 g#
b1000100000001100000000000 I$
b0 +%
b0 k%
b1000000000000000001101110001010000000000000010000010100010000011 o'
b1000100000000100100001111 Q(
#249
1"
b0 g#
b0 I$
b1000000000000000001001110111010000000000000001011010010110000011 +%
b100000001100000000000 k%
b0 o'
b0 Q(
#250
0"
b10000000000000000000001111011100 #
b1011010010110000011 c
b1000000000000000010001101011110000000000101110000010000000100011 E"
b100000010011000000100 '#
b0 +%
b0 k%
b1000000000000000001001110111010000000000000001011010010110000011 o'
b1000100000001100000000000 Q(
b11001011010001 U*
#251
b0 E"
b0 '#
b1000000000000000010001101011110000000000101110000010000000100011 g#
b100000010011000000100 I$
b0 o'
b0 Q(
#252
1"
b0 g#
b0 I$
b1000000000000000010001101011110000000000101110000010000000100011 M&
b100000010011000000100 /'
#253
b10000000000000000000001111100000 #
b110001111000100000110011 c
b1000100000010011000000100 /'
b11001011010010 U*
#254
b10000000000000000000001111100100 #
b10001100000011000010011 c
b11001011010011 U*
#255
0"
b10000000000000000000001111101000 #
b1000101011000010110111011 c
b11001011010100 U*
#256
1"
#257
0"
b10000000000000000000001111101100 #
b101110000010000000100011 c
b11001011010101 U*
#258
b10000100000010011000000100 /'
#261
b100000100000010011000000100 /'
#262
b1000000000000000010001101011110000000000101110000010000000100011 o'
b1000100000010011000000100 Q(
#263
1"
b0 o'
b0 Q(
#264
b10000000000000000000001111110000 #
b11111110101001100001000011100011 c
b0 M&
b0 /'
b11001011010110 U*
#265
0"
b10000000000000000000001111010000 #
b110001101000100000110011 c
b11001011010111 U*
#270
1"
#271
b10000000000000000000001111010100 #
b110001110000010110110011 c
b1000000000000000001101110001100000000000000010000010100010000011 E"
b100000001010000001000 '#
b11001011011000 U*
#272
0"
b10000000000000000000001111011000 #
b10000010100010000011 c
b1000000000000000001001110111100000000000000001011010010110000011 E"
b100000001100000001001 '#
b1000000000000000001101110001100000000000000010000010100010000011 g#
b1000100000001010000001000 I$
b11001011011001 U*
#273
b0 E"
b0 '#
b0 g#
b0 I$
b1000000000000000001101110001100000000000000010000010100010000011 +%
b100000001010000001000 k%
#274
b1000000000000000001001110111100000000000000001011010010110000011 g#
b1000100000001100000001001 I$
b0 +%
b0 k%
b1000000000000000001101110001100000000000000010000010100010000011 o'
b1000100000001010000001000 Q(
#275
1"
b0 g#
b0 I$
b1000000000000000001001110111100000000000000001011010010110000011 +%
b100000001100000001001 k%
b0 o'
b0 Q(
#276
0"
b10000000000000000000001111011100 #
b1011010010110000011 c
b1000000000000000010001101100000000000000101110000010000000100011 E"
b100000010011000001101 '#
b0 +%
b0 k%
b1000000000000000001001110111100000000000000001011010010110000011 o'
b1000100000001100000001001 Q(
b11001011011010 U*
#277
b0 E"
b0 '#
b1000000000000000010001101100000000000000101110000010000000100011 g#
b100000010011000001101 I$
b0 o'
b0 Q(
#278
1"
b0 g#
b0 I$
b1000000000000000010001101100000000000000101110000010000000100011 M&
b100000010011000001101 /'
#279
b10000000000000000000001111100000 #
b110001111000100000110011 c
b1000100000010011000001101 /'
b11001011011011 U*
#280
b10000000000000000000001111100100 #
b10001100000011000010011 c
b11001011011100 U*
#281
0"
b10000000000000000000001111101000 #
b1000101011000010110111011 c
b11001011011101 U*
#282
1"
#283
0"
b10000000000000000000001111101100 #
b101110000010000000100011 c
b11001011011110 U*
#284
b10000100000010011000001101 /'
#287
b100000100000010011000001101 /'
#288
b1000000000000000010001101100000000000000101110000010000000100011 o'
b1000100000010011000001101 Q(
#289
1"
b0 o'
b0 Q(
#290
b10000000000000000000001111110000 #
b11111110101001100001000011100011 c
b0 M&
b0 /'
b11001011011111 U*
#291
0"
b10000000000000000000001111010000 #
b110001101000100000110011 c
b11001011100000 U*
#296
1"
#297
b10000000000000000000001111010100 #
b110001110000010110110011 c
b1000000000000000001101110001110000000000000010000010100010000011 E"
b100000000100100000001 '#
b11001011100001 U*
#298
0"
b10000000000000000000001111011000 #
b10000010100010000011 c
b1000000000000000001001110111110000000000000001011010010110000011 E"
b100000001100000000010 '#
b1000000000000000001101110001110000000000000010000010100010000011 g#
b1000100000000100100000001 I$
b11001011100010 U*
#299
b0 E"
b0 '#
b0 g#
b0 I$
b1000000000000000001101110001110000000000000010000010100010000011 +%
b100000000100100000001 k%
#300
b1000000000000000001001110111110000000000000001011010010110000011 g#
b1000100000001100000000010 I$
b0 +%
b0 k%
b1000000000000000001101110001110000000000000010000010100010000011 o'
b1000100000000100100000001 Q(
#301
1"
b0 g#
b0 I$
b1000000000000000001001110111110000000000000001011010010110000011 +%
b100000001100000000010 k%
b0 o'
b0 Q(
#302
0"
b10000000000000000000001111011100 #
b1011010010110000011 c
b1000000000000000010001101100010000000000101110000010000000100011 E"
b100000010011000000110 '#
b0 +%
b0 k%
b1000000000000000001001110111110000000000000001011010010110000011 o'
b1000100000001100000000010 Q(
b11001011100011 U*
#303
b0 E"
b0 '#
b1000000000000000010001101100010000000000101110000010000000100011 g#
b100000010011000000110 I$
b0 o'
b0 Q(
#304
1"
b0 g#
b0 I$
b1000000000000000010001101100010000000000101110000010000000100011 M&
b100000010011000000110 /'
#305
b10000000000000000000001111100000 #
b110001111000100000110011 c
b1000100000010011000000110 /'
b11001011100100 U*
#306
b10000000000000000000001111100100 #
b10001100000011000010011 c
b11001011100101 U*
#307
0"
b10000000000000000000001111101000 #
b1000101011000010110111011 c
b11001011100110 U*
#308
1"
#309
0"
b10000000000000000000001111101100 #
b101110000010000000100011 c
b11001011100111 U*
#310
b10000100000010011000000110 /'
#313
b100000100000010011000000110 /'
#314
b1000000000000000010001101100010000000000101110000010000000100011 o'
b1000100000010011000000110 Q(
#315
1"
b0 o'
b0 Q(
#316
b10000000000000000000001111110000 #
b11111110101001100001000011100011 c
b0 M&
b0 /'
b11001011101000 U*
#317
0"
b10000000000000000000001111010000 #
b110001101000100000110011 c
b11001011101001 U*
#322
1"
#323
b10000000000000000000001111010100 #
b110001110000010110110011 c
b1000000000000000001101110010000000000000000010000010100010000011 E"
b100000001010000001010 '#
b11001011101010 U*
#324
0"
b10000000000000000000001111011000 #
b10000010100010000011 c
b1000000000000000001001111000000000000000000001011010010110000011 E"
b100000001100000001011 '#
b1000000000000000001101110010000000000000000010000010100010000011 g#
b1000100000001010000001010 I$
b11001011101011 U*
#325
b0 E"
b0 '#
b0 g#
b0 I$
b1000000000000000001101110010000000000000000010000010100010000011 +%
b100000001010000001010 k%
#326
b1000000000000000001001111000000000000000000001011010010110000011 g#
b1000100000001100000001011 I$
b0 +%
b0 k%
b1000000000000000001101110010000000000000000010000010100010000011 o'
b1000100000001010000001010 Q(
#327
1"
b0 g#
b0 I$
b1000000000000000001001111000000000000000000001011010010110000011 +%
b100000001100000001011 k%
b0 o'
b0 Q(
#328
0"
b10000000000000000000001111011100 #
b1011010010110000011 c
b1000000000000000010001101100100000000000101110000010000000100011 E"
b100000010011000001111 '#
b0 +%
b0 k%
b1000000000000000001001111000000000000000000001011010010110000011 o'
b1000100000001100000001011 Q(
b11001011101100 U*
#329
b0 E"
b0 '#
b1000000000000000010001101100100000000000101110000010000000100011 g#
b100000010011000001111 I$
b0 o'
b0 Q(
#330
1"
b0 g#
b0 I$
b1000000000000000010001101100100000000000101110000010000000100011 M&
b100000010011000001111 /'
#331
b10000000000000000000001111100000 #
b110001111000100000110011 c
b1000100000010011000001111 /'
b11001011101101 U*
#332
b10000000000000000000001111100100 #
b10001100000011000010011 c
b11001011101110 U*
#333
0"
b10000000000000000000001111101000 #
b1000101011000010110111011 c
b11001011101111 U*
#334
1"
#335
0"
b10000000000000000000001111101100 #
b101110000010000000100011 c
b11001011110000 U*
#336
b10000100000010011000001111 /'
#339
b100000100000010011000001111 /'
#340
b1000000000000000010001101100100000000000101110000010000000100011 o'
b1000100000010011000001111 Q(
#341
1"
b0 o'
b0 Q(
#342
b10000000000000000000001111110000 #
b11111110101001100001000011100011 c
b0 M&
b0 /'
b11001011110001 U*
#343
0"
b10000000000000000000001111010000 #
b110001101000100000110011 c
b11001011110010 U*
#348
1"
#349
b10000000000000000000001111010100 #
b110001110000010110110011 c
b1000000000000000001101110010010000000000000010000010100010000011 E"
b100000000100100000011 '#
b11001011110011 U*
#350
0"
b10000000000000000000001111011000 #
b10000010100010000011 c
b1000000000000000001001111000010000000000000001011010010110000011 E"
b100000001100000000100 '#
b1000000000000000001101110010010000000000000010000010100010000011 g#
b1000100000000100100000011 I$
b11001011110100 U*
#351
b0 E"
b0 '#
b0 g#
b0 I$
b1000000000000000001101110010010000000000000010000010100010000011 +%
b100000000100100000011 k%
#352
b1000000000000000001001111000010000000000000001011010010110000011 g#
b1000100000001100000000100 I$
b0 +%
b0 k%
b1000000000000000001101110010010000000000000010000010100010000011 o'
b1000100000000100100000011 Q(
#353
1"
b0 g#
b0 I$
b1000000000000000001001111000010000000000000001011010010110000011 +%
b100000001100000000100 k%
b0 o'
b0 Q(
#354
0"
b10000000000000000000001111011100 #
b1011010010110000011 c
b1000000000000000010001101100110000000000101110000010000000100011 E"
b100000010011000001000 '#
b0 +%
b0 k%
b1000000000000000001001111000010000000000000001011010010110000011 o'
b1000100000001100000000100 Q(
b11001011110101 U*
#355
b0 E"
b0 '#
b1000000000000000010001101100110000000000101110000010000000100011 g#
b100000010011000001000 I$
b0 o'
b0 Q(
#356
1"
b0 g#
b0 I$
b1000000000000000010001101100110000000000101110000010000000100011 M&
b100000010011000001000 /'
#357
b10000000000000000000001111100000 #
b110001111000100000110011 c
b1000100000010011000001000 /'
b11001011110110 U*
#358
b10000000000000000000001111100100 #
b10001100000011000010011 c
b11001011110111 U*
#359
0"
b10000000000000000000001111101000 #
b1000101011000010110111011 c
b11001011111000 U*
#360
1"
#361
0"
b10000000000000000000001111101100 #
b101110000010000000100011 c
b11001011111001 U*
#362
b10000100000010011000001000 /'
#365
b100000100000010011000001000 /'
#366
b1000000000000000010001101100110000000000101110000010000000100011 o'
b1000100000010011000001000 Q(
#367
1"
b0 o'
b0 Q(
#368
b10000000000000000000001111110000 #
b11111110101001100001000011100011 c
b0 M&
b0 /'
b11001011111010 U*
#369
0"
b10000000000000000000001111010000 #
b110001101000100000110011 c
b11001011111011 U*
#374
1"
#375
b10000000000000000000001111010100 #
b110001110000010110110011 c
b1000000000000000001101110010100000000000000010000010100010000011 E"
b100000001010000001100 '#
b11001011111100 U*
#376
0"
b10000000000000000000001111011000 #
b10000010100010000011 c
b1000000000000000001001111000100000000000000001011010010110000011 E"
b100000001100000001101 '#
b1000000000000000001101110010100000000000000010000010100010000011 g#
b1000100000001010000001100 I$
b11001011111101 U*
#377
b0 E"
b0 '#
b0 g#
b0 I$
b1000000000000000001101110010100000000000000010000010100010000011 +%
b100000001010000001100 k%
#378
b1000000000000000001001111000100000000000000001011010010110000011 g#
b1000100000001100000001101 I$
b0 +%
b0 k%
b1000000000000000001101110010100000000000000010000010100010000011 o'
b1000100000001010000001100 Q(
#379
1"
b0 g#
b0 I$
b1000000000000000001001111000100000000000000001011010010110000011 +%
b100000001100000001101 k%
b0 o'
b0 Q(
#380
0"
b10000000000000000000001111011100 #
b1011010010110000011 c
b1000000000000000010001101101000000000000101110000010000000100011 E"
b100000010011000000001 '#
b0 +%
b0 k%
b1000000000000000001001111000100000000000000001011010010110000011 o'
b1000100000001100000001101 Q(
b11001011111110 U*
#381
b0 E"
b0 '#
b1000000000000000010001101101000000000000101110000010000000100011 g#
b100000010011000000001 I$
b0 o'
b0 Q(
#382
1"
b0 g#
b0 I$
b1000000000000000010001101101000000000000101110000010000000100011 M&
b100000010011000000001 /'
#383
b10000000000000000000001111100000 #
b110001111000100000110011 c
b1000100000010011000000001 /'
b11001011111111 U*
#384
b10000000000000000000001111100100 #
b10001100000011000010011 c
b11001100000000 U*
#385
0"
b10000000000000000000001111101000 #
b1000101011000010110111011 c
b11001100000001 U*
#386
1"
#387
0"
b10000000000000000000001111101100 #
b101110000010000000100011 c
b11001100000010 U*
#388
b10000100000010011000000001 /'
#391
b100000100000010011000000001 /'
#392
b1000000000000000010001101101000000000000101110000010000000100011 o'
b1000100000010011000000001 Q(
#393
1"
b0 o'
b0 Q(
#394
b10000000000000000000001111110000 #
b11111110101001100001000011100011 c
b0 M&
b0 /'
b11001100000011 U*
#395
0"
b10000000000000000000001111010000 #
b110001101000100000110011 c
b11001100000100 U*
#400
1"
#401
b10000000000000000000001111010100 #
b110001110000010110110011 c
b1000000000000000001101110010110000000000000010000010100010000011 E"
b100000000100100000101 '#
b11001100000101 U*
#402
0"
b10000000000000000000001111011000 #
b10000010100010000011 c
b1000000000000000001001111000110000000000000001011010010110000011 E"
b100000001100000000110 '#
b1000000000000000001101110010110000000000000010000010100010000011 g#
b1000100000000100100000101 I$
b11001100000110 U*
#403
b0 E"
b0 '#
b0 g#
b0 I$
b1000000000000000001101110010110000000000000010000010100010000011 +%
b100000000100100000101 k%
#404
b1000000000000000001001111000110000000000000001011010010110000011 g#
b1000100000001100000000110 I$
b0 +%
b0 k%
b1000000000000000001101110010110000000000000010000010100010000011 o'
b1000100000000100100000101 Q(
#405
1"
b0 g#
b0 I$
b1000000000000000001001111000110000000000000001011010010110000011 +%
b100000001100000000110 k%
b0 o'
b0 Q(
#406
0"
b10000000000000000000001111011100 #
b1011010010110000011 c
b1000000000000000010001101101010000000000101110000010000000100011 E"
b100000010011000001010 '#
b0 +%
b0 k%
b1000000000000000001001111000110000000000000001011010010110000011 o'
b1000100000001100000000110 Q(
b11001100000111 U*
#407
b0 E"
b0 '#
b1000000000000000010001101101010000000000101110000010000000100011 g#
b100000010011000001010 I$
b0 o'
b0 Q(
#408
1"
b0 g#
b0 I$
b1000000000000000010001101101010000000000101110000010000000100011 M&
b100000010011000001010 /'
#409
b10000000000000000000001111100000 #
b110001111000100000110011 c
b1000100000010011000001010 /'
b11001100001000 U*
#410
b10000000000000000000001111100100 #
b10001100000011000010011 c
b11001100001001 U*
#411
0"
b10000000000000000000001111101000 #
b1000101011000010110111011 c
b11001100001010 U*
#412
1"
#413
0"
b10000000000000000000001111101100 #
b101110000010000000100011 c
b11001100001011 U*
#414
b10000100000010011000001010 /'
#417
b100000100000010011000001010 /'
#418
b1000000000000000010001101101010000000000101110000010000000100011 o'
b1000100000010011000001010 Q(
#419
1"
b0 o'
b0 Q(
#420
b10000000000000000000001111110000 #
b11111110101001100001000011100011 c
b0 M&
b0 /'
b11001100001100 U*
#421
0"
b10000000000000000000001111010000 #
b110001101000100000110011 c
b11001100001101 U*
#426
1"
#427
b10000000000000000000001111010100 #
b110001110000010110110011 c
b1000000000000000001101110011000000000000000010000010100010000011 E"
b100000001010000001110 '#
b11001100001110 U*
#428
0"
b10000000000000000000001111011000 #
b10000010100010000011 c
b1000000000000000001001111001000000000000000001011010010110000011 E"
b100000001100000001111 '#
b1000000000000000001101110011000000000000000010000010100010000011 g#
b1000100000001010000001110 I$
b11001100001111 U*
#429
b0 E"
b0 '#
b0 g#
b0 I$
b1000000000000000001101110011000000000000000010000010100010000011 +%
b100000001010000001110 k%
#430
b1000000000000000001001111001000000000000000001011010010110000011 g#
b1000100000001100000001111 I$
b0 +%
b0 k%
b1000000000000000001101110011000000000000000010000010100010000011 o'
b1000100000001010000001110 Q(
#431
1"
b0 g#
b0 I$
b1000000000000000001001111001000000000000000001011010010110000011 +%
b100000001100000001111 k%
b0 o'
b0 Q(
#432
0"
b10000000000000000000001111011100 #
b1011010010110000011 c
b1000000000000000010001101101100000000000101110000010000000100011 E"
b100000010011000000011 '#
b0 +%
b0 k%
b1000000000000000001001111001000000000000000001011010010110000011 o'
b1000100000001100000001111 Q(
b11001100010000 U*
#433
b0 E"
b0 '#
b1000000000000000010001101101100000000000101110000010000000100011 g#
b100000010011000000011 I$
b0 o'
b0 Q(
#434
1"
b0 g#
b0 I$
b1000000000000000010001101101100000000000101110000010000000100011 M&
b100000010011000000011 /'
#435
b10000000000000000000001111100000 #
b110001111000100000110011 c
b1000100000010011000000011 /'
b11001100010001 U*
#436
b10000000000000000000001111100100 #
b10001100000011000010011 c
b11001100010010 U*
#437
0"
b10000000000000000000001111101000 #
b1000101011000010110111011 c
b11001100010011 U*
#438
1"
