test_reg3.vcd
$date
        2025-Apr-25 09:08:44
$end
$version
        Vivado v2024.2 (64-bit)
$end
$timescale
        1ps
$end
$scope module dut $end
$var reg 1 " design_1_i/soc10_0_robOut_commitFired_1 $end
$var reg 64 # design_1_i/soc10_0_robOut_pc_1 [63:0] $end
$var reg 64 c design_1_i/soc10_0_robOut_instruction_1 [63:0] $end
$var reg 64 E" design_1_i/soc12_0_r10 [63:0] $end
$var reg 64 '# design_1_i/soc12_0_r13 [63:0] $end
$var reg 64 g# design_1_i/soc12_0_r14 [63:0] $end
$var reg 64 I$ design_1_i/soc12_0_r15 [63:0] $end
$var reg 32 +% design_1_i/counter_1_0_count_out_1 [31:0] $end
$var reg 1 K% _TRIGGER $end
$var reg 1 L% _WINDOW $end
$var reg 1 M% _GAP $end
$upscope $end
$enddefinitions $end
#0
$dumpvars
0"
b10000000000000000000001001100000 #
b100010011100000011 c
b1 E"
b10000000000000000010100100010000 '#
b10000000000000000001100101110000 g#
b10000000000000000011100010111000 I$
b11001100110111 +%
0K%
1L%
0M%
$end
#38
1"
#39
b10000000000000000000001001100100 #
b100000000011010010011 c
b10100111001001100100 g#
b11001100111000 +%
#40
0"
b10000000000000000000001001101000 #
b101110011011100010011 c
b11001100111001 +%
#41
b1 '#
#43
1"
#44
0"
b10000000000000000000001001101100 #
b111000100010000000100011 c
b11001100111010 +%
#45
b0 g#
#50
1"
#51
b10000000000000000000001001110000 #
b100011100010111 c
b11001100111011 +%
#52
b10000000000000000000001001110100 #
b1011110100001110000011100010011 c
b10000000000000000100001001110000 g#
b11001100111100 +%
#53
0"
b10000000000000000000001001111000 #
b110110101110010011100101111 c
b11001100111101 +%
#54
b10000000000000000100100001011000 g#
#60
1"
#61
b10000000000000000000001001111100 #
b1110000011100011011 c
b0 g#
b11001100111110 +%
#62
b10000000000000000000001010000000 #
b11111111111101010000010100011011 c
b11001100111111 +%
#63
b10000000000000000000001010000100 #
b10111001010000000001100011 c
b0 E"
b11001101000000 +%
#64
0"
b10000000000000000000001010001000 #
b100010011010000011 c
b11001101000001 +%
#153
b10000000000000000000001010100100 #
b100010011110000011 c
#163
1"
#164
b10000000000000000000001010101000 #
b100011100010111 c
b0 I$
b11001101000010 +%
#165
0"
b10000000000000000000001010101100 #
b1011010000001110010100000100011 c
b11001101000011 +%
#166
b10000000000000000100001010101000 g#
#171
1"
#172
b10000000000000000000001010110000 #
b100011100010111 c
b11001101000100 +%
#173
0"
b10000000000000000000001010110100 #
b1011010111101110010011000100011 c
b11001101000101 +%
#174
b10000000000000000100001010110000 g#
#179
1"
#180
b10000000000000000000001010111000 #
b11111110010111111111000001101111 c
b11001101000110 +%
#181
0"
b10000000000000000000001010111100 #
b100011110010111 c
b11001101000111 +%
#245
1"
b10000000000000000000001010011100 #
b1111111100000000000000001111 c
#246
0"
b10000000000000000000001001100100 #
b100000000011010010011 c
b11001101001000 +%
#333
b10000000000000000000001010100000 #
b1000000001100111 c
#338
1"
#339
0"
b10000000000000000000001010100100 #
b100010011110000011 c
b11001101001001 +%
#505
b10000000000000000000001100101100 #
b1000000011001100011 c
#510
1"
#511
0"
b10000000000000000000001100110000 #
b1000000000010100010011 c
b11001101001010 +%
#597
1"
b10000000000000000000001100111000 #
b10100010111 c
#598
0"
b10000000000000000000001100111100 #
b1100011000001010000010100010011 c
b11001101001011 +%
#599
b10000000000000000000001100111000 E"
#604
1"
#605
b10000000000000000000001101000000 #
b11010010000000000000011101111 c
b10000000000000000000100101101000 E"
b11001101001100 +%
#606
0"
b10000000000000000000001101000100 #
b11011100010111 c
b11001101001101 +%
#693
b10000000000000000000010011100100 #
b1010100011010000011 c
#851
1"
#852
0"
b10000000000000000000010011101000 #
b10000001101000101001100011 c
b11001101001110 +%
#853
b1010100 '#
#856
1"
#857
b10000000000000000000010011101100 #
b1000000011000000000011100110111 c
b11001101001111 +%
#858
b10000000000000000000010011110000 #
b1000000011000000000011000110111 c
b1000000011000000000000000000000 g#
b11001101010000 +%
#859
b10000000000000000000010011110100 #
b100001110000011100010011 c
b11001101010001 +%
#860
b10000000000000000000010011111000 #
b10001100000011000010011 c
b1000000011000000000000000001000 g#
b11001101010010 +%
#861
b10000000000000000000010011111100 #
b101010000010100010011 c
b11001101010011 +%
#862
0"
b10000000000000000000010100000000 #
b1110010011110000011 c
b11001101010100 +%
#863
b10000000000000000000100101101001 E"
#898
1"
#899
0"
b10000000000000000000010100000100 #
b100001111111011110010011 c
b11001101010101 +%
#900
b100 I$
#903
1"
#904
b10000000000000000000010100001000 #
b11111110000001111001110011100011 c
b0 I$
b11001101010110 +%
#905
b10000000000000000000010100001100 #
b1101000011010011011 c
b11001101010111 +%
#906
0"
b10000000000000000000010100010000 #
b110101100010000000100011 c
b11001101011000 +%
#915
1"
#916
0"
b10000000000000000000010100010100 #
b1010100011010000011 c
b11001101011001 +%
#923
1"
#924
0"
b10000000000000000000010100011000 #
b11111110000001101001001011100011 c
b11001101011010 +%
#925
b1101000 '#
#928
1"
#929
0"
b10000000000000000000010100011100 #
b1000000001100111 c
b11001101011011 +%
#1018
b10000000000000000000010011111100 #
b101010000010100010011 c
#1023
1"
#1024
0"
b10000000000000000000010100000000 #
b1110010011110000011 c
b11001101011100 +%
1K%
#1025
b10000000000000000000100101101010 E"
