test_uart2.vcd
$date
        2025-Apr-24 19:55:25
$end
$version
        Vivado v2024.2 (64-bit)
$end
$timescale
        1ps
$end
$scope module dut $end
$var reg 64 " design_1_i/soc12_0_registersOut_0 [63:0] $end
$var reg 64 b design_1_i/soc12_0_registersOut_1 [63:0] $end
$var reg 64 D" design_1_i/soc12_0_registersOut_2 [63:0] $end
$var reg 64 &# design_1_i/soc12_0_registersOut_3 [63:0] $end
$var reg 64 f# design_1_i/soc12_0_registersOut_4 [63:0] $end
$var reg 64 H$ design_1_i/soc12_0_registersOut_5 [63:0] $end
$var reg 64 *% design_1_i/soc12_0_registersOut_6 [63:0] $end
$var reg 64 j% design_1_i/soc12_0_registersOut_7 [63:0] $end
$var reg 64 L& design_1_i/soc12_0_registersOut_8 [63:0] $end
$var reg 64 .' design_1_i/soc12_0_registersOut_9 [63:0] $end
$var reg 64 n' design_1_i/soc12_0_registersOut_10 [63:0] $end
$var reg 64 P( design_1_i/soc12_0_registersOut_11 [63:0] $end
$var reg 64 2) design_1_i/soc12_0_registersOut_12 [63:0] $end
$var reg 64 r) design_1_i/soc12_0_registersOut_13 [63:0] $end
$var reg 64 T* design_1_i/soc12_0_registersOut_14 [63:0] $end
$var reg 64 6+ design_1_i/soc12_0_registersOut_15 [63:0] $end
$var reg 64 v+ design_1_i/soc12_0_registersOut_16 [63:0] $end
$var reg 64 X, design_1_i/soc12_0_registersOut_17 [63:0] $end
$var reg 64 :- design_1_i/soc12_0_registersOut_18 [63:0] $end
$var reg 64 z- design_1_i/soc12_0_registersOut_19 [63:0] $end
$var reg 64 \. design_1_i/soc12_0_registersOut_20 [63:0] $end
$var reg 64 >/ design_1_i/soc12_0_registersOut_21 [63:0] $end
$var reg 64 ~/ design_1_i/soc12_0_registersOut_22 [63:0] $end
$var reg 64 `0 design_1_i/soc12_0_registersOut_23 [63:0] $end
$var reg 64 B1 design_1_i/soc12_0_registersOut_24 [63:0] $end
$var reg 64 $2 design_1_i/soc12_0_registersOut_25 [63:0] $end
$var reg 64 d2 design_1_i/soc12_0_registersOut_26 [63:0] $end
$var reg 64 F3 design_1_i/soc12_0_registersOut_27 [63:0] $end
$var reg 64 (4 design_1_i/soc12_0_registersOut_28 [63:0] $end
$var reg 64 h4 design_1_i/soc12_0_registersOut_29 [63:0] $end
$var reg 64 J5 design_1_i/soc12_0_registersOut_30 [63:0] $end
$var reg 64 ,6 design_1_i/soc12_0_registersOut_31 [63:0] $end
$var reg 64 l6 design_1_i/soc12_0_registersOut_32 [63:0] $end
$var reg 1 N7 design_1_i/soc1_0_robOut_commitFired_1 $end
$var reg 64 O7 design_1_i/soc7_0_robOut_pc_1 [63:0] $end
$var reg 64 18 design_1_i/soc7_0_robOut_instruction_1 [63:0] $end
$var reg 32 q8 design_1_i/counter_1_0_count_out_1 [31:0] $end
$var reg 1 39 _TRIGGER $end
$var reg 1 49 _WINDOW $end
$var reg 1 59 _GAP $end
$upscope $end
$enddefinitions $end
#0
$dumpvars
b0 "
b10000000000000000000001100101100 b
b10000000000001111111111111100000 D"
b0 &#
b10000000000001000000000000000000 f#
b0 H$
b1111101000 *%
b1000000000000000000 j%
b0 L&
b1 .'
b1 n'
b10110101011 P(
b111110100000 2)
b10000000000000000010100100010000 r)
b10000000000000000001100101110000 T*
b10000000000000000011100010111000 6+
b10000000000000000100100001010100 v+
b1010110011 X,
b0 :-
b0 z-
b0 \.
b0 >/
b0 ~/
b0 `0
b0 B1
b0 $2
b0 d2
b0 F3
b1 (4
b0 h4
b10000000000000000100100001011000 J5
b10000000000000000100100001011000 ,6
b101000000000000000000000000000000000 l6
0N7
b10000000000000000000001100101100 O7
b1000000011001100011 18
b11001100111000 q8
039
149
059
$end
#59
1N7
b10000000000000000000001001011100 O7
b1111111100000000000000001111 18
#60
0N7
b10000000000000000000001100110000 O7
b1000000000010100010011 18
b11001100111001 q8
#146
b10000000000000000000001001100000 O7
b100010011100000011 18
#304
1N7
#305
b10100111001001100100 T*
b10000000000000000000001001100100 O7
b100000000011010010011 18
b11001100111010 q8
#306
0N7
b10000000000000000000001001101000 O7
b101110011011100010011 18
b11001100111011 q8
#307
b1 r)
#309
1N7
#310
0N7
b10000000000000000000001001101100 O7
b111000100010000000100011 18
b11001100111100 q8
#311
b0 T*
#316
1N7
#317
b10000000000000000000001001110000 O7
b100011100010111 18
b11001100111101 q8
#318
b10000000000000000100001001110000 T*
b10000000000000000000001001110100 O7
b1011110100001110000011100010011 18
b11001100111110 q8
#319
0N7
b10000000000000000000001001111000 O7
b110110101110010011100101111 18
b11001100111111 q8
#320
b10000000000000000100100001011000 T*
#326
1N7
#327
b0 T*
b10000000000000000000001001111100 O7
b1110000011100011011 18
b11001101000000 q8
#328
b10000000000000000000001010000000 O7
b11111111111101010000010100011011 18
b11001101000001 q8
#329
b0 n'
b10000000000000000000001010000100 O7
b10111001010000000001100011 18
b11001101000010 q8
#330
0N7
b10000000000000000000001010001000 O7
b100010011010000011 18
b11001101000011 q8
#419
b10000000000000000000001010100100 O7
b100010011110000011 18
#429
1N7
#430
b0 6+
b10000000000000000000001010101000 O7
b100011100010111 18
b11001101000100 q8
#431
0N7
b10000000000000000000001010101100 O7
b1011010000001110010100000100011 18
b11001101000101 q8
#432
b10000000000000000100001010101000 T*
#437
1N7
#438
b10000000000000000000001010110000 O7
b100011100010111 18
b11001101000110 q8
#439
0N7
b10000000000000000000001010110100 O7
b1011010111101110010011000100011 18
b11001101000111 q8
#440
b10000000000000000100001010110000 T*
#445
1N7
#446
b10000000000000000000001010111000 O7
b11111110010111111111000001101111 18
b11001101001000 q8
#447
0N7
b10000000000000000000001010111100 O7
b100011110010111 18
b11001101001001 q8
#511
1N7
b10000000000000000000001010011100 O7
b1111111100000000000000001111 18
#512
0N7
b10000000000000000000001001100100 O7
b100000000011010010011 18
b11001101001010 q8
139
#599
b10000000000000000000001010100000 O7
b1000000001100111 18
#604
1N7
#605
0N7
b10000000000000000000001010100100 O7
b100010011110000011 18
b11001101001011 q8
#782
b10000000000000000000001100101100 O7
b1000000011001100011 18
#787
1N7
#788
0N7
b10000000000000000000001100110000 O7
b1000000000010100010011 18
b11001101001100 q8
#874
1N7
b10000000000000000000001100111000 O7
b10100010111 18
#875
0N7
b10000000000000000000001100111100 O7
b1100011000001010000010100010011 18
b11001101001101 q8
#876
b10000000000000000000001100111000 n'
#881
1N7
#882
b10000000000000000000100101101000 n'
b10000000000000000000001101000000 O7
b11010010000000000000011101111 18
b11001101001110 q8
#883
0N7
b10000000000000000000001101000100 O7
b11011100010111 18
b11001101001111 q8
#884
b10000000000000000000001101000100 b
#970
b10000000000000000000010011100100 O7
b1010100011010000011 18
