test6.vcd
$date
        2025-Apr-22 07:28:24
$end
$version
        Vivado v2024.2 (64-bit)
$end
$timescale
        1ps
$end
$scope module dut $end
$var reg 64 " design_1_i/soc7_0_registersOut_0 [63:0] $end
$var reg 64 b design_1_i/soc7_0_registersOut_1 [63:0] $end
$var reg 64 D" design_1_i/soc7_0_registersOut_2 [63:0] $end
$var reg 64 &# design_1_i/soc7_0_registersOut_3 [63:0] $end
$var reg 64 f# design_1_i/soc7_0_registersOut_4 [63:0] $end
$var reg 64 H$ design_1_i/soc7_0_registersOut_5 [63:0] $end
$var reg 64 *% design_1_i/soc7_0_registersOut_6 [63:0] $end
$var reg 64 j% design_1_i/soc7_0_registersOut_7 [63:0] $end
$var reg 64 L& design_1_i/soc7_0_registersOut_8 [63:0] $end
$var reg 64 .' design_1_i/soc7_0_registersOut_9 [63:0] $end
$var reg 64 n' design_1_i/soc7_0_registersOut_10 [63:0] $end
$var reg 64 P( design_1_i/soc7_0_registersOut_11 [63:0] $end
$var reg 64 2) design_1_i/soc7_0_registersOut_12 [63:0] $end
$var reg 64 r) design_1_i/soc7_0_registersOut_13 [63:0] $end
$var reg 64 T* design_1_i/soc7_0_registersOut_14 [63:0] $end
$var reg 64 6+ design_1_i/soc7_0_registersOut_15 [63:0] $end
$var reg 64 v+ design_1_i/soc7_0_registersOut_16 [63:0] $end
$var reg 64 X, design_1_i/soc7_0_registersOut_17 [63:0] $end
$var reg 64 :- design_1_i/soc7_0_registersOut_18 [63:0] $end
$var reg 64 z- design_1_i/soc7_0_registersOut_19 [63:0] $end
$var reg 64 \. design_1_i/soc7_0_registersOut_20 [63:0] $end
$var reg 64 >/ design_1_i/soc7_0_registersOut_21 [63:0] $end
$var reg 64 ~/ design_1_i/soc7_0_registersOut_22 [63:0] $end
$var reg 64 `0 design_1_i/soc7_0_registersOut_23 [63:0] $end
$var reg 64 B1 design_1_i/soc7_0_registersOut_24 [63:0] $end
$var reg 64 $2 design_1_i/soc7_0_registersOut_25 [63:0] $end
$var reg 64 d2 design_1_i/soc7_0_registersOut_26 [63:0] $end
$var reg 64 F3 design_1_i/soc7_0_registersOut_27 [63:0] $end
$var reg 64 (4 design_1_i/soc7_0_registersOut_28 [63:0] $end
$var reg 64 h4 design_1_i/soc7_0_registersOut_29 [63:0] $end
$var reg 64 J5 design_1_i/soc7_0_registersOut_30 [63:0] $end
$var reg 64 ,6 design_1_i/soc7_0_registersOut_31 [63:0] $end
$var reg 64 l6 design_1_i/soc7_0_registersOut_32 [63:0] $end
$var reg 1 N7 design_1_i/soc1_0_robOut_commitFired_1 $end
$var reg 64 O7 design_1_i/soc7_0_robOut_pc_1 [63:0] $end
$var reg 64 18 design_1_i/soc7_0_robOut_instruction_1 [63:0] $end
$var reg 32 q8 design_1_i/counter_1_0_count_out_1 [31:0] $end
$var reg 1 39 _TRIGGER $end
$var reg 1 49 _WINDOW $end
$var reg 1 59 _GAP $end
$upscope $end
$enddefinitions $end
#0
$dumpvars
b0 "
b0 b
b0 D"
b0 &#
b0 f#
b0 H$
b0 *%
b0 j%
b0 L&
b0 .'
b0 n'
b0 P(
b0 2)
b0 r)
b0 T*
b0 6+
b0 v+
b0 X,
b0 :-
b0 z-
b0 \.
b0 >/
b0 ~/
b0 `0
b0 B1
b0 $2
b0 d2
b0 F3
b0 (4
b0 h4
b0 J5
b0 ,6
b101000000000000000000000000000000000 l6
0N7
b10000000000000000000001010011100 O7
b1111111100000000000000001111 18
b11001101001010 q8
039
149
059
$end
#29
b10000000000000000000001010010100 O7
b1110010011110000011 18
#38
1N7
#39
0N7
b10000000000000000000001010011000 O7
b11111110110101111001111011100011 18
b11001101001011 q8
#43
1N7
#44
0N7
b10000000000000000000001010011100 O7
b1111111100000000000000001111 18
b11001101001100 q8
#136
b10000000000000000000001010010100 O7
b1110010011110000011 18
#145
1N7
#146
0N7
b10000000000000000000001010011000 O7
b11111110110101111001111011100011 18
b11001101001101 q8
#150
1N7
#151
0N7
b10000000000000000000001010011100 O7
b1111111100000000000000001111 18
b11001101001110 q8
#243
b10000000000000000000001010010100 O7
b1110010011110000011 18
#252
1N7
#253
0N7
b10000000000000000000001010011000 O7
b11111110110101111001111011100011 18
b11001101001111 q8
#257
1N7
#258
0N7
b10000000000000000000001010011100 O7
b1111111100000000000000001111 18
b11001101010000 q8
#350
b10000000000000000000001010010100 O7
b1110010011110000011 18
#359
1N7
#360
0N7
b10000000000000000000001010011000 O7
b11111110110101111001111011100011 18
b11001101010001 q8
#364
1N7
#365
0N7
b10000000000000000000001010011100 O7
b1111111100000000000000001111 18
b11001101010010 q8
#457
b10000000000000000000001010010100 O7
b1110010011110000011 18
#466
1N7
#467
0N7
b10000000000000000000001010011000 O7
b11111110110101111001111011100011 18
b11001101010011 q8
#471
1N7
#472
0N7
b10000000000000000000001010010100 O7
b1110010011110000011 18
b11001101010100 q8
#474
1N7
#475
0N7
b10000000000000000000001010011000 O7
b11111110110101111001111011100011 18
b11001101010101 q8
#479
1N7
#480
0N7
b10000000000000000000001010010100 O7
b1110010011110000011 18
b11001101010110 q8
#482
1N7
#483
0N7
b10000000000000000000001010011000 O7
b11111110110101111001111011100011 18
b11001101010111 q8
#487
1N7
#488
0N7
b10000000000000000000001010010100 O7
b1110010011110000011 18
b11001101011000 q8
#490
1N7
#491
0N7
b10000000000000000000001010011000 O7
b11111110110101111001111011100011 18
b11001101011001 q8
#495
1N7
#496
0N7
b10000000000000000000001010010100 O7
b1110010011110000011 18
b11001101011010 q8
#498
1N7
#499
0N7
b10000000000000000000001010011000 O7
b11111110110101111001111011100011 18
b11001101011011 q8
#503
1N7
#504
0N7
b10000000000000000000001010010100 O7
b1110010011110000011 18
b11001101011100 q8
#506
1N7
#507
0N7
b10000000000000000000001010011000 O7
b11111110110101111001111011100011 18
b11001101011101 q8
#511
1N7
#512
0N7
b10000000000000000000001010010100 O7
b1110010011110000011 18
b11001101011110 q8
139
#514
1N7
#515
0N7
b10000000000000000000001010011000 O7
b11111110110101111001111011100011 18
b11001101011111 q8
#519
1N7
#520
0N7
b10000000000000000000001010010100 O7
b1110010011110000011 18
b11001101100000 q8
#522
1N7
#523
0N7
b10000000000000000000001010011000 O7
b11111110110101111001111011100011 18
b11001101100001 q8
#527
1N7
#528
0N7
b10000000000000000000001010010100 O7
b1110010011110000011 18
b11001101100010 q8
#530
1N7
#531
0N7
b10000000000000000000001010011000 O7
b11111110110101111001111011100011 18
b11001101100011 q8
#535
1N7
#536
0N7
b10000000000000000000001010010100 O7
b1110010011110000011 18
b11001101100100 q8
#538
1N7
#539
0N7
b10000000000000000000001010011000 O7
b11111110110101111001111011100011 18
b11001101100101 q8
#543
1N7
#544
0N7
b10000000000000000000001010010100 O7
b1110010011110000011 18
b11001101100110 q8
#546
1N7
#547
0N7
b10000000000000000000001010011000 O7
b11111110110101111001111011100011 18
b11001101100111 q8
#551
1N7
#552
0N7
b10000000000000000000001010010100 O7
b1110010011110000011 18
b11001101101000 q8
#554
1N7
#555
0N7
b10000000000000000000001010011000 O7
b11111110110101111001111011100011 18
b11001101101001 q8
#559
1N7
#560
0N7
b10000000000000000000001010010100 O7
b1110010011110000011 18
b11001101101010 q8
#562
1N7
#563
0N7
b10000000000000000000001010011000 O7
b11111110110101111001111011100011 18
b11001101101011 q8
#567
1N7
#568
0N7
b10000000000000000000001010010100 O7
b1110010011110000011 18
b11001101101100 q8
#570
1N7
#571
0N7
b10000000000000000000001010011000 O7
b11111110110101111001111011100011 18
b11001101101101 q8
#575
1N7
#576
0N7
b10000000000000000000001010010100 O7
b1110010011110000011 18
b11001101101110 q8
#578
1N7
#579
0N7
b10000000000000000000001010011000 O7
b11111110110101111001111011100011 18
b11001101101111 q8
#583
1N7
#584
0N7
b10000000000000000000001010010100 O7
b1110010011110000011 18
b11001101110000 q8
#586
1N7
#587
0N7
b10000000000000000000001010011000 O7
b11111110110101111001111011100011 18
b11001101110001 q8
#591
1N7
#592
0N7
b10000000000000000000001010010100 O7
b1110010011110000011 18
b11001101110010 q8
#594
1N7
#595
0N7
b10000000000000000000001010011000 O7
b11111110110101111001111011100011 18
b11001101110011 q8
#599
1N7
#600
0N7
b10000000000000000000001010010100 O7
b1110010011110000011 18
b11001101110100 q8
#602
1N7
#603
0N7
b10000000000000000000001010011000 O7
b11111110110101111001111011100011 18
b11001101110101 q8
#607
1N7
#608
0N7
b10000000000000000000001010010100 O7
b1110010011110000011 18
b11001101110110 q8
#610
1N7
#611
0N7
b10000000000000000000001010011000 O7
b11111110110101111001111011100011 18
b11001101110111 q8
#615
1N7
#616
0N7
b10000000000000000000001010010100 O7
b1110010011110000011 18
b11001101111000 q8
#618
1N7
#619
0N7
b10000000000000000000001010011000 O7
b11111110110101111001111011100011 18
b11001101111001 q8
#623
1N7
#624
0N7
b10000000000000000000001010010100 O7
b1110010011110000011 18
b11001101111010 q8
#626
1N7
#627
0N7
b10000000000000000000001010011000 O7
b11111110110101111001111011100011 18
b11001101111011 q8
#631
1N7
#632
0N7
b10000000000000000000001010010100 O7
b1110010011110000011 18
b11001101111100 q8
#634
1N7
#635
0N7
b10000000000000000000001010011000 O7
b11111110110101111001111011100011 18
b11001101111101 q8
#639
1N7
#640
0N7
b10000000000000000000001010010100 O7
b1110010011110000011 18
b11001101111110 q8
#642
1N7
#643
0N7
b10000000000000000000001010011000 O7
b11111110110101111001111011100011 18
b11001101111111 q8
#647
1N7
#648
0N7
b10000000000000000000001010010100 O7
b1110010011110000011 18
b11001110000000 q8
#650
1N7
#651
0N7
b10000000000000000000001010011000 O7
b11111110110101111001111011100011 18
b11001110000001 q8
#655
1N7
#656
0N7
b10000000000000000000001010010100 O7
b1110010011110000011 18
b11001110000010 q8
#658
1N7
#659
0N7
b10000000000000000000001010011000 O7
b11111110110101111001111011100011 18
b11001110000011 q8
#663
1N7
#664
0N7
b10000000000000000000001010010100 O7
b1110010011110000011 18
b11001110000100 q8
#666
1N7
#667
0N7
b10000000000000000000001010011000 O7
b11111110110101111001111011100011 18
b11001110000101 q8
#671
1N7
#672
0N7
b10000000000000000000001010010100 O7
b1110010011110000011 18
b11001110000110 q8
#674
1N7
#675
0N7
b10000000000000000000001010011000 O7
b11111110110101111001111011100011 18
b11001110000111 q8
#679
1N7
#680
0N7
b10000000000000000000001010010100 O7
b1110010011110000011 18
b11001110001000 q8
#682
1N7
#683
0N7
b10000000000000000000001010011000 O7
b11111110110101111001111011100011 18
b11001110001001 q8
#687
1N7
#688
0N7
b10000000000000000000001010010100 O7
b1110010011110000011 18
b11001110001010 q8
#690
1N7
#691
0N7
b10000000000000000000001010011000 O7
b11111110110101111001111011100011 18
b11001110001011 q8
#695
1N7
#696
0N7
b10000000000000000000001010010100 O7
b1110010011110000011 18
b11001110001100 q8
#698
1N7
#699
0N7
b10000000000000000000001010011000 O7
b11111110110101111001111011100011 18
b11001110001101 q8
#703
1N7
#704
0N7
b10000000000000000000001010010100 O7
b1110010011110000011 18
b11001110001110 q8
#706
1N7
#707
0N7
b10000000000000000000001010011000 O7
b11111110110101111001111011100011 18
b11001110001111 q8
#711
1N7
#712
0N7
b10000000000000000000001010010100 O7
b1110010011110000011 18
b11001110010000 q8
#714
1N7
#715
0N7
b10000000000000000000001010011000 O7
b11111110110101111001111011100011 18
b11001110010001 q8
#719
1N7
#720
0N7
b10000000000000000000001010010100 O7
b1110010011110000011 18
b11001110010010 q8
#722
1N7
#723
0N7
b10000000000000000000001010011000 O7
b11111110110101111001111011100011 18
b11001110010011 q8
#727
1N7
#728
0N7
b10000000000000000000001010010100 O7
b1110010011110000011 18
b11001110010100 q8
#730
1N7
#731
0N7
b10000000000000000000001010011000 O7
b11111110110101111001111011100011 18
b11001110010101 q8
#735
1N7
#736
0N7
b10000000000000000000001010010100 O7
b1110010011110000011 18
b11001110010110 q8
#738
1N7
#739
0N7
b10000000000000000000001010011000 O7
b11111110110101111001111011100011 18
b11001110010111 q8
#743
1N7
#744
0N7
b10000000000000000000001010010100 O7
b1110010011110000011 18
b11001110011000 q8
#746
1N7
#747
0N7
b10000000000000000000001010011000 O7
b11111110110101111001111011100011 18
b11001110011001 q8
#751
1N7
#752
0N7
b10000000000000000000001010010100 O7
b1110010011110000011 18
b11001110011010 q8
#754
1N7
#755
0N7
b10000000000000000000001010011000 O7
b11111110110101111001111011100011 18
b11001110011011 q8
#759
1N7
#760
0N7
b10000000000000000000001010010100 O7
b1110010011110000011 18
b11001110011100 q8
#762
1N7
#763
0N7
b10000000000000000000001010011000 O7
b11111110110101111001111011100011 18
b11001110011101 q8
#767
1N7
#768
0N7
b10000000000000000000001010010100 O7
b1110010011110000011 18
b11001110011110 q8
#770
1N7
#771
0N7
b10000000000000000000001010011000 O7
b11111110110101111001111011100011 18
b11001110011111 q8
#775
1N7
#776
0N7
b10000000000000000000001010010100 O7
b1110010011110000011 18
b11001110100000 q8
#778
1N7
#779
0N7
b10000000000000000000001010011000 O7
b11111110110101111001111011100011 18
b11001110100001 q8
#783
1N7
#784
0N7
b10000000000000000000001010010100 O7
b1110010011110000011 18
b11001110100010 q8
#786
1N7
#787
0N7
b10000000000000000000001010011000 O7
b11111110110101111001111011100011 18
b11001110100011 q8
#791
1N7
#792
0N7
b10000000000000000000001010010100 O7
b1110010011110000011 18
b11001110100100 q8
#794
1N7
#795
0N7
b10000000000000000000001010011000 O7
b11111110110101111001111011100011 18
b11001110100101 q8
#799
1N7
#800
0N7
b10000000000000000000001010010100 O7
b1110010011110000011 18
b11001110100110 q8
#802
1N7
#803
0N7
b10000000000000000000001010011000 O7
b11111110110101111001111011100011 18
b11001110100111 q8
#807
1N7
#808
0N7
b10000000000000000000001010010100 O7
b1110010011110000011 18
b11001110101000 q8
#810
1N7
#811
0N7
b10000000000000000000001010011000 O7
b11111110110101111001111011100011 18
b11001110101001 q8
#815
1N7
#816
0N7
b10000000000000000000001010010100 O7
b1110010011110000011 18
b11001110101010 q8
#818
1N7
#819
0N7
b10000000000000000000001010011000 O7
b11111110110101111001111011100011 18
b11001110101011 q8
#823
1N7
#824
0N7
b10000000000000000000001010010100 O7
b1110010011110000011 18
b11001110101100 q8
#826
1N7
#827
0N7
b10000000000000000000001010011000 O7
b11111110110101111001111011100011 18
b11001110101101 q8
#831
1N7
#832
0N7
b10000000000000000000001010010100 O7
b1110010011110000011 18
b11001110101110 q8
#834
1N7
#835
0N7
b10000000000000000000001010011000 O7
b11111110110101111001111011100011 18
b11001110101111 q8
#839
1N7
#840
0N7
b10000000000000000000001010010100 O7
b1110010011110000011 18
b11001110110000 q8
#842
1N7
#843
0N7
b10000000000000000000001010011000 O7
b11111110110101111001111011100011 18
b11001110110001 q8
#847
1N7
#848
0N7
b10000000000000000000001010010100 O7
b1110010011110000011 18
b11001110110010 q8
#850
1N7
#851
0N7
b10000000000000000000001010011000 O7
b11111110110101111001111011100011 18
b11001110110011 q8
#855
1N7
#856
0N7
b10000000000000000000001010010100 O7
b1110010011110000011 18
b11001110110100 q8
#858
1N7
#859
0N7
b10000000000000000000001010011000 O7
b11111110110101111001111011100011 18
b11001110110101 q8
#863
1N7
#864
0N7
b10000000000000000000001010010100 O7
b1110010011110000011 18
b11001110110110 q8
#866
1N7
#867
0N7
b10000000000000000000001010011000 O7
b11111110110101111001111011100011 18
b11001110110111 q8
#871
1N7
#872
0N7
b10000000000000000000001010010100 O7
b1110010011110000011 18
b11001110111000 q8
#874
1N7
#875
0N7
b10000000000000000000001010011000 O7
b11111110110101111001111011100011 18
b11001110111001 q8
#879
1N7
#880
0N7
b10000000000000000000001010010100 O7
b1110010011110000011 18
b11001110111010 q8
#882
1N7
#883
0N7
b10000000000000000000001010011000 O7
b11111110110101111001111011100011 18
b11001110111011 q8
#887
1N7
#888
0N7
b10000000000000000000001010010100 O7
b1110010011110000011 18
b11001110111100 q8
#890
1N7
#891
0N7
b10000000000000000000001010011000 O7
b11111110110101111001111011100011 18
b11001110111101 q8
#895
1N7
#896
0N7
b10000000000000000000001010010100 O7
b1110010011110000011 18
b11001110111110 q8
#898
1N7
#899
0N7
b10000000000000000000001010011000 O7
b11111110110101111001111011100011 18
b11001110111111 q8
#903
1N7
#904
0N7
b10000000000000000000001010010100 O7
b1110010011110000011 18
b11001111000000 q8
#906
1N7
#907
0N7
b10000000000000000000001010011000 O7
b11111110110101111001111011100011 18
b11001111000001 q8
#911
1N7
#912
0N7
b10000000000000000000001010010100 O7
b1110010011110000011 18
b11001111000010 q8
#914
1N7
#915
0N7
b10000000000000000000001010011000 O7
b11111110110101111001111011100011 18
b11001111000011 q8
#919
1N7
#920
0N7
b10000000000000000000001010010100 O7
b1110010011110000011 18
b11001111000100 q8
#922
1N7
#923
0N7
b10000000000000000000001010011000 O7
b11111110110101111001111011100011 18
b11001111000101 q8
#927
1N7
#928
0N7
b10000000000000000000001010010100 O7
b1110010011110000011 18
b11001111000110 q8
#930
1N7
#931
0N7
b10000000000000000000001010011000 O7
b11111110110101111001111011100011 18
b11001111000111 q8
#935
1N7
#936
0N7
b10000000000000000000001010010100 O7
b1110010011110000011 18
b11001111001000 q8
#938
1N7
#939
0N7
b10000000000000000000001010011000 O7
b11111110110101111001111011100011 18
b11001111001001 q8
#943
1N7
#944
0N7
b10000000000000000000001010010100 O7
b1110010011110000011 18
b11001111001010 q8
#946
1N7
#947
0N7
b10000000000000000000001010011000 O7
b11111110110101111001111011100011 18
b11001111001011 q8
#951
1N7
#952
0N7
b10000000000000000000001010010100 O7
b1110010011110000011 18
b11001111001100 q8
#954
1N7
#955
0N7
b10000000000000000000001010011000 O7
b11111110110101111001111011100011 18
b11001111001101 q8
#959
1N7
#960
0N7
b10000000000000000000001010010100 O7
b1110010011110000011 18
b11001111001110 q8
#962
1N7
#963
0N7
b10000000000000000000001010011000 O7
b11111110110101111001111011100011 18
b11001111001111 q8
#967
1N7
#968
0N7
b10000000000000000000001010010100 O7
b1110010011110000011 18
b11001111010000 q8
#970
1N7
#971
0N7
b10000000000000000000001010011000 O7
b11111110110101111001111011100011 18
b11001111010001 q8
#975
1N7
#976
0N7
b10000000000000000000001010010100 O7
b1110010011110000011 18
b11001111010010 q8
#978
1N7
#979
0N7
b10000000000000000000001010011000 O7
b11111110110101111001111011100011 18
b11001111010011 q8
#983
1N7
#984
0N7
b10000000000000000000001010010100 O7
b1110010011110000011 18
b11001111010100 q8
#986
1N7
#987
0N7
b10000000000000000000001010011000 O7
b11111110110101111001111011100011 18
b11001111010101 q8
#991
1N7
#992
0N7
b10000000000000000000001010010100 O7
b1110010011110000011 18
b11001111010110 q8
#994
1N7
#995
0N7
b10000000000000000000001010011000 O7
b11111110110101111001111011100011 18
b11001111010111 q8
#999
1N7
#1000
0N7
b10000000000000000000001010010100 O7
b1110010011110000011 18
b11001111011000 q8
#1002
1N7
#1003
0N7
b10000000000000000000001010011000 O7
b11111110110101111001111011100011 18
b11001111011001 q8
#1007
1N7
#1008
0N7
b10000000000000000000001010010100 O7
b1110010011110000011 18
b11001111011010 q8
#1010
1N7
#1011
0N7
b10000000000000000000001010011000 O7
b11111110110101111001111011100011 18
b11001111011011 q8
#1015
1N7
#1016
0N7
b10000000000000000000001010010100 O7
b1110010011110000011 18
b11001111011100 q8
#1018
1N7
#1019
0N7
b10000000000000000000001010011000 O7
b11111110110101111001111011100011 18
b11001111011101 q8
#1023
1N7
