test4.vcd
$date
        2025-Apr-21 22:04:59
$end
$version
        Vivado v2024.2 (64-bit)
$end
$timescale
        1ps
$end
$scope module dut $end
$var reg 64 " design_1_i/soc7_0_registersOut_0 [63:0] $end
$var reg 64 b design_1_i/soc7_0_registersOut_1 [63:0] $end
$var reg 64 D" design_1_i/soc7_0_registersOut_2 [63:0] $end
$var reg 64 &# design_1_i/soc7_0_registersOut_3 [63:0] $end
$var reg 64 f# design_1_i/soc7_0_registersOut_4 [63:0] $end
$var reg 64 H$ design_1_i/soc7_0_registersOut_5 [63:0] $end
$var reg 64 *% design_1_i/soc7_0_registersOut_6 [63:0] $end
$var reg 64 j% design_1_i/soc7_0_registersOut_7 [63:0] $end
$var reg 64 L& design_1_i/soc7_0_registersOut_8 [63:0] $end
$var reg 64 .' design_1_i/soc7_0_registersOut_9 [63:0] $end
$var reg 64 n' design_1_i/soc7_0_registersOut_10 [63:0] $end
$var reg 64 P( design_1_i/soc7_0_registersOut_11 [63:0] $end
$var reg 64 2) design_1_i/soc7_0_registersOut_12 [63:0] $end
$var reg 64 r) design_1_i/soc7_0_registersOut_13 [63:0] $end
$var reg 64 T* design_1_i/soc7_0_registersOut_14 [63:0] $end
$var reg 64 6+ design_1_i/soc7_0_registersOut_15 [63:0] $end
$var reg 64 v+ design_1_i/soc7_0_registersOut_16 [63:0] $end
$var reg 64 X, design_1_i/soc7_0_registersOut_17 [63:0] $end
$var reg 64 :- design_1_i/soc7_0_registersOut_18 [63:0] $end
$var reg 64 z- design_1_i/soc7_0_registersOut_19 [63:0] $end
$var reg 64 \. design_1_i/soc7_0_registersOut_20 [63:0] $end
$var reg 64 >/ design_1_i/soc7_0_registersOut_21 [63:0] $end
$var reg 64 ~/ design_1_i/soc7_0_registersOut_22 [63:0] $end
$var reg 64 `0 design_1_i/soc7_0_registersOut_23 [63:0] $end
$var reg 64 B1 design_1_i/soc7_0_registersOut_24 [63:0] $end
$var reg 64 $2 design_1_i/soc7_0_registersOut_25 [63:0] $end
$var reg 64 d2 design_1_i/soc7_0_registersOut_26 [63:0] $end
$var reg 64 F3 design_1_i/soc7_0_registersOut_27 [63:0] $end
$var reg 64 (4 design_1_i/soc7_0_registersOut_28 [63:0] $end
$var reg 64 h4 design_1_i/soc7_0_registersOut_29 [63:0] $end
$var reg 64 J5 design_1_i/soc7_0_registersOut_30 [63:0] $end
$var reg 64 ,6 design_1_i/soc7_0_registersOut_31 [63:0] $end
$var reg 64 l6 design_1_i/soc7_0_registersOut_32 [63:0] $end
$var reg 1 N7 design_1_i/soc1_0_robOut_commitFired_1 $end
$var reg 64 O7 design_1_i/soc7_0_robOut_pc_1 [63:0] $end
$var reg 64 18 design_1_i/soc7_0_robOut_instruction_1 [63:0] $end
$var reg 1 q8 _TRIGGER $end
$var reg 1 r8 _WINDOW $end
$var reg 1 s8 _GAP $end
$upscope $end
$enddefinitions $end
#0
$dumpvars
b0 "
b0 b
b0 D"
b0 &#
b0 f#
b0 H$
b0 *%
b0 j%
b0 L&
b0 .'
b0 n'
b0 P(
b0 2)
b0 r)
b0 T*
b0 6+
b0 v+
b0 X,
b0 :-
b0 z-
b0 \.
b0 >/
b0 ~/
b0 `0
b0 B1
b0 $2
b0 d2
b0 F3
b0 (4
b0 h4
b0 J5
b0 ,6
b101000000000000000000000000000000000 l6
0N7
b10000000000000000000001010011000 O7
b11111110110101111001111011100011 18
0q8
1r8
0s8
$end
#2
1N7
#3
0N7
b10000000000000000000001010010100 O7
b1110010011110000011 18
#5
1N7
#6
0N7
b10000000000000000000001010011000 O7
b11111110110101111001111011100011 18
#10
1N7
#11
0N7
b10000000000000000000001010010100 O7
b1110010011110000011 18
#13
1N7
#14
0N7
b10000000000000000000001010011000 O7
b11111110110101111001111011100011 18
#18
1N7
#19
0N7
b10000000000000000000001010010100 O7
b1110010011110000011 18
#21
1N7
#22
0N7
b10000000000000000000001010011000 O7
b11111110110101111001111011100011 18
#26
1N7
#27
0N7
b10000000000000000000001010010100 O7
b1110010011110000011 18
#29
1N7
#30
0N7
b10000000000000000000001010011000 O7
b11111110110101111001111011100011 18
#34
1N7
#35
0N7
b10000000000000000000001010010100 O7
b1110010011110000011 18
#37
1N7
#38
0N7
b10000000000000000000001010011000 O7
b11111110110101111001111011100011 18
#42
1N7
#43
0N7
b10000000000000000000001010010100 O7
b1110010011110000011 18
#45
1N7
#46
0N7
b10000000000000000000001010011000 O7
b11111110110101111001111011100011 18
#50
1N7
#51
0N7
b10000000000000000000001010010100 O7
b1110010011110000011 18
#53
1N7
#54
0N7
b10000000000000000000001010011000 O7
b11111110110101111001111011100011 18
#58
1N7
#59
0N7
b10000000000000000000001010010100 O7
b1110010011110000011 18
#61
1N7
#62
0N7
b10000000000000000000001010011000 O7
b11111110110101111001111011100011 18
#66
1N7
#67
0N7
b10000000000000000000001010010100 O7
b1110010011110000011 18
#69
1N7
#70
0N7
b10000000000000000000001010011000 O7
b11111110110101111001111011100011 18
#74
1N7
#75
0N7
b10000000000000000000001010010100 O7
b1110010011110000011 18
#77
1N7
#78
0N7
b10000000000000000000001010011000 O7
b11111110110101111001111011100011 18
#82
1N7
#83
0N7
b10000000000000000000001010010100 O7
b1110010011110000011 18
#85
1N7
#86
0N7
b10000000000000000000001010011000 O7
b11111110110101111001111011100011 18
#90
1N7
#91
0N7
b10000000000000000000001010010100 O7
b1110010011110000011 18
#93
1N7
#94
0N7
b10000000000000000000001010011000 O7
b11111110110101111001111011100011 18
#98
1N7
#99
0N7
b10000000000000000000001010010100 O7
b1110010011110000011 18
#101
1N7
#102
0N7
b10000000000000000000001010011000 O7
b11111110110101111001111011100011 18
#106
1N7
#107
0N7
b10000000000000000000001010010100 O7
b1110010011110000011 18
#109
1N7
#110
0N7
b10000000000000000000001010011000 O7
b11111110110101111001111011100011 18
#114
1N7
#115
0N7
b10000000000000000000001010010100 O7
b1110010011110000011 18
#117
1N7
#118
0N7
b10000000000000000000001010011000 O7
b11111110110101111001111011100011 18
#122
1N7
#123
0N7
b10000000000000000000001010010100 O7
b1110010011110000011 18
#125
1N7
#126
0N7
b10000000000000000000001010011000 O7
b11111110110101111001111011100011 18
#130
1N7
#131
0N7
b10000000000000000000001010010100 O7
b1110010011110000011 18
#133
1N7
#134
0N7
b10000000000000000000001010011000 O7
b11111110110101111001111011100011 18
#138
1N7
#139
0N7
b10000000000000000000001010010100 O7
b1110010011110000011 18
#141
1N7
#142
0N7
b10000000000000000000001010011000 O7
b11111110110101111001111011100011 18
#146
1N7
#147
0N7
b10000000000000000000001010010100 O7
b1110010011110000011 18
#149
1N7
#150
0N7
b10000000000000000000001010011000 O7
b11111110110101111001111011100011 18
#154
1N7
#155
0N7
b10000000000000000000001010010100 O7
b1110010011110000011 18
#157
1N7
#158
0N7
b10000000000000000000001010011000 O7
b11111110110101111001111011100011 18
#162
1N7
#163
0N7
b10000000000000000000001010010100 O7
b1110010011110000011 18
#165
1N7
#166
0N7
b10000000000000000000001010011000 O7
b11111110110101111001111011100011 18
#170
1N7
#171
0N7
b10000000000000000000001010010100 O7
b1110010011110000011 18
#173
1N7
#174
0N7
b10000000000000000000001010011000 O7
b11111110110101111001111011100011 18
#178
1N7
#179
0N7
b10000000000000000000001010010100 O7
b1110010011110000011 18
#181
1N7
#182
0N7
b10000000000000000000001010011000 O7
b11111110110101111001111011100011 18
#186
1N7
#187
0N7
b10000000000000000000001010010100 O7
b1110010011110000011 18
#189
1N7
#190
0N7
b10000000000000000000001010011000 O7
b11111110110101111001111011100011 18
#194
1N7
#195
0N7
b10000000000000000000001010010100 O7
b1110010011110000011 18
#197
1N7
#198
0N7
b10000000000000000000001010011000 O7
b11111110110101111001111011100011 18
#202
1N7
#203
0N7
b10000000000000000000001010010100 O7
b1110010011110000011 18
#205
1N7
#206
0N7
b10000000000000000000001010011000 O7
b11111110110101111001111011100011 18
#210
1N7
#211
0N7
b10000000000000000000001010010100 O7
b1110010011110000011 18
#213
1N7
#214
0N7
b10000000000000000000001010011000 O7
b11111110110101111001111011100011 18
#218
1N7
#219
0N7
b10000000000000000000001010010100 O7
b1110010011110000011 18
#221
1N7
#222
0N7
b10000000000000000000001010011000 O7
b11111110110101111001111011100011 18
#226
1N7
#227
0N7
b10000000000000000000001010010100 O7
b1110010011110000011 18
#229
1N7
#230
0N7
b10000000000000000000001010011000 O7
b11111110110101111001111011100011 18
#234
1N7
#235
0N7
b10000000000000000000001010010100 O7
b1110010011110000011 18
#237
1N7
#238
0N7
b10000000000000000000001010011000 O7
b11111110110101111001111011100011 18
#242
1N7
#243
0N7
b10000000000000000000001010010100 O7
b1110010011110000011 18
#245
1N7
#246
0N7
b10000000000000000000001010011000 O7
b11111110110101111001111011100011 18
#250
1N7
#251
0N7
b10000000000000000000001010010100 O7
b1110010011110000011 18
#253
1N7
#254
0N7
b10000000000000000000001010011000 O7
b11111110110101111001111011100011 18
#258
1N7
#259
0N7
b10000000000000000000001010010100 O7
b1110010011110000011 18
#261
1N7
#262
0N7
b10000000000000000000001010011000 O7
b11111110110101111001111011100011 18
#266
1N7
#267
0N7
b10000000000000000000001010010100 O7
b1110010011110000011 18
#269
1N7
#270
0N7
b10000000000000000000001010011000 O7
b11111110110101111001111011100011 18
#274
1N7
#275
0N7
b10000000000000000000001010010100 O7
b1110010011110000011 18
#277
1N7
#278
0N7
b10000000000000000000001010011000 O7
b11111110110101111001111011100011 18
#282
1N7
#283
0N7
b10000000000000000000001010010100 O7
b1110010011110000011 18
#285
1N7
#286
0N7
b10000000000000000000001010011000 O7
b11111110110101111001111011100011 18
#290
1N7
#291
0N7
b10000000000000000000001010010100 O7
b1110010011110000011 18
#293
1N7
#294
0N7
b10000000000000000000001010011000 O7
b11111110110101111001111011100011 18
#298
1N7
#299
0N7
b10000000000000000000001010010100 O7
b1110010011110000011 18
#301
1N7
#302
0N7
b10000000000000000000001010011000 O7
b11111110110101111001111011100011 18
#306
1N7
#307
0N7
b10000000000000000000001010010100 O7
b1110010011110000011 18
#309
1N7
#310
0N7
b10000000000000000000001010011000 O7
b11111110110101111001111011100011 18
#314
1N7
#315
0N7
b10000000000000000000001010010100 O7
b1110010011110000011 18
#317
1N7
#318
0N7
b10000000000000000000001010011000 O7
b11111110110101111001111011100011 18
#322
1N7
#323
0N7
b10000000000000000000001010010100 O7
b1110010011110000011 18
#325
1N7
#326
0N7
b10000000000000000000001010011000 O7
b11111110110101111001111011100011 18
#330
1N7
#331
0N7
b10000000000000000000001010010100 O7
b1110010011110000011 18
#333
1N7
#334
0N7
b10000000000000000000001010011000 O7
b11111110110101111001111011100011 18
#338
1N7
#339
0N7
b10000000000000000000001010010100 O7
b1110010011110000011 18
#341
1N7
#342
0N7
b10000000000000000000001010011000 O7
b11111110110101111001111011100011 18
#346
1N7
#347
0N7
b10000000000000000000001010010100 O7
b1110010011110000011 18
#349
1N7
#350
0N7
b10000000000000000000001010011000 O7
b11111110110101111001111011100011 18
#354
1N7
#355
0N7
b10000000000000000000001010010100 O7
b1110010011110000011 18
#357
1N7
#358
0N7
b10000000000000000000001010011000 O7
b11111110110101111001111011100011 18
#362
1N7
#363
0N7
b10000000000000000000001010010100 O7
b1110010011110000011 18
#365
1N7
#366
0N7
b10000000000000000000001010011000 O7
b11111110110101111001111011100011 18
#370
1N7
#371
0N7
b10000000000000000000001010010100 O7
b1110010011110000011 18
#373
1N7
#374
0N7
b10000000000000000000001010011000 O7
b11111110110101111001111011100011 18
#378
1N7
#379
0N7
b10000000000000000000001010010100 O7
b1110010011110000011 18
#381
1N7
#382
0N7
b10000000000000000000001010011000 O7
b11111110110101111001111011100011 18
#386
1N7
#387
0N7
b10000000000000000000001010010100 O7
b1110010011110000011 18
#389
1N7
#390
0N7
b10000000000000000000001010011000 O7
b11111110110101111001111011100011 18
#394
1N7
#395
0N7
b10000000000000000000001010010100 O7
b1110010011110000011 18
#397
1N7
#398
0N7
b10000000000000000000001010011000 O7
b11111110110101111001111011100011 18
#402
1N7
#403
0N7
b10000000000000000000001010010100 O7
b1110010011110000011 18
#405
1N7
#406
0N7
b10000000000000000000001010011000 O7
b11111110110101111001111011100011 18
#410
1N7
#411
0N7
b10000000000000000000001010010100 O7
b1110010011110000011 18
#413
1N7
#414
0N7
b10000000000000000000001010011000 O7
b11111110110101111001111011100011 18
#418
1N7
#419
0N7
b10000000000000000000001010010100 O7
b1110010011110000011 18
#421
1N7
#422
0N7
b10000000000000000000001010011000 O7
b11111110110101111001111011100011 18
#426
1N7
#427
0N7
b10000000000000000000001010010100 O7
b1110010011110000011 18
#429
1N7
#430
0N7
b10000000000000000000001010011000 O7
b11111110110101111001111011100011 18
#434
1N7
#435
0N7
b10000000000000000000001010010100 O7
b1110010011110000011 18
#437
1N7
#438
0N7
b10000000000000000000001010011000 O7
b11111110110101111001111011100011 18
#442
1N7
#443
0N7
b10000000000000000000001010010100 O7
b1110010011110000011 18
#445
1N7
#446
0N7
b10000000000000000000001010011000 O7
b11111110110101111001111011100011 18
#450
1N7
#451
0N7
b10000000000000000000001010010100 O7
b1110010011110000011 18
#453
1N7
#454
0N7
b10000000000000000000001010011000 O7
b11111110110101111001111011100011 18
#458
1N7
#459
0N7
b10000000000000000000001010010100 O7
b1110010011110000011 18
#461
1N7
#462
0N7
b10000000000000000000001010011000 O7
b11111110110101111001111011100011 18
#466
1N7
#467
0N7
b10000000000000000000001010010100 O7
b1110010011110000011 18
#469
1N7
#470
0N7
b10000000000000000000001010011000 O7
b11111110110101111001111011100011 18
#474
1N7
#475
0N7
b10000000000000000000001010010100 O7
b1110010011110000011 18
#477
1N7
#478
0N7
b10000000000000000000001010011000 O7
b11111110110101111001111011100011 18
#482
1N7
#483
0N7
b10000000000000000000001010010100 O7
b1110010011110000011 18
#485
1N7
#486
0N7
b10000000000000000000001010011000 O7
b11111110110101111001111011100011 18
#490
1N7
#491
0N7
b10000000000000000000001010010100 O7
b1110010011110000011 18
#493
1N7
#494
0N7
b10000000000000000000001010011000 O7
b11111110110101111001111011100011 18
#498
1N7
#499
0N7
b10000000000000000000001010010100 O7
b1110010011110000011 18
#501
1N7
#502
0N7
b10000000000000000000001010011000 O7
b11111110110101111001111011100011 18
#506
1N7
#507
0N7
b10000000000000000000001010010100 O7
b1110010011110000011 18
#509
1N7
#510
0N7
b10000000000000000000001010011000 O7
b11111110110101111001111011100011 18
#512
1q8
#514
1N7
#515
0N7
b10000000000000000000001010010100 O7
b1110010011110000011 18
#517
1N7
#518
0N7
b10000000000000000000001010011000 O7
b11111110110101111001111011100011 18
#522
1N7
#523
0N7
b10000000000000000000001010010100 O7
b1110010011110000011 18
#525
1N7
#526
0N7
b10000000000000000000001010011000 O7
b11111110110101111001111011100011 18
#530
1N7
#531
0N7
b10000000000000000000001010010100 O7
b1110010011110000011 18
#533
1N7
#534
0N7
b10000000000000000000001010011000 O7
b11111110110101111001111011100011 18
#538
1N7
#539
0N7
b10000000000000000000001010010100 O7
b1110010011110000011 18
#541
1N7
#542
0N7
b10000000000000000000001010011000 O7
b11111110110101111001111011100011 18
#546
1N7
#547
0N7
b10000000000000000000001010010100 O7
b1110010011110000011 18
#549
1N7
#550
0N7
b10000000000000000000001010011000 O7
b11111110110101111001111011100011 18
#554
1N7
#555
0N7
b10000000000000000000001010010100 O7
b1110010011110000011 18
#557
1N7
#558
0N7
b10000000000000000000001010011000 O7
b11111110110101111001111011100011 18
#562
1N7
#563
0N7
b10000000000000000000001010010100 O7
b1110010011110000011 18
#565
1N7
#566
0N7
b10000000000000000000001010011000 O7
b11111110110101111001111011100011 18
#570
1N7
#571
0N7
b10000000000000000000001010010100 O7
b1110010011110000011 18
#573
1N7
#574
0N7
b10000000000000000000001010011000 O7
b11111110110101111001111011100011 18
#578
1N7
#579
0N7
b10000000000000000000001010010100 O7
b1110010011110000011 18
#581
1N7
#582
0N7
b10000000000000000000001010011000 O7
b11111110110101111001111011100011 18
#586
1N7
#587
0N7
b10000000000000000000001010010100 O7
b1110010011110000011 18
#589
1N7
#590
0N7
b10000000000000000000001010011000 O7
b11111110110101111001111011100011 18
#594
1N7
#595
0N7
b10000000000000000000001010010100 O7
b1110010011110000011 18
#597
1N7
#598
0N7
b10000000000000000000001010011000 O7
b11111110110101111001111011100011 18
#602
1N7
#603
0N7
b10000000000000000000001010010100 O7
b1110010011110000011 18
#605
1N7
#606
0N7
b10000000000000000000001010011000 O7
b11111110110101111001111011100011 18
#610
1N7
#611
0N7
b10000000000000000000001010010100 O7
b1110010011110000011 18
#613
1N7
#614
0N7
b10000000000000000000001010011000 O7
b11111110110101111001111011100011 18
#618
1N7
#619
0N7
b10000000000000000000001010010100 O7
b1110010011110000011 18
#621
1N7
#622
0N7
b10000000000000000000001010011000 O7
b11111110110101111001111011100011 18
#626
1N7
#627
0N7
b10000000000000000000001010010100 O7
b1110010011110000011 18
#629
1N7
#630
0N7
b10000000000000000000001010011000 O7
b11111110110101111001111011100011 18
#634
1N7
#635
0N7
b10000000000000000000001010010100 O7
b1110010011110000011 18
#637
1N7
#638
0N7
b10000000000000000000001010011000 O7
b11111110110101111001111011100011 18
#642
1N7
#643
0N7
b10000000000000000000001010010100 O7
b1110010011110000011 18
#645
1N7
#646
0N7
b10000000000000000000001010011000 O7
b11111110110101111001111011100011 18
#650
1N7
#651
0N7
b10000000000000000000001010010100 O7
b1110010011110000011 18
#653
1N7
#654
0N7
b10000000000000000000001010011000 O7
b11111110110101111001111011100011 18
#658
1N7
#659
0N7
b10000000000000000000001010010100 O7
b1110010011110000011 18
#661
1N7
#662
0N7
b10000000000000000000001010011000 O7
b11111110110101111001111011100011 18
#666
1N7
#667
0N7
b10000000000000000000001010010100 O7
b1110010011110000011 18
#669
1N7
#670
0N7
b10000000000000000000001010011000 O7
b11111110110101111001111011100011 18
#674
1N7
#675
0N7
b10000000000000000000001010010100 O7
b1110010011110000011 18
#677
1N7
#678
0N7
b10000000000000000000001010011000 O7
b11111110110101111001111011100011 18
#682
1N7
#683
0N7
b10000000000000000000001010010100 O7
b1110010011110000011 18
#685
1N7
#686
0N7
b10000000000000000000001010011000 O7
b11111110110101111001111011100011 18
#690
1N7
#691
0N7
b10000000000000000000001010010100 O7
b1110010011110000011 18
#693
1N7
#694
0N7
b10000000000000000000001010011000 O7
b11111110110101111001111011100011 18
#698
1N7
#699
0N7
b10000000000000000000001010010100 O7
b1110010011110000011 18
#701
1N7
#702
0N7
b10000000000000000000001010011000 O7
b11111110110101111001111011100011 18
#706
1N7
#707
0N7
b10000000000000000000001010010100 O7
b1110010011110000011 18
#709
1N7
#710
0N7
b10000000000000000000001010011000 O7
b11111110110101111001111011100011 18
#714
1N7
#715
0N7
b10000000000000000000001010010100 O7
b1110010011110000011 18
#717
1N7
#718
0N7
b10000000000000000000001010011000 O7
b11111110110101111001111011100011 18
#722
1N7
#723
0N7
b10000000000000000000001010010100 O7
b1110010011110000011 18
#725
1N7
#726
0N7
b10000000000000000000001010011000 O7
b11111110110101111001111011100011 18
#730
1N7
#731
0N7
b10000000000000000000001010010100 O7
b1110010011110000011 18
#733
1N7
#734
0N7
b10000000000000000000001010011000 O7
b11111110110101111001111011100011 18
#738
1N7
#739
0N7
b10000000000000000000001010010100 O7
b1110010011110000011 18
#741
1N7
#742
0N7
b10000000000000000000001010011000 O7
b11111110110101111001111011100011 18
#746
1N7
#747
0N7
b10000000000000000000001010010100 O7
b1110010011110000011 18
#749
1N7
#750
0N7
b10000000000000000000001010011000 O7
b11111110110101111001111011100011 18
#754
1N7
#755
0N7
b10000000000000000000001010010100 O7
b1110010011110000011 18
#757
1N7
#758
0N7
b10000000000000000000001010011000 O7
b11111110110101111001111011100011 18
#762
1N7
#763
0N7
b10000000000000000000001010010100 O7
b1110010011110000011 18
#765
1N7
#766
0N7
b10000000000000000000001010011000 O7
b11111110110101111001111011100011 18
#770
1N7
#771
0N7
b10000000000000000000001010010100 O7
b1110010011110000011 18
#773
1N7
#774
0N7
b10000000000000000000001010011000 O7
b11111110110101111001111011100011 18
#778
1N7
#779
0N7
b10000000000000000000001010010100 O7
b1110010011110000011 18
#781
1N7
#782
0N7
b10000000000000000000001010011000 O7
b11111110110101111001111011100011 18
#786
1N7
#787
0N7
b10000000000000000000001010010100 O7
b1110010011110000011 18
#789
1N7
#790
0N7
b10000000000000000000001010011000 O7
b11111110110101111001111011100011 18
#794
1N7
#795
0N7
b10000000000000000000001010010100 O7
b1110010011110000011 18
#797
1N7
#798
0N7
b10000000000000000000001010011000 O7
b11111110110101111001111011100011 18
#802
1N7
#803
0N7
b10000000000000000000001010010100 O7
b1110010011110000011 18
#805
1N7
#806
0N7
b10000000000000000000001010011000 O7
b11111110110101111001111011100011 18
#810
1N7
#811
0N7
b10000000000000000000001010010100 O7
b1110010011110000011 18
#813
1N7
#814
0N7
b10000000000000000000001010011000 O7
b11111110110101111001111011100011 18
#818
1N7
#819
0N7
b10000000000000000000001010010100 O7
b1110010011110000011 18
#821
1N7
#822
0N7
b10000000000000000000001010011000 O7
b11111110110101111001111011100011 18
#826
1N7
#827
0N7
b10000000000000000000001010010100 O7
b1110010011110000011 18
#829
1N7
#830
0N7
b10000000000000000000001010011000 O7
b11111110110101111001111011100011 18
#834
1N7
#835
0N7
b10000000000000000000001010010100 O7
b1110010011110000011 18
#837
1N7
#838
0N7
b10000000000000000000001010011000 O7
b11111110110101111001111011100011 18
#842
1N7
#843
0N7
b10000000000000000000001010010100 O7
b1110010011110000011 18
#845
1N7
#846
0N7
b10000000000000000000001010011000 O7
b11111110110101111001111011100011 18
#850
1N7
#851
0N7
b10000000000000000000001010010100 O7
b1110010011110000011 18
#853
1N7
#854
0N7
b10000000000000000000001010011000 O7
b11111110110101111001111011100011 18
#858
1N7
#859
0N7
b10000000000000000000001010010100 O7
b1110010011110000011 18
#861
1N7
#862
0N7
b10000000000000000000001010011000 O7
b11111110110101111001111011100011 18
#866
1N7
#867
0N7
b10000000000000000000001010010100 O7
b1110010011110000011 18
#869
1N7
#870
0N7
b10000000000000000000001010011000 O7
b11111110110101111001111011100011 18
#874
1N7
#875
0N7
b10000000000000000000001010010100 O7
b1110010011110000011 18
#877
1N7
#878
0N7
b10000000000000000000001010011000 O7
b11111110110101111001111011100011 18
#882
1N7
#883
0N7
b10000000000000000000001010010100 O7
b1110010011110000011 18
#885
1N7
#886
0N7
b10000000000000000000001010011000 O7
b11111110110101111001111011100011 18
#890
1N7
#891
0N7
b10000000000000000000001010010100 O7
b1110010011110000011 18
#893
1N7
#894
0N7
b10000000000000000000001010011000 O7
b11111110110101111001111011100011 18
#898
1N7
#899
0N7
b10000000000000000000001010010100 O7
b1110010011110000011 18
#901
1N7
#902
0N7
b10000000000000000000001010011000 O7
b11111110110101111001111011100011 18
#906
1N7
#907
0N7
b10000000000000000000001010010100 O7
b1110010011110000011 18
#909
1N7
#910
0N7
b10000000000000000000001010011000 O7
b11111110110101111001111011100011 18
#914
1N7
#915
0N7
b10000000000000000000001010010100 O7
b1110010011110000011 18
#917
1N7
#918
0N7
b10000000000000000000001010011000 O7
b11111110110101111001111011100011 18
#922
1N7
#923
0N7
b10000000000000000000001010010100 O7
b1110010011110000011 18
#925
1N7
#926
0N7
b10000000000000000000001010011000 O7
b11111110110101111001111011100011 18
#930
1N7
#931
0N7
b10000000000000000000001010010100 O7
b1110010011110000011 18
#933
1N7
#934
0N7
b10000000000000000000001010011000 O7
b11111110110101111001111011100011 18
#938
1N7
#939
0N7
b10000000000000000000001010010100 O7
b1110010011110000011 18
#941
1N7
#942
0N7
b10000000000000000000001010011000 O7
b11111110110101111001111011100011 18
#946
1N7
#947
0N7
b10000000000000000000001010010100 O7
b1110010011110000011 18
#949
1N7
#950
0N7
b10000000000000000000001010011000 O7
b11111110110101111001111011100011 18
#954
1N7
#955
0N7
b10000000000000000000001010010100 O7
b1110010011110000011 18
#957
1N7
#958
0N7
b10000000000000000000001010011000 O7
b11111110110101111001111011100011 18
#962
1N7
#963
0N7
b10000000000000000000001010010100 O7
b1110010011110000011 18
#965
1N7
#966
0N7
b10000000000000000000001010011000 O7
b11111110110101111001111011100011 18
#970
1N7
#971
0N7
b10000000000000000000001010010100 O7
b1110010011110000011 18
#973
1N7
#974
0N7
b10000000000000000000001010011000 O7
b11111110110101111001111011100011 18
#978
1N7
#979
0N7
b10000000000000000000001010010100 O7
b1110010011110000011 18
#981
1N7
#982
0N7
b10000000000000000000001010011000 O7
b11111110110101111001111011100011 18
#986
1N7
#987
0N7
b10000000000000000000001010010100 O7
b1110010011110000011 18
#989
1N7
#990
0N7
b10000000000000000000001010011000 O7
b11111110110101111001111011100011 18
#994
1N7
#995
0N7
b10000000000000000000001010010100 O7
b1110010011110000011 18
#997
1N7
#998
0N7
b10000000000000000000001010011000 O7
b11111110110101111001111011100011 18
#1002
1N7
#1003
0N7
b10000000000000000000001010010100 O7
b1110010011110000011 18
#1005
1N7
#1006
0N7
b10000000000000000000001010011000 O7
b11111110110101111001111011100011 18
#1010
1N7
#1011
0N7
b10000000000000000000001010010100 O7
b1110010011110000011 18
#1013
1N7
#1014
0N7
b10000000000000000000001010011000 O7
b11111110110101111001111011100011 18
#1018
1N7
#1019
0N7
b10000000000000000000001010010100 O7
b1110010011110000011 18
#1021
1N7
#1022
0N7
b10000000000000000000001010011000 O7
b11111110110101111001111011100011 18
