test13124.vcd
$date
        2025-Apr-22 10:35:46
$end
$version
        Vivado v2024.2 (64-bit)
$end
$timescale
        1ps
$end
$scope module dut $end
$var reg 64 " design_1_i/soc8_0_registersOut_0 [63:0] $end
$var reg 64 b design_1_i/soc8_0_registersOut_1 [63:0] $end
$var reg 64 D" design_1_i/soc8_0_registersOut_2 [63:0] $end
$var reg 64 &# design_1_i/soc8_0_registersOut_3 [63:0] $end
$var reg 64 f# design_1_i/soc8_0_registersOut_4 [63:0] $end
$var reg 64 H$ design_1_i/soc8_0_registersOut_5 [63:0] $end
$var reg 64 *% design_1_i/soc8_0_registersOut_6 [63:0] $end
$var reg 64 j% design_1_i/soc8_0_registersOut_7 [63:0] $end
$var reg 64 L& design_1_i/soc8_0_registersOut_8 [63:0] $end
$var reg 64 .' design_1_i/soc8_0_registersOut_9 [63:0] $end
$var reg 64 n' design_1_i/soc8_0_registersOut_10 [63:0] $end
$var reg 64 P( design_1_i/soc8_0_registersOut_11 [63:0] $end
$var reg 64 2) design_1_i/soc8_0_registersOut_12 [63:0] $end
$var reg 64 r) design_1_i/soc8_0_registersOut_13 [63:0] $end
$var reg 64 T* design_1_i/soc8_0_registersOut_14 [63:0] $end
$var reg 64 6+ design_1_i/soc8_0_registersOut_15 [63:0] $end
$var reg 64 v+ design_1_i/soc8_0_registersOut_16 [63:0] $end
$var reg 64 X, design_1_i/soc8_0_registersOut_17 [63:0] $end
$var reg 64 :- design_1_i/soc8_0_registersOut_18 [63:0] $end
$var reg 64 z- design_1_i/soc8_0_registersOut_19 [63:0] $end
$var reg 64 \. design_1_i/soc8_0_registersOut_20 [63:0] $end
$var reg 64 >/ design_1_i/soc8_0_registersOut_21 [63:0] $end
$var reg 64 ~/ design_1_i/soc8_0_registersOut_22 [63:0] $end
$var reg 64 `0 design_1_i/soc8_0_registersOut_23 [63:0] $end
$var reg 64 B1 design_1_i/soc8_0_registersOut_24 [63:0] $end
$var reg 64 $2 design_1_i/soc8_0_registersOut_25 [63:0] $end
$var reg 64 d2 design_1_i/soc8_0_registersOut_26 [63:0] $end
$var reg 64 F3 design_1_i/soc8_0_registersOut_27 [63:0] $end
$var reg 64 (4 design_1_i/soc8_0_registersOut_28 [63:0] $end
$var reg 64 h4 design_1_i/soc8_0_registersOut_29 [63:0] $end
$var reg 64 J5 design_1_i/soc8_0_registersOut_30 [63:0] $end
$var reg 64 ,6 design_1_i/soc8_0_registersOut_31 [63:0] $end
$var reg 64 l6 design_1_i/soc8_0_registersOut_32 [63:0] $end
$var reg 1 N7 design_1_i/soc1_0_robOut_commitFired_1 $end
$var reg 64 O7 design_1_i/soc7_0_robOut_pc_1 [63:0] $end
$var reg 64 18 design_1_i/soc7_0_robOut_instruction_1 [63:0] $end
$var reg 32 q8 design_1_i/counter_1_0_count_out_1 [31:0] $end
$var reg 1 39 _TRIGGER $end
$var reg 1 49 _WINDOW $end
$var reg 1 59 _GAP $end
$upscope $end
$enddefinitions $end
#0
$dumpvars
b0 "
b10000000000000000000001011110100 b
b10000000000001111111111111100000 D"
b0 &#
b10000000000001000000000000000000 f#
b0 H$
b1111101000 *%
b1000000000000000000 j%
b0 L&
b1 .'
b111110100000 n'
b10001100001 P(
b111110011100 2)
b10000000000000000010011110100000 r)
b10000000000000000001100000000000 T*
b10000000000000000011011101001000 6+
b10000000000000000100011011100000 v+
b1110010010 X,
b0 :-
b0 z-
b0 \.
b0 >/
b0 ~/
b0 `0
b0 B1
b0 $2
b0 d2
b0 F3
b1 (4
b0 h4
b10000000000000000100011011101000 J5
b10000000000000000100011011101000 ,6
b101000000000000000000000000000000000 l6
0N7
b10000000000000000000001111101100 O7
b101110000010000000100011 18
b11001100100100 q8
039
149
059
$end
#1
1N7
#2
b10000000000000000000001111110000 O7
b11111110101001100001000011100011 18
b11001100100101 q8
#3
0N7
b10000000000000000000001111010000 O7
b110001101000100000110011 18
b11001100100110 q8
#8
1N7
#9
b10000000000000000011011100111100 v+
b10000000000000000000001111010100 O7
b110001110000010110110011 18
b11001100100111 q8
#10
0N7
b10000000000000000000001111011000 O7
b10000010100010000011 18
b11001100101000 q8
#11
b10000000000000000010011110011100 P(
#13
1N7
#14
0N7
b10000000000000000000001111011100 O7
b1011010010110000011 18
b11001100101001 q8
#15
b1010110011 X,
1N7
#16
0N7
b10000000000000000000001111100000 O7
b110001111000100000110011 18
b11001100101010 q8
#17
b1011111000 P(
1N7
#18
b10000000000000000100011011100100 v+
b10000000000000000000001111100100 O7
b10001100000011000010011 18
b11001100101011 q8
#19
0N7
b10000000000000000000001111101000 O7
b1000101011000010110111011 18
b11001100101100 q8
#20
b111110100000 2)
1N7
#21
0N7
b10000000000000000000001111101100 O7
b101110000010000000100011 18
b11001100101101 q8
#22
b10110101011 P(
#27
1N7
#28
b10000000000000000000001111110000 O7
b11111110101001100001000011100011 18
b11001100101110 q8
#29
b10000000000000000000001111110100 O7
b1000000001100111 18
b11001100101111 q8
#30
0N7
b10000000000000000000001011110100 O7
b1001000010100010011 18
b11001100110000 q8
#36
1N7
#37
b1 n'
b10000000000000000000001011111000 O7
b11110110010111111111000011101111 18
b11001100110001 q8
#38
0N7
b10000000000000000000001011111100 O7
b1000000011001100011 18
b11001100110010 q8
#39
b10000000000000000000001011111100 b
#125
1N7
b10000000000000000000001001011100 O7
b1111111100000000000000001111 18
#126
0N7
b10000000000000000000001100000000 O7
b1000000000010100010011 18
b11001100110011 q8
#212
b10000000000000000000001001100000 O7
b100010011100000011 18
#370
1N7
#371
b0 T*
b10000000000000000000001001100100 O7
b100000000011010010011 18
b11001100110100 q8
#372
0N7
b10000000000000000000001001101000 O7
b101110011011100010011 18
b11001100110101 q8
#373
b1 r)
#375
1N7
#376
0N7
b10000000000000000000001001101100 O7
b111000100010000000100011 18
b11001100110110 q8
#377
b1 T*
#382
1N7
#383
b10000000000000000000001001110000 O7
b100011100010111 18
b11001100110111 q8
#384
b10000000000000000100001001110000 T*
b10000000000000000000001001110100 O7
b1000111110001110000011100010011 18
b11001100111000 q8
#385
0N7
b10000000000000000000001001111000 O7
b110110101110010011100101111 18
b11001100111001 q8
#386
b10000000000000000100011011101100 T*
#392
1N7
#393
b10000000100000001000000010 T*
b10000000000000000000001001111100 O7
b1110000011100011011 18
b11001100111010 q8
#394
b10000000000000000000001010000000 O7
b11111111111101010000010100011011 18
b11001100111011 q8
#395
b0 n'
b10000000000000000000001010000100 O7
b10111001010000000001100011 18
b11001100111100 q8
#396
b10000000000000000000001010001000 O7
b100010011010000011 18
b11001100111101 q8
#397
b10000000000000000000001010001100 O7
b100011100010111 18
b11001100111110 q8
#398
b10000000000000000100001010001100 T*
b10000000000000000000001010010000 O7
b1000101110001110000011100010011 18
b11001100111111 q8
#399
b10000000000000000100011011101000 T*
b10000000000000000000001010010100 O7
b1110010011110000011 18
b11001101000000 q8
#400
0N7
b10000000000000000000001010011000 O7
b11111110110101111001111011100011 18
b11001101000001 q8
#401
b10000000100000001000000010 6+
#404
1N7
#405
0N7
b10000000000000000000001010011100 O7
b1111111100000000000000001111 18
b11001101000010 q8
#497
b10000000000000000000001010010100 O7
b1110010011110000011 18
#506
1N7
#507
0N7
b10000000000000000000001010011000 O7
b11111110110101111001111011100011 18
b11001101000011 q8
#511
1N7
#512
0N7
b10000000000000000000001010011100 O7
b1111111100000000000000001111 18
b11001101000100 q8
139
#604
b10000000000000000000001010010100 O7
b1110010011110000011 18
#613
1N7
#614
0N7
b10000000000000000000001010011000 O7
b11111110110101111001111011100011 18
b11001101000101 q8
#618
1N7
#619
0N7
b10000000000000000000001010011100 O7
b1111111100000000000000001111 18
b11001101000110 q8
#711
b10000000000000000000001010010100 O7
b1110010011110000011 18
#720
1N7
#721
0N7
b10000000000000000000001010011000 O7
b11111110110101111001111011100011 18
b11001101000111 q8
#725
1N7
#726
0N7
b10000000000000000000001010011100 O7
b1111111100000000000000001111 18
b11001101001000 q8
#818
b10000000000000000000001010010100 O7
b1110010011110000011 18
#827
1N7
#828
0N7
b10000000000000000000001010011000 O7
b11111110110101111001111011100011 18
b11001101001001 q8
#832
1N7
#833
0N7
b10000000000000000000001010011100 O7
b1111111100000000000000001111 18
b11001101001010 q8
#925
b10000000000000000000001010010100 O7
b1110010011110000011 18
#934
1N7
#935
0N7
b10000000000000000000001010011000 O7
b11111110110101111001111011100011 18
b11001101001011 q8
#939
1N7
#940
0N7
b10000000000000000000001010011100 O7
b1111111100000000000000001111 18
b11001101001100 q8
