test5.vcd
$date
        2025-Apr-22 07:15:26
$end
$version
        Vivado v2024.2 (64-bit)
$end
$timescale
        1ps
$end
$scope module dut $end
$var reg 64 " design_1_i/soc7_0_registersOut_0 [63:0] $end
$var reg 64 b design_1_i/soc7_0_registersOut_1 [63:0] $end
$var reg 64 D" design_1_i/soc7_0_registersOut_2 [63:0] $end
$var reg 64 &# design_1_i/soc7_0_registersOut_3 [63:0] $end
$var reg 64 f# design_1_i/soc7_0_registersOut_4 [63:0] $end
$var reg 64 H$ design_1_i/soc7_0_registersOut_5 [63:0] $end
$var reg 64 *% design_1_i/soc7_0_registersOut_6 [63:0] $end
$var reg 64 j% design_1_i/soc7_0_registersOut_7 [63:0] $end
$var reg 64 L& design_1_i/soc7_0_registersOut_8 [63:0] $end
$var reg 64 .' design_1_i/soc7_0_registersOut_9 [63:0] $end
$var reg 64 n' design_1_i/soc7_0_registersOut_10 [63:0] $end
$var reg 64 P( design_1_i/soc7_0_registersOut_11 [63:0] $end
$var reg 64 2) design_1_i/soc7_0_registersOut_12 [63:0] $end
$var reg 64 r) design_1_i/soc7_0_registersOut_13 [63:0] $end
$var reg 64 T* design_1_i/soc7_0_registersOut_14 [63:0] $end
$var reg 64 6+ design_1_i/soc7_0_registersOut_15 [63:0] $end
$var reg 64 v+ design_1_i/soc7_0_registersOut_16 [63:0] $end
$var reg 64 X, design_1_i/soc7_0_registersOut_17 [63:0] $end
$var reg 64 :- design_1_i/soc7_0_registersOut_18 [63:0] $end
$var reg 64 z- design_1_i/soc7_0_registersOut_19 [63:0] $end
$var reg 64 \. design_1_i/soc7_0_registersOut_20 [63:0] $end
$var reg 64 >/ design_1_i/soc7_0_registersOut_21 [63:0] $end
$var reg 64 ~/ design_1_i/soc7_0_registersOut_22 [63:0] $end
$var reg 64 `0 design_1_i/soc7_0_registersOut_23 [63:0] $end
$var reg 64 B1 design_1_i/soc7_0_registersOut_24 [63:0] $end
$var reg 64 $2 design_1_i/soc7_0_registersOut_25 [63:0] $end
$var reg 64 d2 design_1_i/soc7_0_registersOut_26 [63:0] $end
$var reg 64 F3 design_1_i/soc7_0_registersOut_27 [63:0] $end
$var reg 64 (4 design_1_i/soc7_0_registersOut_28 [63:0] $end
$var reg 64 h4 design_1_i/soc7_0_registersOut_29 [63:0] $end
$var reg 64 J5 design_1_i/soc7_0_registersOut_30 [63:0] $end
$var reg 64 ,6 design_1_i/soc7_0_registersOut_31 [63:0] $end
$var reg 64 l6 design_1_i/soc7_0_registersOut_32 [63:0] $end
$var reg 1 N7 design_1_i/soc1_0_robOut_commitFired_1 $end
$var reg 64 O7 design_1_i/soc7_0_robOut_pc_1 [63:0] $end
$var reg 64 18 design_1_i/soc7_0_robOut_instruction_1 [63:0] $end
$var reg 32 q8 design_1_i/counter_1_0_count_out_1 [31:0] $end
$var reg 1 39 _TRIGGER $end
$var reg 1 49 _WINDOW $end
$var reg 1 59 _GAP $end
$upscope $end
$enddefinitions $end
#0
$dumpvars
b0 "
b0 b
b0 D"
b0 &#
b0 f#
b0 H$
b0 *%
b0 j%
b0 L&
b0 .'
b0 n'
b0 P(
b0 2)
b0 r)
b0 T*
b0 6+
b0 v+
b0 X,
b0 :-
b0 z-
b0 \.
b0 >/
b0 ~/
b0 `0
b0 B1
b0 $2
b0 d2
b0 F3
b0 (4
b0 h4
b0 J5
b0 ,6
b101000000000000000000000000000000000 l6
1N7
b10000000000000000000001111010000 O7
b110001101000100000110011 18
b11001010100001 q8
039
149
059
$end
#1
b10000000000000000000001011110100 b
b10000000000001111111111111100000 D"
b10000000000001000000000000000000 f#
b1111101000 *%
b1000000000000000000 j%
b1 .'
b111110100000 n'
b1010101010 P(
b111101100000 2)
b10000000000000000010011110100000 r)
b10000000000000000001100000000000 T*
b10000000000000000011011101001000 6+
b10000000000000000011011100000000 v+
b111101111 X,
b1 (4
b10000000000000000100011011101000 J5
b10000000000000000100011011101000 ,6
b10000000000000000000001111010100 O7
b110001110000010110110011 18
b11001010100010 q8
#2
b0 b
b0 D"
b0 f#
b0 *%
b0 j%
b0 .'
b0 n'
b0 P(
b0 2)
b0 r)
b0 T*
b0 6+
b0 v+
b0 X,
b0 (4
b0 J5
b0 ,6
0N7
b10000000000000000000001111011000 O7
b10000010100010000011 18
b11001010100011 q8
#85
1N7
#86
b10000000000000000000001011110100 b
b10000000000001111111111111100000 D"
b10000000000001000000000000000000 f#
b1111101000 *%
b1000000000000000000 j%
b1 .'
b111110100000 n'
b10000000000000000010011101100000 P(
b111101100000 2)
b10000000000000000010011110100000 r)
b10000000000000000001100000000000 T*
b10000000000000000011011101001000 6+
b10000000000000000011011100000000 v+
b1001100000 X,
b1 (4
b10000000000000000100011011101000 J5
b10000000000000000100011011101000 ,6
b10000000000000000000001111011100 O7
b1011010010110000011 18
b11001010100100 q8
#87
b10010011 P(
b10000000000000000000001111100000 O7
b110001111000100000110011 18
b11001010100101 q8
#88
b10000000000000000100011010101000 v+
b10000000000000000000001111100100 O7
b10001100000011000010011 18
b11001010100110 q8
#89
b0 b
b0 D"
b0 f#
b0 *%
b0 j%
b0 .'
b0 n'
b0 P(
b0 2)
b0 r)
b0 T*
b0 6+
b0 v+
b0 X,
b0 (4
b0 J5
b0 ,6
0N7
b10000000000000000000001111101000 O7
b1000101011000010110111011 18
b11001010100111 q8
#90
1N7
#91
0N7
b10000000000000000000001111101100 O7
b101110000010000000100011 18
b11001010101000 q8
#158
1N7
#159
b10000000000000000000001011110100 b
b10000000000001111111111111100000 D"
b10000000000001000000000000000000 f#
b1111101000 *%
b1000000000000000000 j%
b1 .'
b111110100000 n'
b1011110011 P(
b111101100100 2)
b10000000000000000010011110100000 r)
b10000000000000000001100000000000 T*
b10000000000000000011011101001000 6+
b10000000000000000100011010101000 v+
b1001100000 X,
b1 (4
b10000000000000000100011011101000 J5
b10000000000000000100011011101000 ,6
b10000000000000000000001111110000 O7
b11111110101001100001000011100011 18
b11001010101001 q8
#160
b10000000000000000000001111010000 O7
b110001101000100000110011 18
b11001010101010 q8
#161
b10000000000000000011011100000100 v+
b10000000000000000000001111010100 O7
b110001110000010110110011 18
b11001010101011 q8
#162
b10000000000000000010011101100100 P(
b10000000000000000000001111011000 O7
b10000010100010000011 18
b11001010101100 q8
#163
b1110100110 X,
b10000000000000000000001111011100 O7
b1011010010110000011 18
b11001010101101 q8
#164
b100000111 P(
b10000000000000000000001111100000 O7
b110001111000100000110011 18
b11001010101110 q8
#165
b10000000000000000100011010101100 v+
b10000000000000000000001111100100 O7
b10001100000011000010011 18
b11001010101111 q8
#166
b0 b
b0 D"
b0 f#
b0 *%
b0 j%
b0 .'
b0 n'
b0 P(
b0 2)
b0 r)
b0 T*
b0 6+
b0 v+
b0 X,
b0 (4
b0 J5
b0 ,6
0N7
b10000000000000000000001111101000 O7
b1000101011000010110111011 18
b11001010110000 q8
#167
1N7
#168
0N7
b10000000000000000000001111101100 O7
b101110000010000000100011 18
b11001010110001 q8
#174
1N7
#175
b10000000000000000000001011110100 b
b10000000000001111111111111100000 D"
b10000000000001000000000000000000 f#
b1111101000 *%
b1000000000000000000 j%
b1 .'
b111110100000 n'
b10010101101 P(
b111101101000 2)
b10000000000000000010011110100000 r)
b10000000000000000001100000000000 T*
b10000000000000000011011101001000 6+
b10000000000000000100011010101100 v+
b1110100110 X,
b1 (4
b10000000000000000100011011101000 J5
b10000000000000000100011011101000 ,6
b10000000000000000000001111110000 O7
b11111110101001100001000011100011 18
b11001010110010 q8
#176
b10000000000000000000001111010000 O7
b110001101000100000110011 18
b11001010110011 q8
#177
b10000000000000000011011100001000 v+
b10000000000000000000001111010100 O7
b110001110000010110110011 18
b11001010110100 q8
#178
b10000000000000000010011101101000 P(
b10000000000000000000001111011000 O7
b10000010100010000011 18
b11001010110101 q8
#179
b111101111 X,
b10000000000000000000001111011100 O7
b1011010010110000011 18
b11001010110110 q8
#180
b1100101 P(
b10000000000000000000001111100000 O7
b110001111000100000110011 18
b11001010110111 q8
#181
b10000000000000000100011010110000 v+
b10000000000000000000001111100100 O7
b10001100000011000010011 18
b11001010111000 q8
#182
b111101101100 2)
b10000000000000000000001111101000 O7
b1000101011000010110111011 18
b11001010111001 q8
#183
b0 b
b0 D"
b0 f#
b0 *%
b0 j%
b0 .'
b0 n'
b0 P(
b0 2)
b0 r)
b0 T*
b0 6+
b0 v+
b0 X,
b0 (4
b0 J5
b0 ,6
0N7
b10000000000000000000001111101100 O7
b101110000010000000100011 18
b11001010111010 q8
#189
1N7
#190
b10000000000000000000001011110100 b
b10000000000001111111111111100000 D"
b10000000000001000000000000000000 f#
b1111101000 *%
b1000000000000000000 j%
b1 .'
b111110100000 n'
b1001010100 P(
b111101101100 2)
b10000000000000000010011110100000 r)
b10000000000000000001100000000000 T*
b10000000000000000011011101001000 6+
b10000000000000000100011010110000 v+
b111101111 X,
b1 (4
b10000000000000000100011011101000 J5
b10000000000000000100011011101000 ,6
b10000000000000000000001111110000 O7
b11111110101001100001000011100011 18
b11001010111011 q8
#191
b10000000000000000000001111010000 O7
b110001101000100000110011 18
b11001010111100 q8
#192
b10000000000000000011011100001100 v+
b10000000000000000000001111010100 O7
b110001110000010110110011 18
b11001010111101 q8
#193
b10000000000000000010011101101100 P(
b10000000000000000000001111011000 O7
b10000010100010000011 18
b11001010111110 q8
#194
b11110111 X,
b10000000000000000000001111011100 O7
b1011010010110000011 18
b11001010111111 q8
#195
b1110011101 P(
b10000000000000000000001111100000 O7
b110001111000100000110011 18
b11001011000000 q8
#196
b10000000000000000100011010110100 v+
b10000000000000000000001111100100 O7
b10001100000011000010011 18
b11001011000001 q8
#197
b111101110000 2)
b10000000000000000000001111101000 O7
b1000101011000010110111011 18
b11001011000010 q8
#198
b0 b
b0 D"
b0 f#
b0 *%
b0 j%
b0 .'
b0 n'
b0 P(
b0 2)
b0 r)
b0 T*
b0 6+
b0 v+
b0 X,
b0 (4
b0 J5
b0 ,6
0N7
b10000000000000000000001111101100 O7
b101110000010000000100011 18
b11001011000011 q8
#206
1N7
#207
b10000000000000000000001011110100 b
b10000000000001111111111111100000 D"
b10000000000001000000000000000000 f#
b1111101000 *%
b1000000000000000000 j%
b1 .'
b111110100000 n'
b10010010100 P(
b111101110000 2)
b10000000000000000010011110100000 r)
b10000000000000000001100000000000 T*
b10000000000000000011011101001000 6+
b10000000000000000100011010110100 v+
b11110111 X,
b1 (4
b10000000000000000100011011101000 J5
b10000000000000000100011011101000 ,6
b10000000000000000000001111110000 O7
b11111110101001100001000011100011 18
b11001011000100 q8
#208
b0 b
b0 D"
b0 f#
b0 *%
b0 j%
b0 .'
b0 n'
b0 P(
b0 2)
b0 r)
b0 T*
b0 6+
b0 v+
b0 X,
b0 (4
b0 J5
b0 ,6
0N7
b10000000000000000000001111110100 O7
b1000000001100111 18
b11001011000101 q8
#213
b10000000000000000000001111010000 O7
b110001101000100000110011 18
#218
1N7
#219
b10000000000000000000001011110100 b
b10000000000001111111111111100000 D"
b10000000000001000000000000000000 f#
b1111101000 *%
b1000000000000000000 j%
b1 .'
b111110100000 n'
b10010010100 P(
b111101110000 2)
b10000000000000000010011110100000 r)
b10000000000000000001100000000000 T*
b10000000000000000011011101001000 6+
b10000000000000000011011100010000 v+
b11110111 X,
b1 (4
b10000000000000000100011011101000 J5
b10000000000000000100011011101000 ,6
b10000000000000000000001111010100 O7
b110001110000010110110011 18
b11001011000110 q8
#220
b0 b
b0 D"
b0 f#
b0 *%
b0 j%
b0 .'
b0 n'
b0 P(
b0 2)
b0 r)
b0 T*
b0 6+
b0 v+
b0 X,
b0 (4
b0 J5
b0 ,6
0N7
b10000000000000000000001111011000 O7
b10000010100010000011 18
b11001011000111 q8
#223
1N7
#224
0N7
b10000000000000000000001111011100 O7
b1011010010110000011 18
b11001011001000 q8
#226
1N7
#227
b10000000000000000000001011110100 b
b10000000000001111111111111100000 D"
b10000000000001000000000000000000 f#
b1111101000 *%
b1000000000000000000 j%
b1 .'
b111110100000 n'
b111000 P(
b111101110000 2)
b10000000000000000010011110100000 r)
b10000000000000000001100000000000 T*
b10000000000000000011011101001000 6+
b10000000000000000011011100010000 v+
b1000100100 X,
b1 (4
b10000000000000000100011011101000 J5
b10000000000000000100011011101000 ,6
b10000000000000000000001111100000 O7
b110001111000100000110011 18
b11001011001001 q8
#228
b10000000000000000100011010111000 v+
b10000000000000000000001111100100 O7
b10001100000011000010011 18
b11001011001010 q8
#229
b0 b
b0 D"
b0 f#
b0 *%
b0 j%
b0 .'
b0 n'
b0 P(
b0 2)
b0 r)
b0 T*
b0 6+
b0 v+
b0 X,
b0 (4
b0 J5
b0 ,6
0N7
b10000000000000000000001111101000 O7
b1000101011000010110111011 18
b11001011001011 q8
#230
1N7
#231
0N7
b10000000000000000000001111101100 O7
b101110000010000000100011 18
b11001011001100 q8
#237
1N7
#238
b10000000000000000000001011110100 b
b10000000000001111111111111100000 D"
b10000000000001000000000000000000 f#
b1111101000 *%
b1000000000000000000 j%
b1 .'
b111110100000 n'
b1001011100 P(
b111101110100 2)
b10000000000000000010011110100000 r)
b10000000000000000001100000000000 T*
b10000000000000000011011101001000 6+
b10000000000000000100011010111000 v+
b1000100100 X,
b1 (4
b10000000000000000100011011101000 J5
b10000000000000000100011011101000 ,6
b10000000000000000000001111110000 O7
b11111110101001100001000011100011 18
b11001011001101 q8
#239
b0 b
b0 D"
b0 f#
b0 *%
b0 j%
b0 .'
b0 n'
b0 P(
b0 2)
b0 r)
b0 T*
b0 6+
b0 v+
b0 X,
b0 (4
b0 J5
b0 ,6
0N7
b10000000000000000000001111010000 O7
b110001101000100000110011 18
b11001011001110 q8
#244
1N7
#245
b10000000000000000000001011110100 b
b10000000000001111111111111100000 D"
b10000000000001000000000000000000 f#
b1111101000 *%
b1000000000000000000 j%
b1 .'
b111110100000 n'
b1001011100 P(
b111101110100 2)
b10000000000000000010011110100000 r)
b10000000000000000001100000000000 T*
b10000000000000000011011101001000 6+
b10000000000000000011011100010100 v+
b1000100100 X,
b1 (4
b10000000000000000100011011101000 J5
b10000000000000000100011011101000 ,6
b10000000000000000000001111010100 O7
b110001110000010110110011 18
b11001011001111 q8
#246
b0 b
b0 D"
b0 f#
b0 *%
b0 j%
b0 .'
b0 n'
b0 P(
b0 2)
b0 r)
b0 T*
b0 6+
b0 v+
b0 X,
b0 (4
b0 J5
b0 ,6
0N7
b10000000000000000000001111011000 O7
b10000010100010000011 18
b11001011010000 q8
#249
1N7
#250
0N7
b10000000000000000000001111011100 O7
b1011010010110000011 18
b11001011010001 q8
#252
1N7
#253
b10000000000000000000001011110100 b
b10000000000001111111111111100000 D"
b10000000000001000000000000000000 f#
b1111101000 *%
b1000000000000000000 j%
b1 .'
b111110100000 n'
b1010100100 P(
b111101110100 2)
b10000000000000000010011110100000 r)
b10000000000000000001100000000000 T*
b10000000000000000011011101001000 6+
b10000000000000000011011100010100 v+
b1111111 X,
b1 (4
b10000000000000000100011011101000 J5
b10000000000000000100011011101000 ,6
b10000000000000000000001111100000 O7
b110001111000100000110011 18
b11001011010010 q8
#254
b10000000000000000100011010111100 v+
b10000000000000000000001111100100 O7
b10001100000011000010011 18
b11001011010011 q8
#255
b0 b
b0 D"
b0 f#
b0 *%
b0 j%
b0 .'
b0 n'
b0 P(
b0 2)
b0 r)
b0 T*
b0 6+
b0 v+
b0 X,
b0 (4
b0 J5
b0 ,6
0N7
b10000000000000000000001111101000 O7
b1000101011000010110111011 18
b11001011010100 q8
#256
1N7
#257
0N7
b10000000000000000000001111101100 O7
b101110000010000000100011 18
b11001011010101 q8
#263
1N7
#264
b10000000000000000000001011110100 b
b10000000000001111111111111100000 D"
b10000000000001000000000000000000 f#
b1111101000 *%
b1000000000000000000 j%
b1 .'
b111110100000 n'
b1100100011 P(
b111101111000 2)
b10000000000000000010011110100000 r)
b10000000000000000001100000000000 T*
b10000000000000000011011101001000 6+
b10000000000000000100011010111100 v+
b1111111 X,
b1 (4
b10000000000000000100011011101000 J5
b10000000000000000100011011101000 ,6
b10000000000000000000001111110000 O7
b11111110101001100001000011100011 18
b11001011010110 q8
#265
b0 b
b0 D"
b0 f#
b0 *%
b0 j%
b0 .'
b0 n'
b0 P(
b0 2)
b0 r)
b0 T*
b0 6+
b0 v+
b0 X,
b0 (4
b0 J5
b0 ,6
0N7
b10000000000000000000001111010000 O7
b110001101000100000110011 18
b11001011010111 q8
#270
1N7
#271
b10000000000000000000001011110100 b
b10000000000001111111111111100000 D"
b10000000000001000000000000000000 f#
b1111101000 *%
b1000000000000000000 j%
b1 .'
b111110100000 n'
b1100100011 P(
b111101111000 2)
b10000000000000000010011110100000 r)
b10000000000000000001100000000000 T*
b10000000000000000011011101001000 6+
b10000000000000000011011100011000 v+
b1111111 X,
b1 (4
b10000000000000000100011011101000 J5
b10000000000000000100011011101000 ,6
b10000000000000000000001111010100 O7
b110001110000010110110011 18
b11001011011000 q8
#272
b0 b
b0 D"
b0 f#
b0 *%
b0 j%
b0 .'
b0 n'
b0 P(
b0 2)
b0 r)
b0 T*
b0 6+
b0 v+
b0 X,
b0 (4
b0 J5
b0 ,6
0N7
b10000000000000000000001111011000 O7
b10000010100010000011 18
b11001011011001 q8
#275
1N7
#276
0N7
b10000000000000000000001111011100 O7
b1011010010110000011 18
b11001011011010 q8
#278
1N7
#279
b10000000000000000000001011110100 b
b10000000000001111111111111100000 D"
b10000000000001000000000000000000 f#
b1111101000 *%
b1000000000000000000 j%
b1 .'
b111110100000 n'
b110100001 P(
b111101111000 2)
b10000000000000000010011110100000 r)
b10000000000000000001100000000000 T*
b10000000000000000011011101001000 6+
b10000000000000000011011100011000 v+
b101110 X,
b1 (4
b10000000000000000100011011101000 J5
b10000000000000000100011011101000 ,6
b10000000000000000000001111100000 O7
b110001111000100000110011 18
b11001011011011 q8
#280
b10000000000000000100011011000000 v+
b10000000000000000000001111100100 O7
b10001100000011000010011 18
b11001011011100 q8
#281
b0 b
b0 D"
b0 f#
b0 *%
b0 j%
b0 .'
b0 n'
b0 P(
b0 2)
b0 r)
b0 T*
b0 6+
b0 v+
b0 X,
b0 (4
b0 J5
b0 ,6
0N7
b10000000000000000000001111101000 O7
b1000101011000010110111011 18
b11001011011101 q8
#282
1N7
#283
0N7
b10000000000000000000001111101100 O7
b101110000010000000100011 18
b11001011011110 q8
#289
1N7
#290
b10000000000000000000001011110100 b
b10000000000001111111111111100000 D"
b10000000000001000000000000000000 f#
b1111101000 *%
b1000000000000000000 j%
b1 .'
b111110100000 n'
b111001111 P(
b111101111100 2)
b10000000000000000010011110100000 r)
b10000000000000000001100000000000 T*
b10000000000000000011011101001000 6+
b10000000000000000100011011000000 v+
b101110 X,
b1 (4
b10000000000000000100011011101000 J5
b10000000000000000100011011101000 ,6
b10000000000000000000001111110000 O7
b11111110101001100001000011100011 18
b11001011011111 q8
#291
b0 b
b0 D"
b0 f#
b0 *%
b0 j%
b0 .'
b0 n'
b0 P(
b0 2)
b0 r)
b0 T*
b0 6+
b0 v+
b0 X,
b0 (4
b0 J5
b0 ,6
0N7
b10000000000000000000001111010000 O7
b110001101000100000110011 18
b11001011100000 q8
#296
1N7
#297
b10000000000000000000001011110100 b
b10000000000001111111111111100000 D"
b10000000000001000000000000000000 f#
b1111101000 *%
b1000000000000000000 j%
b1 .'
b111110100000 n'
b111001111 P(
b111101111100 2)
b10000000000000000010011110100000 r)
b10000000000000000001100000000000 T*
b10000000000000000011011101001000 6+
b10000000000000000011011100011100 v+
b101110 X,
b1 (4
b10000000000000000100011011101000 J5
b10000000000000000100011011101000 ,6
b10000000000000000000001111010100 O7
b110001110000010110110011 18
b11001011100001 q8
#298
b0 b
b0 D"
b0 f#
b0 *%
b0 j%
b0 .'
b0 n'
b0 P(
b0 2)
b0 r)
b0 T*
b0 6+
b0 v+
b0 X,
b0 (4
b0 J5
b0 ,6
0N7
b10000000000000000000001111011000 O7
b10000010100010000011 18
b11001011100010 q8
#301
1N7
#302
0N7
b10000000000000000000001111011100 O7
b1011010010110000011 18
b11001011100011 q8
#304
1N7
#305
b10000000000000000000001011110100 b
b10000000000001111111111111100000 D"
b10000000000001000000000000000000 f#
b1111101000 *%
b1000000000000000000 j%
b1 .'
b111110100000 n'
b1001100011 P(
b111101111100 2)
b10000000000000000010011110100000 r)
b10000000000000000001100000000000 T*
b10000000000000000011011101001000 6+
b10000000000000000011011100011100 v+
b1100101101 X,
b1 (4
b10000000000000000100011011101000 J5
b10000000000000000100011011101000 ,6
b10000000000000000000001111100000 O7
b110001111000100000110011 18
b11001011100100 q8
#306
b10000000000000000100011011000100 v+
b10000000000000000000001111100100 O7
b10001100000011000010011 18
b11001011100101 q8
#307
b0 b
b0 D"
b0 f#
b0 *%
b0 j%
b0 .'
b0 n'
b0 P(
b0 2)
b0 r)
b0 T*
b0 6+
b0 v+
b0 X,
b0 (4
b0 J5
b0 ,6
0N7
b10000000000000000000001111101000 O7
b1000101011000010110111011 18
b11001011100110 q8
#308
1N7
#309
0N7
b10000000000000000000001111101100 O7
b101110000010000000100011 18
b11001011100111 q8
#315
1N7
#316
b10000000000000000000001011110100 b
b10000000000001111111111111100000 D"
b10000000000001000000000000000000 f#
b1111101000 *%
b1000000000000000000 j%
b1 .'
b111110100000 n'
b10110010000 P(
b111110000000 2)
b10000000000000000010011110100000 r)
b10000000000000000001100000000000 T*
b10000000000000000011011101001000 6+
b10000000000000000100011011000100 v+
b1100101101 X,
b1 (4
b10000000000000000100011011101000 J5
b10000000000000000100011011101000 ,6
b10000000000000000000001111110000 O7
b11111110101001100001000011100011 18
b11001011101000 q8
#317
b0 b
b0 D"
b0 f#
b0 *%
b0 j%
b0 .'
b0 n'
b0 P(
b0 2)
b0 r)
b0 T*
b0 6+
b0 v+
b0 X,
b0 (4
b0 J5
b0 ,6
0N7
b10000000000000000000001111010000 O7
b110001101000100000110011 18
b11001011101001 q8
#322
1N7
#323
b10000000000000000000001011110100 b
b10000000000001111111111111100000 D"
b10000000000001000000000000000000 f#
b1111101000 *%
b1000000000000000000 j%
b1 .'
b111110100000 n'
b10110010000 P(
b111110000000 2)
b10000000000000000010011110100000 r)
b10000000000000000001100000000000 T*
b10000000000000000011011101001000 6+
b10000000000000000011011100100000 v+
b1100101101 X,
b1 (4
b10000000000000000100011011101000 J5
b10000000000000000100011011101000 ,6
b10000000000000000000001111010100 O7
b110001110000010110110011 18
b11001011101010 q8
#324
b0 b
b0 D"
b0 f#
b0 *%
b0 j%
b0 .'
b0 n'
b0 P(
b0 2)
b0 r)
b0 T*
b0 6+
b0 v+
b0 X,
b0 (4
b0 J5
b0 ,6
0N7
b10000000000000000000001111011000 O7
b10000010100010000011 18
b11001011101011 q8
#327
1N7
#328
0N7
b10000000000000000000001111011100 O7
b1011010010110000011 18
b11001011101100 q8
#330
1N7
#331
b10000000000000000000001011110100 b
b10000000000001111111111111100000 D"
b10000000000001000000000000000000 f#
b1111101000 *%
b1000000000000000000 j%
b1 .'
b111110100000 n'
b10100010 P(
b111110000000 2)
b10000000000000000010011110100000 r)
b10000000000000000001100000000000 T*
b10000000000000000011011101001000 6+
b10000000000000000011011100100000 v+
b110011100 X,
b1 (4
b10000000000000000100011011101000 J5
b10000000000000000100011011101000 ,6
b10000000000000000000001111100000 O7
b110001111000100000110011 18
b11001011101101 q8
#332
b10000000000000000100011011001000 v+
b10000000000000000000001111100100 O7
b10001100000011000010011 18
b11001011101110 q8
#333
b0 b
b0 D"
b0 f#
b0 *%
b0 j%
b0 .'
b0 n'
b0 P(
b0 2)
b0 r)
b0 T*
b0 6+
b0 v+
b0 X,
b0 (4
b0 J5
b0 ,6
0N7
b10000000000000000000001111101000 O7
b1000101011000010110111011 18
b11001011101111 q8
#334
1N7
#335
0N7
b10000000000000000000001111101100 O7
b101110000010000000100011 18
b11001011110000 q8
#341
1N7
#342
b10000000000000000000001011110100 b
b10000000000001111111111111100000 D"
b10000000000001000000000000000000 f#
b1111101000 *%
b1000000000000000000 j%
b1 .'
b111110100000 n'
b1000111110 P(
b111110000100 2)
b10000000000000000010011110100000 r)
b10000000000000000001100000000000 T*
b10000000000000000011011101001000 6+
b10000000000000000100011011001000 v+
b110011100 X,
b1 (4
b10000000000000000100011011101000 J5
b10000000000000000100011011101000 ,6
b10000000000000000000001111110000 O7
b11111110101001100001000011100011 18
b11001011110001 q8
#343
b0 b
b0 D"
b0 f#
b0 *%
b0 j%
b0 .'
b0 n'
b0 P(
b0 2)
b0 r)
b0 T*
b0 6+
b0 v+
b0 X,
b0 (4
b0 J5
b0 ,6
0N7
b10000000000000000000001111010000 O7
b110001101000100000110011 18
b11001011110010 q8
#348
1N7
#349
b10000000000000000000001011110100 b
b10000000000001111111111111100000 D"
b10000000000001000000000000000000 f#
b1111101000 *%
b1000000000000000000 j%
b1 .'
b111110100000 n'
b1000111110 P(
b111110000100 2)
b10000000000000000010011110100000 r)
b10000000000000000001100000000000 T*
b10000000000000000011011101001000 6+
b10000000000000000011011100100100 v+
b110011100 X,
b1 (4
b10000000000000000100011011101000 J5
b10000000000000000100011011101000 ,6
b10000000000000000000001111010100 O7
b110001110000010110110011 18
b11001011110011 q8
#350
b0 b
b0 D"
b0 f#
b0 *%
b0 j%
b0 .'
b0 n'
b0 P(
b0 2)
b0 r)
b0 T*
b0 6+
b0 v+
b0 X,
b0 (4
b0 J5
b0 ,6
0N7
b10000000000000000000001111011000 O7
b10000010100010000011 18
b11001011110100 q8
#353
1N7
#354
0N7
b10000000000000000000001111011100 O7
b1011010010110000011 18
b11001011110101 q8
#356
1N7
#357
b10000000000000000000001011110100 b
b10000000000001111111111111100000 D"
b10000000000001000000000000000000 f#
b1111101000 *%
b1000000000000000000 j%
b1 .'
b111110100000 n'
b111110000100 2)
b10000000000000000010011110100000 r)
b10000000000000000001100000000000 T*
b10000000000000000011011101001000 6+
b10000000000000000011011100100100 v+
b1111000 X,
b1 (4
b10000000000000000100011011101000 J5
b10000000000000000100011011101000 ,6
b10000000000000000000001111100000 O7
b110001111000100000110011 18
b11001011110110 q8
#358
b10000000000000000100011011001100 v+
b10000000000000000000001111100100 O7
b10001100000011000010011 18
b11001011110111 q8
#359
b0 b
b0 D"
b0 f#
b0 *%
b0 j%
b0 .'
b0 n'
b0 2)
b0 r)
b0 T*
b0 6+
b0 v+
b0 X,
b0 (4
b0 J5
b0 ,6
0N7
b10000000000000000000001111101000 O7
b1000101011000010110111011 18
b11001011111000 q8
#360
1N7
#361
0N7
b10000000000000000000001111101100 O7
b101110000010000000100011 18
b11001011111001 q8
#367
1N7
#368
b10000000000000000000001011110100 b
b10000000000001111111111111100000 D"
b10000000000001000000000000000000 f#
b1111101000 *%
b1000000000000000000 j%
b1 .'
b111110100000 n'
b1111000 P(
b111110001000 2)
b10000000000000000010011110100000 r)
b10000000000000000001100000000000 T*
b10000000000000000011011101001000 6+
b10000000000000000100011011001100 v+
b1111000 X,
b1 (4
b10000000000000000100011011101000 J5
b10000000000000000100011011101000 ,6
b10000000000000000000001111110000 O7
b11111110101001100001000011100011 18
b11001011111010 q8
#369
b0 b
b0 D"
b0 f#
b0 *%
b0 j%
b0 .'
b0 n'
b0 P(
b0 2)
b0 r)
b0 T*
b0 6+
b0 v+
b0 X,
b0 (4
b0 J5
b0 ,6
0N7
b10000000000000000000001111010000 O7
b110001101000100000110011 18
b11001011111011 q8
#374
1N7
#375
b10000000000000000000001011110100 b
b10000000000001111111111111100000 D"
b10000000000001000000000000000000 f#
b1111101000 *%
b1000000000000000000 j%
b1 .'
b111110100000 n'
b1111000 P(
b111110001000 2)
b10000000000000000010011110100000 r)
b10000000000000000001100000000000 T*
b10000000000000000011011101001000 6+
b10000000000000000011011100101000 v+
b1111000 X,
b1 (4
b10000000000000000100011011101000 J5
b10000000000000000100011011101000 ,6
b10000000000000000000001111010100 O7
b110001110000010110110011 18
b11001011111100 q8
#376
b0 b
b0 D"
b0 f#
b0 *%
b0 j%
b0 .'
b0 n'
b0 P(
b0 2)
b0 r)
b0 T*
b0 6+
b0 v+
b0 X,
b0 (4
b0 J5
b0 ,6
0N7
b10000000000000000000001111011000 O7
b10000010100010000011 18
b11001011111101 q8
#379
1N7
#380
0N7
b10000000000000000000001111011100 O7
b1011010010110000011 18
b11001011111110 q8
#382
1N7
#383
b10000000000000000000001011110100 b
b10000000000001111111111111100000 D"
b10000000000001000000000000000000 f#
b1111101000 *%
b1000000000000000000 j%
b1 .'
b111110100000 n'
b1001100110 P(
b111110001000 2)
b10000000000000000010011110100000 r)
b10000000000000000001100000000000 T*
b10000000000000000011011101001000 6+
b10000000000000000011011100101000 v+
b110011 X,
b1 (4
b10000000000000000100011011101000 J5
b10000000000000000100011011101000 ,6
b10000000000000000000001111100000 O7
b110001111000100000110011 18
b11001011111111 q8
#384
b10000000000000000100011011010000 v+
b10000000000000000000001111100100 O7
b10001100000011000010011 18
b11001100000000 q8
#385
b0 b
b0 D"
b0 f#
b0 *%
b0 j%
b0 .'
b0 n'
b0 P(
b0 2)
b0 r)
b0 T*
b0 6+
b0 v+
b0 X,
b0 (4
b0 J5
b0 ,6
0N7
b10000000000000000000001111101000 O7
b1000101011000010110111011 18
b11001100000001 q8
#386
1N7
#387
0N7
b10000000000000000000001111101100 O7
b101110000010000000100011 18
b11001100000010 q8
#393
1N7
