test_uart12.vcd
$date
        2025-Apr-25 18:17:55
$end
$version
        Vivado v2024.2 (64-bit)
$end
$timescale
        1ps
$end
$scope module dut $end
$var reg 1 " design_1_i/soc10_0_robOut_commitFired $end
$var reg 64 # design_1_i/soc10_0_robOut_pc [63:0] $end
$var reg 64 c design_1_i/soc10_0_robOut_instruction [63:0] $end
$var reg 64 E" design_1_i/soc14_0_memAccessOut_schedulerReqIn_info [63:0] $end
$var reg 64 '# design_1_i/soc14_0_memAccessOut_schedulerReqIn_data [63:0] $end
$var reg 64 g# design_1_i/soc14_0_memAccessOut_schedulerReqOut_info [63:0] $end
$var reg 64 I$ design_1_i/soc14_0_memAccessOut_schedulerReqOut_data [63:0] $end
$var reg 64 +% design_1_i/soc14_0_memAccessOut_arbiterOperBuffer_info [63:0] $end
$var reg 64 k% design_1_i/soc14_0_memAccessOut_arbiterOperBuffer_data [63:0] $end
$var reg 64 M& design_1_i/soc14_0_memAccessOut_peripheralUnitReqBuff_info [63:0] $end
$var reg 64 /' design_1_i/soc14_0_memAccessOut_peripheralUnitReqBuff_data [63:0] $end
$var reg 64 o' design_1_i/soc14_0_memAccessOut_peripheralUnitRespBuff_info [63:0] $end
$var reg 64 Q( design_1_i/soc14_0_memAccessOut_peripheralUnitRespBuff_data [63:0] $end
$var reg 64 3) design_1_i/soc14_0_memAccessOut_peripheralUnitReadData [63:0] $end
$var reg 64 s) design_1_i/soc14_0_memAccessOut_responseOut_info [63:0] $end
$var reg 32 U* design_1_i/counter_1_0_count_out [31:0] $end
$var reg 64 u* design_1_i/soc14_0_memAccessOut_responseOut_data [63:0] $end
$var reg 64 W+ design_1_i/soc14_0_memAccessOut_arbiterStatesWire [63:0] $end
$var reg 64 9, design_1_i/soc14_0_memAccessOut_arbiterInorderBuffer_info [63:0] $end
$var reg 64 y, design_1_i/soc14_0_memAccessOut_arbiterInorderBuffer_data [63:0] $end
$var reg 64 [- design_1_i/soc14_0_memAccessOut_peripheralReadyStatesWire [63:0] $end
$var reg 1 =. _TRIGGER $end
$var reg 1 >. _WINDOW $end
$var reg 1 ?. _GAP $end
$upscope $end
$enddefinitions $end
#0
$dumpvars
0"
b10000000000000000000001001100000 #
b100010011100000011 c
b0 E"
b0 '#
b0 g#
b0 I$
b1000000000000100000000000000000000000000111000100010000000100011 +%
b1000100000001111000001111 k%
b0 M&
b0 /'
b0 o'
b0 Q(
b0 3)
b0 s)
b11001100111001 U*
b0 u*
b0 W+
b0 9,
b0 y,
b10000000000000001 [-
0=.
1>.
0?.
$end
#62
b1000000000000100000000000000000000000000000000100010011010000011 E"
b100010010011100000110 '#
#63
b0 E"
b0 '#
#65
b1000000000000000010010000101110000000000000001110010011110000011 E"
b100010010101100001001 '#
#66
b0 E"
b0 '#
#127
b10010000110000000000000000100010011100000011 s)
b1111100111 u*
#128
1"
b0 s)
b0 u*
#129
b10000000000000000000001001100100 #
b100000000011010010011 c
b11001100111010 U*
#130
0"
b10000000000000000000001001101000 #
b101110011011100010011 c
b11001100111011 U*
#133
1"
#134
0"
b10000000000000000000001001101100 #
b111000100010000000100011 c
b11001100111100 U*
#135
b10000100000001111000001111 k%
#138
b100000100000001111000001111 k%
b100000000 W+
b1000000000000100000000000000000000000000111000100010000000100011 9,
b100000100000001111000001111 y,
#139
b1000000000000000010010000101100000000110110101110010011100101111 g#
b100000010001000000010 I$
b0 W+
b0 9,
b0 y,
#140
1"
b0 g#
b0 I$
b1000000000000000010010000101100000000110110101110010011100101111 +%
b100000100000010001000000010 k%
#141
b10000000000000000000001001110000 #
b100011100010111 c
b100000010001000000010 k%
b11001100111101 U*
#142
b10000000000000000000001001110100 #
b1011110100001110000011100010011 c
b11000100000010001000000010 k%
b11001100111110 U*
b100000000 W+
b1000000000000000010010000101100000000110110101110010011100101111 9,
b11000100000010001000000010 y,
#143
0"
b10000000000000000000001001111000 #
b110110101110010011100101111 c
b1000100000001000000110110101110010011100101111 s)
b11001100111111 U*
b0 W+
b0 9,
b0 y,
#144
b1000100000010001000000010 k%
b0 s)
#145
b10000100000010001000000010 k%
#148
b100000100000010001000000010 k%
b100000000 W+
b1000000000000000010010000101100000000110110101110010011100101111 9,
b100000100000010001000000010 y,
#149
b0 W+
b0 9,
b0 y,
#150
1"
#151
b10000000000000000000001001111100 #
b1110000011100011011 c
b0 +%
b0 k%
b11001101000000 U*
#152
b10000000000000000000001010000000 #
b11111111111101010000010100011011 c
b11001101000001 U*
#153
b10000000000000000000001010000100 #
b10111001010000000001100011 c
b11001101000010 U*
#154
0"
b10000000000000000000001010001000 #
b100010011010000011 c
b11001101000011 U*
#243
b10000000000000000000001010100100 #
b100010011110000011 c
#247
b1000000000000100000000000000000000000000000000100010011110000011 E"
b100000000010100000110 '#
#248
b0 E"
b0 '#
b1000000000000100000000000000000000000000000000100010011110000011 g#
b100000000010100000110 I$
#249
b1000000000000000010010000101100001011010000001110010100000100011 E"
b100000001010000001000 '#
b0 g#
b0 I$
b1000000000000100000000000000000000000000000000100010011110000011 +%
b100000000010100000110 k%
#250
b0 E"
b0 '#
b0 +%
b0 k%
b100000000 W+
b1000000000000100000000000000000000000000000000100010011110000011 9,
b100000000010100000110 y,
#251
b1000000000000000010010000101110001011010111101110010011000100011 E"
b100000001101000001010 '#
b1000000000000000010010000101100001011010000001110010100000100011 g#
b100000001010000001000 I$
b1010000011000000000000000100010011110000011 s)
b0 W+
b0 9,
b0 y,
#252
b0 E"
b0 '#
b0 g#
b0 I$
b1000000000000000010010000101100001011010000001110010100000100011 +%
b100000001010000001000 k%
b0 s)
#253
1"
b1000100000001010000001000 k%
#254
b10000000000000000000001010101000 #
b100011100010111 c
b11001101000100 U*
#255
0"
b10000000000000000000001010101100 #
b1011010000001110010100000100011 c
b11001101000101 U*
#256
b10000100000001010000001000 k%
#259
b100000100000001010000001000 k%
b100000000 W+
b1000000000000000010010000101100001011010000001110010100000100011 9,
b100000100000001010000001000 y,
#260
b1000000000000000010010000101110001011010111101110010011000100011 g#
b100000001101000001010 I$
b0 W+
b0 9,
b0 y,
#261
1"
b0 g#
b0 I$
b1000000000000000010010000101110001011010111101110010011000100011 +%
b100000100000001101000001010 k%
#262
b10000000000000000000001010110000 #
b100011100010111 c
b100000001101000001010 k%
b11001101000110 U*
#263
0"
b10000000000000000000001010110100 #
b1011010111101110010011000100011 c
b1000100000001101000001010 k%
b11001101000111 U*
#264
b10000100000001101000001010 k%
#267
b100000100000001101000001010 k%
b100000000 W+
b1000000000000000010010000101110001011010111101110010011000100011 9,
b100000100000001101000001010 y,
#268
b0 W+
b0 9,
b0 y,
#269
1"
#270
b10000000000000000000001010111000 #
b11111110010111111111000001101111 c
b0 +%
b0 k%
b11001101001000 U*
#271
0"
b10000000000000000000001010111100 #
b100011110010111 c
b11001101001001 U*
#335
1"
b10000000000000000000001010011100 #
b1111111100000000000000001111 c
#336
0"
b10000000000000000000001001100100 #
b100000000011010010011 c
b11001101001010 U*
#423
b10000000000000000000001010100000 #
b1000000001100111 c
#428
1"
#429
0"
b10000000000000000000001010100100 #
b100010011110000011 c
b11001101001011 U*
#595
b10000000000000000000001100101100 #
b1000000011001100011 c
#600
1"
#601
0"
b10000000000000000000001100110000 #
b1000000000010100010011 c
b11001101001100 U*
#687
1"
b10000000000000000000001100111000 #
b10100010111 c
#688
0"
b10000000000000000000001100111100 #
b1100011000001010000010100010011 c
b11001101001101 U*
#694
1"
#695
b10000000000000000000001101000000 #
b11010010000000000000011101111 c
b11001101001110 U*
#696
0"
b10000000000000000000001101000100 #
b11011100010111 c
b11001101001111 U*
#783
b10000000000000000000010011100100 #
b1010100011010000011 c
#787
b1000000000000000000010010110100000000000000001010100011010000011 E"
b100000000011000000010 '#
#788
b0 E"
b0 '#
b1000000000000000000010010110100000000000000001010100011010000011 g#
b1000100000000011000000010 I$
#789
b0 g#
b0 I$
#882
b100000001100000000000000000100000000000000001110010011110000011 E"
b100010010010000001001 '#
#883
b0 E"
b0 '#
#887
b100000001100000000000000000010000000000110101100010000000100011 E"
b100110010100100001101 '#
#888
b1000000000000000000010010110100100000000000001010100011010000011 E"
b100110010100100001110 '#
#889
b0 E"
b0 '#
b1000000000000000000010010110100100000000000001010100011010000011 g#
b1000100110010100100001110 I$
#890
b0 g#
b0 I$
#950
b1100000001000000000000001010100011010000011 s)
b1010100 u*
#951
1"
b0 s)
b0 u*
#952
0"
b10000000000000000000010011101000 #
b10000001101000101001100011 c
b11001101010000 U*
#955
b100000001100000000000000000100000000000000001110010011110000011 g#
b100000010010000001001 I$
#956
1"
b0 g#
b0 I$
b100000001100000000000000000100000000000000001110010011110000011 +%
b100000010010000001001 k%
#957
b10000000000000000000010011101100 #
b1000000011000000000011100110111 c
b0 +%
b0 k%
b11001101010001 U*
b100000001 W+
b100000001100000000000000000100000000000000001110010011110000011 9,
b100000010010000001001 y,
#958
b10000000000000000000010011110000 #
b1000000011000000000011000110111 c
b100000001100000000000000000100000000000000001110010011110000011 M&
b10010000001001 /'
b11001101010010 U*
b0 W+
b0 9,
b0 y,
b100010000000000000000 [-
#959
b10000000000000000000010011110100 #
b100001110000011100010011 c
b0 M&
b0 /'
b11001101010011 U*
b10000000000000001 [-
#960
b10000000000000000000010011111000 #
b10001100000011000010011 c
b11001101010100 U*
#961
b10000000000000000000010011111100 #
b101010000010100010011 c
b11001101010101 U*
#962
0"
b10000000000000000000010100000000 #
b1110010011110000011 c
b100000001100000000000000000100000000000000001110010011110000011 o'
b10010010000001001 Q(
b11001101010110 U*
#995
b100010010000001001 Q(
#996
b100 3)
b1001000000100100000000000001110010011110000011 s)
b100 u*
#997
1"
b0 o'
b0 Q(
b0 3)
b0 s)
b0 u*
#998
0"
b10000000000000000000010100000100 #
b100001111111011110010011 c
b11001101010111 U*
#1002
1"
b100000001100000000000000000010000000000110101100010000000100011 g#
b100000010100100001101 I$
#1003
b10000000000000000000010100001000 #
b11111110000001111001110011100011 c
b0 g#
b0 I$
b100000001100000000000000000010000000000110101100010000000100011 +%
b100000010100100001101 k%
b11001101011000 U*
#1004
b10000000000000000000010100001100 #
b1101000011010011011 c
b1000100000010100100001101 k%
b11001101011001 U*
#1005
0"
b10000000000000000000010100010000 #
b110101100010000000100011 c
b11001101011010 U*
#1006
b10000100000010100100001101 k%
#1009
b100000100000010100100001101 k%
b100010000 W+
b100000001100000000000000000010000000000110101100010000000100011 9,
b100000100000010100100001101 y,
#1010
b100000001100000000000000000010000000000110101100010000000100011 M&
b10100100001101 /'
b0 W+
b0 9,
b0 y,
b100010000000000000000 [-
#1011
b0 M&
b0 /'
b10000000000000001 [-
#1014
1"
b10001000100010000 [-
#1015
0"
b10000000000000000000010100010100 #
b1010100011010000011 c
b0 +%
b0 k%
b11001101011011 U*
b10000000100010000 [-
#1021
b100000001100000000000000000100000000000000001110010011110000011 E"
b111110000011100000101 '#
#1022
b0 E"
b0 '#
b1010010000111000000000000001010100011010000011 s)
b1101000 u*
#1023
1"
b0 s)
b0 u*
#1024
0"
b10000000000000000000010100011000 #
b11111110000001101001001011100011 c
b11001101011100 U*
1=.
#1028
1"
#1029
0"
b10000000000000000000010100011100 #
b1000000001100111 c
b11001101011101 U*
#1118
b10000000000000000000010011111100 #
b101010000010100010011 c
#1123
1"
b100000001100000000000000000100000000000000001110010011110000011 E"
b100000000011000000001 '#
#1124
0"
b10000000000000000000010100000000 #
b1110010011110000011 c
b0 E"
b0 '#
b100000001100000000000000000100000000000000001110010011110000011 g#
b100000000011000000001 I$
b11001101011110 U*
#1125
b0 g#
b0 I$
b100000001100000000000000000100000000000000001110010011110000011 +%
b100000000011000000001 k%
#1126
b0 +%
b0 k%
b1 W+
b100000001100000000000000000100000000000000001110010011110000011 9,
b100000000011000000001 y,
#1127
b100000001100000000000000000010000000000110101100010000000100011 E"
b100010001010000000101 '#
#1128
b1000000000000000000010010110101000000000000001010100011010000011 E"
b100010001010000000110 '#
#1129
b0 E"
b0 '#
b1000000000000000000010010110101000000000000001010100011010000011 g#
b1000100010001010000000110 I$
#1130
b0 g#
b0 I$
#1131
b101000000011000000000000001010100011010000011 s)
b1100101 u*
#1132
b0 s)
b0 u*
