test_uart9.vcd
$date
        2025-Apr-25 06:26:22
$end
$version
        Vivado v2024.2 (64-bit)
$end
$timescale
        1ps
$end
$scope module dut $end
$var reg 1 " design_1_i/soc10_0_robOut_commitFired $end
$var reg 64 # design_1_i/soc10_0_robOut_pc [63:0] $end
$var reg 64 c design_1_i/soc10_0_robOut_instruction [63:0] $end
$var reg 64 E" design_1_i/soc12_0_memAccessOut_schedulerReqIn_info [63:0] $end
$var reg 64 '# design_1_i/soc12_0_memAccessOut_schedulerReqIn_data [63:0] $end
$var reg 64 g# design_1_i/soc12_0_memAccessOut_schedulerReqOut_info [63:0] $end
$var reg 64 I$ design_1_i/soc12_0_memAccessOut_schedulerReqOut_data [63:0] $end
$var reg 64 +% design_1_i/soc12_0_memAccessOut_arbiterSpecBuffer_info [63:0] $end
$var reg 64 k% design_1_i/soc12_0_memAccessOut_arbiterSpecBuffer_data [63:0] $end
$var reg 64 M& design_1_i/soc12_0_memAccessOut_arbiterOperBuffer_info [63:0] $end
$var reg 64 /' design_1_i/soc12_0_memAccessOut_arbiterOperBuffer_data [63:0] $end
$var reg 64 o' design_1_i/soc12_0_memAccessOut_peripheralUnitReqBuff_info [63:0] $end
$var reg 64 Q( design_1_i/soc12_0_memAccessOut_peripheralUnitReqBuff_data [63:0] $end
$var reg 64 3) design_1_i/soc12_0_memAccessOut_peripheralUnitRespBuff_info [63:0] $end
$var reg 64 s) design_1_i/soc12_0_memAccessOut_peripheralUnitRespBuff_data [63:0] $end
$var reg 32 U* design_1_i/counter_1_0_count_out [31:0] $end
$var reg 64 u* design_1_i/soc12_0_memAccessOut_peripheralUnitReadData [63:0] $end
$var reg 64 W+ design_1_i/soc12_0_memAccessOut_responseOut_info [63:0] $end
$var reg 64 9, design_1_i/soc12_0_memAccessOut_responseOut_data [63:0] $end
$var reg 1 y, _TRIGGER $end
$var reg 1 z, _WINDOW $end
$var reg 1 {, _GAP $end
$upscope $end
$enddefinitions $end
#0
$dumpvars
0"
b10000000000000000000001001100000 #
b100010011100000011 c
b0 E"
b0 '#
b0 g#
b0 I$
b0 +%
b0 k%
b1000000000000100000000000000000000000000111000100010000000100011 M&
b1000100000001111000000111 /'
b0 o'
b0 Q(
b0 3)
b0 s)
b11001100110111 U*
b0 u*
b0 W+
b0 9,
0y,
1z,
0{,
$end
#33
b10010000010000000000000000100010011100000011 W+
b10100111001001100100 9,
#34
1"
b0 W+
b0 9,
#35
b10000000000000000000001001100100 #
b100000000011010010011 c
b11001100111000 U*
#36
0"
b10000000000000000000001001101000 #
b101110011011100010011 c
b11001100111001 U*
#39
1"
#40
0"
b10000000000000000000001001101100 #
b111000100010000000100011 c
b11001100111010 U*
#41
b10000100000001111000000111 /'
#44
b100000100000001111000000111 /'
#45
b1000000000000000010010000101100000000110110101110010011100101111 g#
b100000010001000001010 I$
#46
1"
b0 g#
b0 I$
b1000000000000000010010000101100000000110110101110010011100101111 M&
b100000100000010001000001010 /'
#47
b10000000000000000000001001110000 #
b100011100010111 c
b100000010001000001010 /'
b11001100111011 U*
#48
b10000000000000000000001001110100 #
b1011110100001110000011100010011 c
b11000100000010001000001010 /'
b11001100111100 U*
#49
0"
b10000000000000000000001001111000 #
b110110101110010011100101111 c
b11001100111101 U*
b1000100000101000000110110101110010011100101111 W+
#50
b1000100000010001000001010 /'
b0 W+
#51
b10000100000010001000001010 /'
#54
b100000100000010001000001010 /'
#56
1"
#57
b10000000000000000000001001111100 #
b1110000011100011011 c
b0 M&
b0 /'
b11001100111110 U*
#58
b10000000000000000000001010000000 #
b11111111111101010000010100011011 c
b11001100111111 U*
#59
b10000000000000000000001010000100 #
b10111001010000000001100011 c
b11001101000000 U*
#60
0"
b10000000000000000000001010001000 #
b100010011010000011 c
b11001101000001 U*
#153
b10000000000000000000001010100100 #
b100010011110000011 c
#157
b1000000000000100000000000000000000000000000000100010011110000011 E"
b100000000010100001110 '#
#158
b0 E"
b0 '#
b1000000000000100000000000000000000000000000000100010011110000011 g#
b100000000010100001110 I$
#159
b1000000000000000010010000101100001011010000001110010100000100011 E"
b100000001010000000000 '#
b0 g#
b0 I$
b1000000000000100000000000000000000000000000000100010011110000011 M&
b100000000010100001110 /'
#160
b0 E"
b0 '#
b0 M&
b0 /'
#161
b1000000000000000010010000101110001011010111101110010011000100011 E"
b100000001101000000010 '#
b1000000000000000010010000101100001011010000001110010100000100011 g#
b100000001010000000000 I$
b1010000111000000000000000100010011110000011 W+
#162
b0 E"
b0 '#
b0 g#
b0 I$
b1000000000000000010010000101100001011010000001110010100000100011 M&
b100000001010000000000 /'
b0 W+
#163
1"
b1000100000001010000000000 /'
#164
b10000000000000000000001010101000 #
b100011100010111 c
b11001101000010 U*
#165
0"
b10000000000000000000001010101100 #
b1011010000001110010100000100011 c
b11001101000011 U*
#166
b10000100000001010000000000 /'
#169
b100000100000001010000000000 /'
#170
b1000000000000000010010000101110001011010111101110010011000100011 g#
b100000001101000000010 I$
#171
1"
b0 g#
b0 I$
b1000000000000000010010000101110001011010111101110010011000100011 M&
b100000100000001101000000010 /'
#172
b10000000000000000000001010110000 #
b100011100010111 c
b100000001101000000010 /'
b11001101000100 U*
#173
0"
b10000000000000000000001010110100 #
b1011010111101110010011000100011 c
b1000100000001101000000010 /'
b11001101000101 U*
#174
b10000100000001101000000010 /'
#177
b100000100000001101000000010 /'
#179
1"
#180
b10000000000000000000001010111000 #
b11111110010111111111000001101111 c
b0 M&
b0 /'
b11001101000110 U*
#181
0"
b10000000000000000000001010111100 #
b100011110010111 c
b11001101000111 U*
#245
1"
b10000000000000000000001010011100 #
b1111111100000000000000001111 c
#246
0"
b10000000000000000000001001100100 #
b100000000011010010011 c
b11001101001000 U*
#333
b10000000000000000000001010100000 #
b1000000001100111 c
#338
1"
#339
0"
b10000000000000000000001010100100 #
b100010011110000011 c
b11001101001001 U*
#505
b10000000000000000000001100101100 #
b1000000011001100011 c
#510
1"
#511
0"
b10000000000000000000001100110000 #
b1000000000010100010011 c
b11001101001010 U*
#597
1"
b10000000000000000000001100111000 #
b10100010111 c
#598
0"
b10000000000000000000001100111100 #
b1100011000001010000010100010011 c
b11001101001011 U*
#604
1"
#605
b10000000000000000000001101000000 #
b11010010000000000000011101111 c
b11001101001100 U*
#606
0"
b10000000000000000000001101000100 #
b11011100010111 c
b11001101001101 U*
#693
b10000000000000000000010011100100 #
b1010100011010000011 c
#697
b1000000000000000000010010110100000000000000001010100011010000011 E"
b100000000011000001010 '#
#698
b0 E"
b0 '#
b1000000000000000000010010110100000000000000001010100011010000011 g#
b1000100000000011000001010 I$
#699
b0 g#
b0 I$
b1000000000000000000010010110100000000000000001010100011010000011 +%
b100000000011000001010 k%
#700
b0 +%
b0 k%
#782
b100000001100000000000000000100000000000000001110010011110000011 E"
b100010010010000000001 '#
#783
b0 E"
b0 '#
#787
b100000001100000000000000000010000000000110101100010000000100011 E"
b100110010100100000101 '#
#788
b1000000000000000000010010110100100000000000001010100011010000011 E"
b100110010100100000110 '#
#789
b0 E"
b0 '#
b1000000000000000000010010110100100000000000001010100011010000011 g#
b1000100110010100100000110 I$
#790
b0 g#
b0 I$
b1000000000000000000010010110100100000000000001010100011010000011 +%
b100110010100100000110 k%
#791
b0 +%
b0 k%
#850
b1100000101000000000000001010100011010000011 W+
b1010100 9,
#851
1"
b0 W+
b0 9,
#852
0"
b10000000000000000000010011101000 #
b10000001101000101001100011 c
b11001101001110 U*
#855
b100000001100000000000000000100000000000000001110010011110000011 g#
b100000010010000000001 I$
#856
1"
b0 g#
b0 I$
b100000001100000000000000000100000000000000001110010011110000011 M&
b100000010010000000001 /'
#857
b10000000000000000000010011101100 #
b1000000011000000000011100110111 c
b0 M&
b0 /'
b11001101001111 U*
#858
b10000000000000000000010011110000 #
b1000000011000000000011000110111 c
b100000001100000000000000000100000000000000001110010011110000011 o'
b10010000000001 Q(
b11001101010000 U*
#859
b10000000000000000000010011110100 #
b100001110000011100010011 c
b0 o'
b0 Q(
b11001101010001 U*
#860
b10000000000000000000010011111000 #
b10001100000011000010011 c
b11001101010010 U*
#861
b10000000000000000000010011111100 #
b101010000010100010011 c
b11001101010011 U*
#862
0"
b10000000000000000000010100000000 #
b1110010011110000011 c
b100000001100000000000000000100000000000000001110010011110000011 3)
b10010010000000001 s)
b11001101010100 U*
#895
b100010010000000001 s)
#896
b100 u*
b1001000000000100000000000001110010011110000011 W+
b100 9,
#897
1"
b0 3)
b0 s)
b0 u*
b0 W+
b0 9,
#898
0"
b10000000000000000000010100000100 #
b100001111111011110010011 c
b11001101010101 U*
#902
1"
b100000001100000000000000000010000000000110101100010000000100011 g#
b100000010100100000101 I$
#903
b10000000000000000000010100001000 #
b11111110000001111001110011100011 c
b0 g#
b0 I$
b100000001100000000000000000010000000000110101100010000000100011 M&
b100000010100100000101 /'
b11001101010110 U*
#904
b10000000000000000000010100001100 #
b1101000011010011011 c
b1000100000010100100000101 /'
b11001101010111 U*
#905
0"
b10000000000000000000010100010000 #
b110101100010000000100011 c
b11001101011000 U*
#906
b10000100000010100100000101 /'
#909
b100000100000010100100000101 /'
#910
b100000001100000000000000000010000000000110101100010000000100011 o'
b10100100000101 Q(
#911
b0 o'
b0 Q(
#914
1"
#915
0"
b10000000000000000000010100010100 #
b1010100011010000011 c
b0 M&
b0 /'
b11001101011001 U*
#921
b100000001100000000000000000100000000000000001110010011110000011 E"
b111110000011100001101 '#
#922
b0 E"
b0 '#
b1010010000011000000000000001010100011010000011 W+
b1101000 9,
#923
1"
b0 W+
b0 9,
#924
0"
b10000000000000000000010100011000 #
b11111110000001101001001011100011 c
b11001101011010 U*
#928
1"
#929
0"
b10000000000000000000010100011100 #
b1000000001100111 c
b11001101011011 U*
#1018
b10000000000000000000010011111100 #
b101010000010100010011 c
#1023
1"
b100000001100000000000000000100000000000000001110010011110000011 E"
b100000000011000001001 '#
#1024
0"
b10000000000000000000010100000000 #
b1110010011110000011 c
b0 E"
b0 '#
b100000001100000000000000000100000000000000001110010011110000011 g#
b100000000011000001001 I$
b11001101011100 U*
1y,
#1025
b0 g#
b0 I$
b100000001100000000000000000100000000000000001110010011110000011 M&
b100000000011000001001 /'
#1026
b0 M&
b0 /'
#1027
b100000001100000000000000000010000000000110101100010000000100011 E"
b100010001010000001101 '#
#1028
b1000000000000000000010010110101000000000000001010100011010000011 E"
b100010001010000001110 '#
#1029
b0 E"
b0 '#
b1000000000000000000010010110101000000000000001010100011010000011 g#
b1000100010001010000001110 I$
#1030
b0 g#
b0 I$
b1000000000000000000010010110101000000000000001010100011010000011 +%
b100010001010000001110 k%
#1031
b0 +%
b0 k%
b101000000111000000000000001010100011010000011 W+
b1100101 9,
#1032
b0 W+
b0 9,
